"","taxa","s1","cobdiam_BLUP.Hung_2012_1"
"1","4226",24.6532763197225,26.15
"2","4722",21.3270391708729,24.48
"3","a554",23.2082498026133,23.49
"4","ab28a",24.8756740926958,25.02
"5","b104",26.5518825103878,26.5
"6","b105",25.846293772784,24.98
"7","b115",24.8872449566638,22.91
"8","b37",25.545857436412,26.23
"9","b52",24.5962766539823,26.98
"10","b57",25.0039082702389,30.13
"11","b64",24.5702356016901,27.46
"12","b73",26.7982472981162,29.13
"13","b73htrhm",26.769904356283,28.55
"14","c49a",24.5613163374035,29.4
"15","ch9",24.2170527145468,24.27
"16","ci31a",25.4029098272708,24.93
"17","cm105",25.6141047034121,25.4
"18","cm37",23.9079338705747,22.41
"19","cml14",25.8151070832359,23.67
"20","cml218",26.0247786693775,26.92
"21","cml281",25.6892237065778,25.8
"22","cml321",25.6096111871458,26.48
"23","cml45",25.9135946046934,23.46
"24","cml77",24.9180000040455,29.49
"25","co106",24.416941718059,25.01
"26","ga209",25.0402594826265,23.26
"27","h105w",24.2891308934637,28.48
"28","i29",23.9079566292169,24.51
"29","ia5125",24.065467903625,22.8
"30","ids69",20.2558665380474,18.18
"31","il14h",23.3072827500437,25.02
"32","ki21",24.5819334058717,23.55
"33","ki43",25.6505729795892,23.9
"34","m14",24.8033631466178,28.23
"35","ms153",24.8503472238325,26.82
"36","mt42",24.0946582373032,21.17
"37","n6",24.4058316341051,25.28
"38","nc236",25.1820637630633,23.37
"39","nc260",24.0869943673967,22.23
"40","nc262",27.0350777725452,26.32
"41","nc302",24.1561955156769,24.17
"42","nc306",26.6244799530379,22.97
"43","nc314",25.3244996741919,24.25
"44","nc326",26.8860816638711,27.25
"45","nc33",24.7707524016378,24.17
"46","nc360",25.3566287125997,24.75
"47","nc362",25.3424291768603,23.45
"48","nd246",24.075005664421,22.88
"49","oh40b",25.6260047697797,24.98
"50","os420",25.27862323834,26.47
"51","r168",24.9312895118663,21.88
"52","sc357",24.5235725007484,20.59
"53","sd44",24.661376822561,24.4
"54","tx601",24.7716371031747,27.48
"55","tzi16",25.648090188851,27.36
"56","tzi9",25.8875867814988,26.6
