"","taxa","s1","coblength_BLUP.Hung_2012_1"
"1","3316",117.449540054046,132.81
"2","a632",137.331997484983,124.01
"3","a641",125.876879852127,118.61
"4","b105",132.94033465777,138.58
"5","b109",123.701142804703,128.49
"6","b164",124.22984078305,140.71
"7","b46",141.856126291507,129.94
"8","b57",123.906073525074,126.48
"9","b75",129.392505003406,123.92
"10","b84",134.853793729034,152.6
"11","c123",143.692781462706,131.91
"12","ci28a",138.503286024108,131.47
"13","cm174",125.818728322982,120.44
"14","cm7",117.95876180368,104.9
"15","cml103",129.468706528486,142.16
"16","cml14",125.27697200538,113.87
"17","cml154q",123.615488893179,149.54
"18","cml218",124.111952032525,127
"19","cml254",129.259120695066,126.39
"20","cml321",123.978312088188,133
"21","cml322",127.162692404579,121.4
"22","cml328",124.642027502122,96.5
"23","cml331",126.365902220989,124.7
"24","co255",118.68637241025,141.34
"25","ep1",118.709693934005,113.31
"26","h84",133.655594593859,118
"27","h91",139.740724417064,137.36
"28","h99",130.298511790265,124.58
"29","hi27",126.163720690246,124.47
"30","i137tn",123.337725218658,126.35
"31","ia5125",118.445956035274,96.29
"32","ids69",121.531673609141,112.09
"33","ki11",126.241929634745,132.74
"34","ky228",122.415875123402,129.62
"35","m37w",126.375627820067,122.8
"36","mo1w",122.035558994228,116.37
"37","mo44",133.439431299072,140.28
"38","mo45",125.277993662421,148.29
"39","nc260",132.168939308528,140.23
"40","nc262",135.2536824866,124.92
"41","nc33",124.9233954915,132.03
"42","nc342",133.611396352791,142.57
"43","nc350",118.331492621946,106.99
"44","nc354",124.691583118491,118.96
"45","nc356",124.006882647465,112.87
"46","oh40b",138.829081448776,163.9
"47","pa762",138.287907607956,121.79
"48","pa875",125.548897011337,132.81
"49","r168",133.424827862764,114.52
"50","sa24",130.445027821039,158.65
"51","sc213r",122.945257645913,128.26
"52","sc55",124.116284139717,109.58
"53","tzi9",123.57425546375,135.96
"54","va99",140.174762828223,145.73
"55","wf9",126.909250633714,130.22
"56","yu796ns",129.336658254346,99.13
