"","taxa","s1","coblength_BLUP.Hung_2012_1"
"1","3316",124.712691086506,132.81
"2","a556",126.918496896514,105.51
"3","a641",125.492085746424,118.61
"4","a679",128.868900417989,147.37
"5","a682",133.153308471975,137.85
"6","b103",138.288047808627,132.18
"7","b104",134.762898773229,128.54
"8","b14a",132.753216031644,148.75
"9","b164",128.476766751761,140.71
"10","b76",131.868474124538,131.82
"11","ch70130",123.543559677354,129.99
"12","ci21e",126.976389819088,143.46
"13","ci64",120.204895894331,136.12
"14","ci7",129.801734006402,117.44
"15","cml154q",125.713198537925,149.54
"16","cml220",124.503159316745,123.1
"17","cml247",125.469183287798,113.43
"18","cml38",126.45546613212,129.71
"19","cml77",124.315470251129,131.37
"20","co106",122.52169450976,107.6
"21","e2558w",121.111003819377,156.91
"22","f6",122.515311565883,119.12
"23","h49",125.716484166738,124.24
"24","i205",135.509418373118,88.45
"25","il14h",115.604542418672,107.78
"26","k64",121.599350382909,132.56
"27","ki14",126.718924730151,126.99
"28","ki3",125.984476533328,107.58
"29","ki44",124.297413428508,102.88
"30","ky226",130.152847399345,114.87
"31","mo17",140.163938036343,156.82
"32","mo45",128.156253611667,148.29
"33","mo47",127.258474652425,109.01
"34","ms153",126.074508611185,123.74
"35","n28ht",131.537283792298,131.33
"36","nc262",136.536739084655,124.92
"37","nc264",120.889832384484,118.34
"38","nc294",127.234255934941,110.56
"39","nc298",123.809510648613,111.15
"40","nc33",125.770751804832,132.03
"41","nc340",121.520935991656,141.71
"42","nc346",126.9574928564,136.71
"43","oh43",137.70742243946,143.3
"44","oh43e",137.763218962531,126.04
"45","r109b",127.501072095374,108.36
"46","r177",134.819667766297,110.51
"47","r229",128.362672995571,121.74
"48","sa24",127.261670218646,158.65
"49","sc55",124.674043688716,109.58
"50","tzi10",124.543257663121,133.95
"51","tzi11",124.572696514268,109.02
"52","tzi8",125.98118413368,118.69
"53","va102",128.309104302951,140
"54","va26",133.957642210537,130.01
"55","va35",139.780440281058,150.08
"56","w22",130.090296901853,128.18
