"","taxa","s1","coblength_BLUP.Hung_2012_1"
"1","3316",116.259971411111,132.81
"2","3811",138.887502729423,140
"3","a6",119.42427816115,126.77
"4","a635",137.029312302346,115.98
"5","a641",132.312084222565,118.61
"6","a654",120.57708692118,119.9
"7","b115",129.780299116393,152.51
"8","b46",142.05202892535,129.94
"9","b73",127.510652026185,134.63
"10","b73htrhm",126.951786843052,122.23
"11","b84",131.398718386368,152.6
"12","ci1872",123.031017996006,127.16
"13","ci28a",136.474170646094,131.47
"14","ci3a",129.988147696982,115.71
"15","cm105",124.835268994863,127.66
"16","cml108",126.36436536298,129.48
"17","cml11",134.63214020581,142.15
"18","cml14",126.34214171082,113.87
"19","cml228",120.893434053881,129.73
"20","cml321",123.166949224472,133
"21","cml332",122.846126391046,127.89
"22","cml52",121.769883622761,118.55
"23","cml77",122.156855202215,131.37
"24","cml92",128.922616874823,146.84
"25","co106",123.081145355162,107.6
"26","de1",135.32243235637,156.72
"27","de2",136.098457190916,140.05
"28","de3",135.360515191774,126.57
"29","de811",141.588489265852,125.97
"30","h105w",122.293350901956,133.22
"31","h91",138.304837428098,137.36
"32","h95",130.37583030507,121.04
"33","h99",132.008824671852,124.58
"34","hp301",121.858000199626,122.89
"35","i205",133.52415783873,88.45
"36","k55",126.425965142407,116.8
"37","ky21",125.161607156252,127.79
"38","m162w",135.625860548768,111.7
"39","nc290a",131.041720870177,134.14
"40","nc296",130.37125613139,128.07
"41","nc306",121.814547740906,119.04
"42","nc320",123.179668399938,121.95
"43","nc340",120.014116918043,141.71
"44","nc342",130.436840618944,142.57
"45","nc364",131.119068941308,149.57
"46","nc366",126.284218779588,122.14
"47","pa880",127.348017447806,126.14
"48","r168",135.505057884903,114.52
"49","r4",127.817012549425,157.59
"50","sc213r",124.26140345452,128.26
"51","t234",122.660845300092,133.11
"52","tzi8",126.428290707688,118.69
"53","va17",134.598189497549,130.45
"54","va85",136.370700864272,148.83
"55","w153r",123.362101200701,107.83
"56","wd",123.011181432692,82.49
