"","taxa","s1","coblength_BLUP.Hung_2012_1"
"1","4226",125.156471281192,123.15
"2","4722",131.532847992137,145.16
"3","a554",118.77371102971,95.98
"4","ab28a",129.768404732502,148.57
"5","b104",136.201890103576,128.54
"6","b105",133.959032160797,138.58
"7","b115",129.724870425635,152.51
"8","b37",127.047316088543,146.1
"9","b52",128.839332638911,151.14
"10","b57",124.936296497549,126.48
"11","b64",135.285496822415,125.54
"12","b73",133.004779749275,134.63
"13","b73htrhm",132.338702741241,122.23
"14","c49a",122.119150395089,116.46
"15","ch9",123.777451474038,108.26
"16","ci31a",125.201872355018,121.93
"17","cm105",126.882650874193,127.66
"18","cm37",119.301498682379,120.84
"19","cml14",126.207149530288,113.87
"20","cml218",123.958981698049,127
"21","cml281",123.729248184232,124.6
"22","cml321",124.522001799669,133
"23","cml45",125.280809150829,128.72
"24","cml69",125.578558883017,118.33
"25","cmv3",120.294279737748,96.08
"26","f7",123.692642043779,109.21
"27","gt112",126.436608397833,124.36
"28","i205",132.834959791677,88.45
"29","ia2132",118.651803606421,106.52
"30","ids28",125.137455978725,110.44
"31","il101",114.727907658388,107.75
"32","ki2021",125.383726840612,137.85
"33","ki3",123.636283902088,107.58
"34","l578",125.91259348084,120.28
"35","ms153",122.96438746798,123.74
"36","mt42",120.208048341194,109.36
"37","n6",127.539014194231,132.65
"38","nc236",126.31573693583,113.29
"39","nc260",135.687455346754,140.23
"40","nc262",136.095528753658,124.92
"41","nc302",119.746822222322,130.65
"42","nc306",126.994964139725,119.04
"43","nc314",120.279122687676,121.73
"44","nc326",131.806011622374,116.67
"45","nc33",125.64003471483,132.03
"46","nc360",131.476627453095,145.82
"47","nc362",137.252212240724,133.85
"48","nd246",122.519196407914,129
"49","oh40b",132.21250964645,163.9
"50","os420",131.644469020442,132.01
"51","r168",132.500556426515,114.52
"52","sc357",124.089494943552,115.04
"53","sd44",130.195573646228,146.78
"54","tx601",124.08837356911,128.18
"55","tzi16",130.862114340553,120.82
"56","tzi9",123.388473898513,135.96
