"","taxa","s1","cobmass_BLUP.Hung_2012_1"
"1","4226",13.6316964384574,15.27
"2","4722",11.0207608047422,15.19
"3","a554",12.6924962838933,12.19
"4","ab28a",14.5175442510088,20.84
"5","b104",17.390793706151,18.44
"6","b105",16.1111632211393,13.62
"7","b2",16.6678579347984,30.86
"8","b37",16.6949419199008,21.99
"9","b57",14.6597523419886,24.7
"10","b64",15.0222294285162,15.2
"11","b73",16.849610814525,20.74
"12","b73htrhm",16.7308893955628,19.8
"13","ci31a",14.7456317279554,13.77
"14","cm105",13.6040363922202,14.94
"15","cm37",9.135833471044,8.51
"16","cml218",15.0411895860724,18.27
"17","cml254",16.230179864254,10.73
"18","cml281",15.1524742518408,11.78
"19","cml328",15.4432177781916,10.79
"20","cml341",16.0394374033523,16.74
"21","co106",13.864211641183,11.46
"22","de1",14.7954824469853,23.66
"23","de2",14.9246800119921,24.38
"24","e2558w",14.2481870398309,11.66
"25","f44",14.1203323008082,10.45
"26","i29",12.2540843414649,10.61
"27","k64",16.8272570754362,19.31
"28","ki21",14.500021076095,9.79
"29","ki43",15.3143730336663,12.68
"30","mo1w",15.5407035943687,12.73
"31","ms1334",13.7905050775108,15.95
"32","n192",16.1217875651363,13.74
"33","n6",14.031969979491,15.77
"34","nc230",15.16679365385,17.78
"35","nc260",17.0807601573886,16.1
"36","nc296",10.9091745985127,10.41
"37","nc300",15.0458929835542,15.77
"38","nc302",13.0944891425623,12.68
"39","nc304",14.1802928871103,7.66
"40","nc324",13.5884993526964,13.54
"41","nc328",17.8961251500456,15.45
"42","nc348",12.0486541774942,10.92
"43","nc350",12.6077285111131,9.78
"44","p39",7.69720942334125,9.43
"45","pa91",17.5503317997347,16.26
"46","r109b",14.7439492098743,10.81
"47","r177",15.1150005008534,12.57
"48","r229",16.6836272467663,15.99
"49","sc213r",16.5325674225632,18.16
"50","sd40",13.823524899227,26.3
"51","sd44",14.7448520854245,19.14
"52","tx601",15.1899975653799,18.39
"53","tzi10",15.1526417833308,11.27
"54","tzi11",15.3238889770876,10.22
"55","w22",14.4544417637393,10.75
"56","w22rrstd",14.2638791441956,12.26
