"","taxa","s1","cobmass_BLUP.Hung_2012_1"
"1","a239",14.303837738536,11.88
"2","a556",14.9216077243976,14.93
"3","a632",16.1809897077433,12.13
"4","a659",13.8559416309793,13.22
"5","a661",13.437938137702,18.56
"6","a682",14.3965897072324,11.74
"7","ab28a",15.0885628791613,20.84
"8","b109",17.3383822082666,15.07
"9","b64",15.0296321056492,15.2
"10","b77",14.6380745224383,13.29
"11","b84",19.1585139605693,19.66
"12","ci66",15.146177610417,18.15
"13","cm37",10.0402278742064,8.51
"14","cml287",14.7515227107202,16.99
"15","cml333",15.138094740933,14.02
"16","de3",17.8918597860346,19.99
"17","ep1",12.8171410450848,10.76
"18","f7",13.1670885342605,7.68
"19","ga209",14.2343587526472,9.43
"20","gt112",16.7191742077081,16.18
"21","h84",18.2308451717382,13.88
"22","hp301",9.00658652298396,9.14
"23","i137tn",14.0996432075001,11.77
"24","i29",12.7875402048886,10.61
"25","ia2132",11.6822114596556,6.96
"26","ids28",13.03694644897,7.54
"27","ids91",8.65735651418201,8.99
"28","k55",16.2553304984486,17.04
"29","ki14",14.56683033838,13.4
"30","ki3",13.6140971455075,13.34
"31","mo17",14.4564351173947,12.99
"32","mo18w",13.4200494969373,12.02
"33","ms71",14.1361565407967,17.94
"34","n192",16.0781667136964,13.74
"35","n6",14.2902348587085,15.77
"36","nc236",15.2996727374834,12.86
"37","nc238",16.3495955267911,19.78
"38","nc296",10.7018639482882,10.41
"39","nc302",11.3773341043322,12.68
"40","nc310",17.0604486716686,19.57
"41","nc336",10.5105056379866,8.18
"42","nc352",10.5689600357957,10.97
"43","nc360",15.0642142849571,17.68
"44","nc362",16.2547567082028,12.4
"45","oh43e",16.6766056992457,13.98
"46","pa880",15.7686044736519,20.02
"47","r229",18.3324484223913,15.99
"48","sc55",14.9340616638657,13.08
"49","sg1533",11.41343932051,11.64
"50","sg18",11.0165030084317,9.84
"51","tzi18",15.2197426085422,19.78
"52","tzi8",14.9745016749761,12.58
"53","va102",18.1871867430125,17
"54","va14",16.1169696049383,15.35
"55","va26",15.306476091359,16.04
"56","w22",12.8363195084418,10.75
