"","taxa","s1","ear_height_BLUP.Peiffer_2014"
"1","3316",84.326762176501,82.83
"2","3811",78.5412937664693,104.189
"3","a6",88.9387888562707,116.416
"4","a635",77.0429622895056,52.694
"5","a641",72.0474749727813,58.157
"6","a654",65.4493839120206,48.17
"7","ab28a",74.5295814495876,80.35
"8","b115",73.9693721592483,93.253
"9","b46",69.474825316609,60.34
"10","b73",84.8839544727101,88.893
"11","b73htrhm",84.7199888673857,83.888
"12","b84",74.0282945071183,81.188
"13","ci1872",77.8635155524565,76.154
"14","ci28a",86.8892904090051,84.648
"15","ci3a",77.2559623834526,85.879
"16","cm37",50.1276248135968,39.721
"17","cm7",66.2911989415587,38.651
"18","cml108",95.7151000468411,77.824
"19","cml11",109.12583706379,115.798
"20","cml264",100.441310919728,67.506
"21","cml331",87.9632755743047,111.731
"22","cml92",90.5191286763786,92.737
"23","co106",72.1937381512651,48.132
"24","d940y",78.0328182047482,91.74
"25","de1",68.5405823307066,77.472
"26","de2",68.8326678356612,68.094
"27","de3",73.582380101236,80.604
"28","de811",76.5275874570583,85.148
"29","h95",67.0670607318586,65.771
"30","h99",69.9991563149929,41.01
"31","hy",69.9225105605147,74.109
"32","i205",68.8914305953548,58.022
"33","il677a",59.0878731992176,58.089
"34","ky21",75.6991247191542,95.855
"35","ky226",79.5963817367179,85.249
"36","ky228",76.7772545631822,77.014
"37","m162w",84.8508394936126,90.241
"38","mo24w",75.2749544204863,105.028
"39","ms71",65.4216582166017,63.806
"40","nc296a",84.2298066552821,74.104
"41","nc300",88.4574504175175,82.71
"42","nc306",77.6091777223121,69.626
"43","nc318",88.7703441093219,87.802
"44","nc348",82.9007230716785,80.001
"45","nc352",78.6241792840352,77.848
"46","nc364",70.4255863510406,74.068
"47","oh43e",59.7157857953661,47.636
"48","pa880",75.3329728234401,81.284
"49","r109b",69.8383069177129,70.688
"50","r168",68.5766743022051,80.925
"51","r4",66.7673391175069,70.728
"52","sc357",86.4001278698966,70.031
"53","sd40",69.6272334661151,86.679
"54","t232",82.3304215381954,100.343
"55","t234",76.4381173791762,73.206
"56","tx303",88.0000471243712,113.407
"57","tx601",90.6926057668586,117.134
