"","taxa","s1","ear_height_BLUP.Peiffer_2014"
"1","4226",73.3562204820944,89.529
"2","a214n",80.298008299138,103.286
"3","a239",67.5343325190441,59.421
"4","a634",71.3324617162927,72.218
"5","a635",74.0007383803289,52.694
"6","a654",64.8159049792576,48.17
"7","a659",67.590845534017,54.805
"8","a661",65.6153895850988,71.051
"9","a682",66.9793287512406,64.128
"10","b105",73.7487110575211,66.74
"11","b57",75.2294845491497,58.889
"12","b64",77.7151567658419,59.784
"13","ci3a",76.2581207700576,85.879
"14","cm7",66.6306193986337,38.651
"15","cml10",97.7128100594962,116.862
"16","cml103",90.1824775643442,112.703
"17","cml11",98.0017648920465,115.798
"18","cml228",91.8674388605452,106.461
"19","cml332",103.386873708783,86.569
"20","cml341",99.3713577567501,107.732
"21","cml5",98.1764525794875,110.495
"22","cml61",97.2251483454779,102.791
"23","cml92",90.6662799476931,92.737
"24","f44",81.3501420185033,110.957
"25","h105w",79.1069523641605,73.061
"26","h49",68.7416897238218,77.191
"27","hi27",89.1814816781866,111.217
"28","i29",75.6862900280194,62.125
"29","il101",53.6281117046972,37.69
"30","k4",75.1735812678097,91.028
"31","mo18w",80.3280145728426,89.682
"32","mo24w",74.7738349588674,105.028
"33","mo45",75.0120271691862,98.704
"34","mo46",74.2661398130281,62.334
"35","mo47",79.2183207546604,50.466
"36","mog",78.8280305700783,98.671
"37","ms1334",70.9973482761817,63.443
"38","ms153",69.1809367442532,74.821
"39","ms71",72.5062834237903,63.806
"40","nc222",77.2256969332103,89.136
"41","nc232",79.6270209229372,67.639
"42","nc258",67.7030771465715,77.332
"43","nc294",77.8913234194665,83.583
"44","nc298",81.3103130853071,83.683
"45","nc306",80.8525787034941,69.626
"46","nc324",69.957616407265,64.494
"47","nc33",78.7397114936366,112.044
"48","nc342",59.8085380986089,84.393
"49","nc344",64.1327597150236,77.708
"50","nc346",80.9017822371026,86.212
"51","nc368",81.4204071620444,76.379
"52","oh43",52.5889177120472,61.7
"53","tx303",86.8165803455265,113.407
"54","va22",72.4851479185974,74.413
"55","va26",62.4078018555325,68.413
"56","w153r",66.3507410142562,49.881
"57","w64a",69.2509373337318,65.711
