"","taxa","s1","ear_height_BLUP.Peiffer_2014"
"1","a632",73.8066839862216,83.075
"2","a635",75.1991585609457,52.694
"3","a679",75.2087525787408,74.95
"4","a682",66.1645610302698,64.128
"5","b105",74.1218533465254,66.74
"6","b68",81.0955875667665,79.28
"7","b73htrhm",86.0307343392775,83.888
"8","b76",73.3930879954239,62.199
"9","b79",70.3062758260185,81.614
"10","c49a",65.1484680044202,55.757
"11","cm37",50.0421608857198,39.721
"12","cml11",108.701604805945,115.798
"13","cml218",92.2253661572627,90.608
"14","cml247",96.9283985581226,89.752
"15","cml254",99.7699592503744,117.797
"16","cml314",94.043122679845,111.905
"17","cml322",93.9848914996398,87.098
"18","cml323",87.5962700569984,69.892
"19","cml77",86.3952815349962,83.506
"20","cml92",90.4461606763045,92.737
"21","f6",79.8322980049004,106.275
"22","ia2132",55.7770545012284,50.634
"23","ids28",71.706571040318,94.555
"24","k148",72.8317392546589,57.672
"25","ky21",76.2761053015636,95.855
"26","ky226",77.9915600002083,85.249
"27","ky228",77.6344017308861,77.014
"28","l578",85.0731003504823,104.004
"29","mo18w",84.3915913364277,89.682
"30","mo46",73.5333080754633,62.334
"31","ms153",68.1399205367226,74.821
"32","ms71",63.6616990150277,63.806
"33","nc230",71.3781629630779,71.035
"34","nc238",83.0023726169813,53.497
"35","nc250",71.4641027165665,60.694
"36","nc300",89.5315003726044,82.71
"37","nc304",77.2898823675004,40.577
"38","nc310",82.3860633219884,83.777
"39","nc318",88.4019932544438,87.802
"40","nc328",80.7474017942706,84.076
"41","nc342",63.9298019069355,84.393
"42","nc346",79.6748242577265,86.212
"43","nc360",80.7786594358294,73.518
"44","nc368",81.3072788675738,76.379
"45","pa91",71.6471533657575,78.08
"46","r168",66.8833087365391,80.925
"47","r177",67.2765543465551,56.778
"48","r4",68.9859810558796,70.728
"49","sc357",81.8659972735796,70.031
"50","sc55",82.4457146283823,104.896
"51","t8",74.2051231711105,99.638
"52","tzi9",93.8199023540438,101.324
"53","va14",71.0259014456895,63.867
"54","va22",71.1339527253241,74.413
"55","va35",70.5870132977658,66.107
"56","w117ht",68.6287415351899,48.839
"57","w64a",69.5607011593286,65.711
