"","taxa","s1","ear_height_BLUP.Peiffer_2014"
"1","4722",70.5198310892136,89.817
"2","a554",66.2848376523475,54.048
"3","a556",72.6342414440907,52.426
"4","a619",60.5670439529019,56.27
"5","b105",74.171794310539,66.74
"6","b64",80.3250147110313,59.784
"7","b84",79.5975743061271,81.188
"8","c103",68.0619707504678,61.395
"9","ci28a",87.4456379384691,84.648
"10","ci66",74.0580409825705,58.794
"11","cm105",62.7501986938337,57.179
"12","cm174",62.5711997494078,55.326
"13","cml108",95.9928079689437,77.824
"14","cml228",91.7930349411265,106.461
"15","cml247",96.9812186551558,89.752
"16","cml254",100.805971052941,117.797
"17","cml287",94.0929199392615,117.657
"18","cml314",93.9949110807058,111.905
"19","cml328",89.7478715747051,112.074
"20","e2558w",79.2087507444182,75.859
"21","h99",71.7538639602192,41.01
"22","hp301",73.1924528946165,86.784
"23","ia5125",62.5593535962367,45.511
"24","il14h",47.9349694340609,64.009
"25","k148",76.1523827812246,57.672
"26","ki2021",91.4615303360271,120.152
"27","ki21",84.369013442075,102.584
"28","ki43",92.2956609728406,71.374
"29","m162w",86.1650961357597,90.241
"30","ms153",70.9238826486927,74.821
"31","mt42",66.8925123041901,51.204
"32","n6",76.0203734936477,70.395
"33","nc236",80.28667905169,76.76
"34","nc250",73.509303262497,60.694
"35","nc264",85.2287780374474,79.287
"36","nc296a",84.222222674637,74.104
"37","nc298",82.1984979356822,83.683
"38","nc306",82.4287918326758,69.626
"39","nc310",84.8756373807066,83.777
"40","nc314",69.92057112911,66.04
"41","nc33",79.1660586043964,112.044
"42","nc336",78.271218673297,75.307
"43","nc340",88.990922584893,86.003
"44","nc368",84.7530513356658,76.379
"45","oh603",76.142812430049,57.354
"46","r109b",72.7101959596933,70.688
"47","sc213r",78.3034014807106,79.879
"48","t232",83.811054945049,100.343
"49","t8",74.771275731461,99.638
"50","va102",77.7540133238247,73.603
"51","va14",69.1913619645545,63.867
"52","va26",65.9360241088325,68.413
"53","va85",67.1685776959321,75.071
"54","vaw6",77.1698695629486,48.153
"55","w182b",57.6788987987455,49.271
"56","w22",62.3842818870346,64.623
"57","wf9",63.5396921292769,75.022
