"","taxa","s1","ear_height_BLUP.Peiffer_2014"
"1","3316",74.805948645419,82.83
"2","a556",71.8766834709797,52.426
"3","a641",65.0598061279638,58.157
"4","a679",75.5842942273125,74.95
"5","a682",66.5138714507648,64.128
"6","b103",74.0596395419177,59.409
"7","b104",78.3752894880728,59.538
"8","b14a",73.8561295720921,73.804
"9","b164",73.9072899106639,74.138
"10","b76",71.9193514973805,62.199
"11","ch70130",69.6672167934763,78.315
"12","ci21e",75.1018085950396,76.384
"13","ci64",85.1169669940185,92.393
"14","ci7",78.2113373264993,104.399
"15","cml154q",99.0430124041753,85.582
"16","cml220",95.6247474411741,57.625
"17","cml247",98.333566371528,89.752
"18","cml38",98.5992674541041,94.155
"19","cml77",88.2600701038513,83.506
"20","cmv3",57.8754211163315,46.746
"21","co106",71.6021743236803,48.132
"22","e2558w",80.8795139299458,75.859
"23","f6",81.2002431829189,106.275
"24","h49",68.8160894124621,77.191
"25","i205",72.6353795804262,58.022
"26","il14h",46.3534828548005,64.009
"27","k64",79.3968587764889,91.896
"28","ki14",100.760760192035,108.244
"29","ki3",103.541120506407,79.09
"30","ki44",95.793609755754,69.005
"31","ky226",79.3667747838508,85.249
"32","mef156552",58.7375461581122,67.118
"33","mo44",75.6656114818917,65.034
"34","mo46",73.9508728722765,62.334
"35","ms1334",72.1949747556765,63.443
"36","n192",75.9151326789876,65.291
"37","nc260",75.7056921157078,68.191
"38","nc262",72.6992253979417,45.1
"39","nc290a",71.4077068328512,56.08
"40","nc296a",84.0486274554095,74.104
"41","nc328",81.1325252364152,84.076
"42","nc338",84.9132629915305,97.99
"43","nc344",74.8351868090504,77.708
"44","oh40b",58.7860292634626,69.162
"45","oh43",51.7057614751371,61.7
"46","pa91",68.8096587821319,78.08
"47","r168",67.075962887456,80.925
"48","r177",68.5789057592579,56.778
"49","r4",69.4200200042099,70.728
"50","sc357",82.8106007552881,70.031
"51","tx601",91.7569466909692,117.134
"52","tzi10",93.5757196329477,104.863
"53","tzi25",91.2011448404872,99.64
"54","u267y",81.2634812087697,65.973
"55","va22",71.8633475517233,74.413
"56","va26",60.6063144903347,68.413
"57","w182b",58.5847833691175,49.271
