"","taxa","s1","ear_height_BLUP.Peiffer_2014"
"1","a239",68.4242914645226,59.421
"2","a556",72.1774329082346,52.426
"3","a659",69.7296836771448,54.805
"4","a661",66.0913486643444,71.051
"5","a680",81.3503536537175,86.572
"6","a682",62.9786144386155,64.128
"7","ab28a",82.4661413552753,80.35
"8","b64",80.4410867371174,59.784
"9","b77",78.8930657693248,66.267
"10","b84",78.2338446727644,81.188
"11","ci66",74.2221368519255,58.794
"12","cm174",63.0007234864739,55.326
"13","cm37",59.9102396816147,39.721
"14","cml264",99.9967175556635,67.506
"15","cml333",93.6539112012368,119.014
"16","cml38",95.4272499401591,94.155
"17","cml45",99.7749612540843,114.317
"18","cmv3",64.3930151266175,46.746
"19","e2558w",80.9184382724715,75.859
"20","hi27",88.1601173724046,111.217
"21","i205",72.3185134918968,58.022
"22","ia5125",66.9511190734612,45.511
"23","il101",57.2064399232642,37.69
"24","il677a",64.1046503836038,58.089
"25","ki21",86.4846923960264,102.584
"26","ki3",104.078284707934,79.09
"27","mo17",66.6163321522213,71.483
"28","mog",81.8951088095743,98.671
"29","ms71",70.7837054611203,63.806
"30","n192",77.8376786311373,65.291
"31","n6",76.6475816915367,70.395
"32","nc230",72.7656101201375,71.035
"33","nc304",77.6654331625512,40.577
"34","nc310",84.7360932394186,83.777
"35","nc314",67.8337946510862,66.04
"36","nc318",88.0640882584729,87.802
"37","nc326",83.2837207992148,85.584
"38","nc336",78.8852182504393,75.307
"39","nc344",71.6211319454302,77.708
"40","nc358",88.0865075152427,70.281
"41","nc368",78.7931124800312,76.379
"42","oh43",54.1887550585575,61.7
"43","os420",69.4863576339987,74.147
"44","p39",51.0218291524682,39.33
"45","r109b",73.1764034196346,70.688
"46","r177",69.2073334148787,56.778
"47","r229",84.8229994954488,83.373
"48","sc357",85.709042521136,70.031
"49","sc55",82.4483113850154,104.896
"50","t8",73.1714383058563,99.638
"51","tx303",88.7603553763927,113.407
"52","tzi8",96.4665257430133,114.136
"53","va14",69.8650219354881,63.867
"54","va22",70.2789451960902,74.413
"55","va85",67.3752112563196,75.071
"56","w22",62.529273617394,64.623
"57","wd",59.899679614993,53.458
