"","taxa","s1","earmass_BLUP.Hung_2012_1"
"1","4722",50.2289352496281,43.51
"2","a634",65.0578262023379,53.45
"3","b10",70.6662572510017,84.2
"4","b115",65.9275039395663,71.64
"5","b76",73.4554029859614,69.56
"6","b79",67.9926359446803,82.45
"7","ci91b",65.2540202360584,67
"8","cm7",60.2892455161027,46.41
"9","cml10",57.9039928038259,73.09
"10","cml14",62.0348342127227,71.07
"11","cml220",61.9413256533063,68.88
"12","cml247",62.2478801578921,52.48
"13","cml261",61.734196745216,81.22
"14","cml281",60.6774027943034,76.06
"15","cml322",64.2327322473818,64.56
"16","cml38",63.6568780794811,66.2
"17","co125",63.421093404698,39.78
"18","co255",58.5192290096171,59.8
"19","de2",80.0770575709814,87.7
"20","h99",65.1851594286256,68.61
"21","hi27",63.4870703683532,68.33
"22","ids91",43.7031738474088,38.7
"23","k148",63.9975279696483,58.38
"24","k4",66.0540004974576,75.74
"25","ki3",61.2015531658549,55.57
"26","ki44",62.2002724890697,57.48
"27","m162w",72.6634329680482,67.89
"28","m37w",60.2157559353541,52.86
"29","mo24w",66.0642350415499,100.33
"30","mo45",64.6607977640083,77.7
"31","mt42",59.4366746087575,44.59
"32","n28ht",70.2888506367122,76.47
"33","n7a",70.3084251558584,67.41
"34","nc264",60.307911037494,72.41
"35","nc310",78.761680850828,81.24
"36","nc320",61.9840941708922,78.16
"37","nc326",82.2202885117383,73.23
"38","nc328",79.4164556340048,70.06
"39","nc336",57.6606998291371,61.81
"40","nc354",58.3737979353734,56.11
"41","oh43",75.989215291736,73.48
"42","oh43e",75.0846723932749,71.24
"43","os420",66.5151032837628,62.94
"44","p39",44.3404549680973,44.8
"45","sa24",50.3635252554935,60.84
"46","sc213r",61.7990459771899,69.05
"47","sc55",63.221188614678,63.1
"48","sg1533",52.8126572144098,62.46
"49","tzi11",63.2799474848568,44.9
"50","tzi16",66.1114137923748,67.29
"51","tzi9",62.271593473367,88.81
"52","va14",71.5590749171814,56.89
"53","va59",74.2606830713518,69.69
"54","vaw6",68.2066932655145,61.84
"55","w22",64.2028641349097,51.99
"56","w64a",74.226104845769,56.5
