"","taxa","s1","earmass_BLUP.Hung_2012_1"
"1","4226",61.9553531326333,72.06
"2","4722",53.0965431006774,43.51
"3","a554",61.8452839131548,48.4
"4","ab28a",65.3204853081895,54.67
"5","b104",68.9304728195821,84.51
"6","b105",69.6342963821516,67.77
"7","b2",70.483302858657,106.48
"8","b37",68.5422745048469,90.94
"9","b52",67.5068350953869,73.3
"10","b57",63.6684094725769,91.43
"11","b64",63.7862866985407,69.67
"12","b73",77.2514262777498,91.55
"13","b73htrhm",76.8110676202298,97.93
"14","ci31a",66.3294270897949,62.01
"15","cm105",61.2241615716964,53.17
"16","cm37",49.4719780295781,40.67
"17","cml218",62.4015068455082,68.67
"18","cml332",68.1882978346816,70.7
"19","cml333",66.4740515902499,47.79
"20","cml5",64.6629216734183,68.86
"21","cml92",63.9836133347139,88.87
"22","co106",60.6729309832247,58.55
"23","co255",59.9492886050711,59.8
"24","f7",56.9267679932741,50.17
"25","h84",68.8247658820418,68.36
"26","ia5125",58.1893049127675,37.29
"27","k148",64.8896462880782,58.38
"28","ki11",64.8792532889229,71.21
"29","ki14",62.9290769522085,65.55
"30","ki43",64.7260386923198,47.34
"31","ky226",67.3128616649594,58.82
"32","l578",62.8437144198976,61.8
"33","mo1w",67.1363977523689,70.65
"34","mog",64.8936342348055,71.18
"35","n192",74.4683231853568,59.6
"36","n28ht",68.0773314115049,76.47
"37","nc222",64.4957809995369,63.26
"38","nc230",63.8151798023919,80.08
"39","nc238",62.8797247153026,74.5
"40","nc264",63.8347081231979,72.41
"41","nc300",69.62696419733,59.67
"42","nc328",77.055399910855,70.06
"43","nc344",75.4019812247704,73.42
"44","nc346",52.1458711331346,54.42
"45","nc356",58.0229026934896,65.66
"46","nc358",58.9747069340345,63.06
"47","nc366",65.780210935305,63.32
"48","nc368",68.4559586916846,62.84
"49","p39",46.6755266272314,44.8
"50","r109b",66.6934096303363,61.57
"51","r168",63.7963767913513,48.28
"52","r4",68.6983963029423,60.77
"53","sg18",51.1755779932273,55.06
"54","t232",66.099643807105,60.89
"55","t234",66.7114257700023,68.5
"56","tzi8",64.8214845953789,45.88
