"","taxa","s1","earmass_BLUP.Hung_2012_1"
"1","4226",64.3599459465263,72.06
"2","a214n",66.0085568221095,54.56
"3","a556",67.9852248080635,57.9
"4","a654",63.2766790743701,52.99
"5","a680",80.3607704636464,79.55
"6","b14a",65.8394856824659,67.07
"7","b37",66.24847756502,90.94
"8","b46",67.3355096787764,74.12
"9","b77",64.8667656767745,66.86
"10","ci31a",68.6340835164659,62.01
"11","ci66",66.1112889730939,58.31
"12","cm105",56.9895593978794,53.17
"13","cm174",55.7358497664556,61.65
"14","cm7",61.2951954835536,46.41
"15","cml157q",64.9492634266305,78.56
"16","cml238",63.9933630905024,57.89
"17","cml254",64.9828919065518,67.18
"18","cml261",62.5344688351733,81.22
"19","cml311",61.390092012981,65.04
"20","cml328",63.2670488938923,50.83
"21","cml5",64.2339669239117,68.86
"22","cml91",64.5731055030448,69.79
"23","co125",64.0674443160786,39.78
"24","ep1",57.1317035592245,67.05
"25","f44",64.1549139765336,38.09
"26","gt112",66.8039626676827,54.36
"27","hi27",64.4187656632494,68.33
"28","i205",71.5259557783062,43.83
"29","ids28",58.9393266049842,49.78
"30","ids69",44.4144994347878,38.9
"31","il101",50.5533588387181,37.32
"32","k64",70.5346957476426,72.88
"33","ki44",62.8986011070893,57.48
"34","mo44",66.8085456303589,71.44
"35","mo45",64.702870693458,77.7
"36","mog",65.1900597813067,71.18
"37","mp339",62.1126310360925,64.81
"38","n7a",71.1437269692585,67.41
"39","nc222",66.0423339058254,63.26
"40","nc238",66.6367155063961,74.5
"41","nc264",60.0466037652121,72.41
"42","nc298",58.3915400097546,54.79
"43","nc300",68.3612422172469,59.67
"44","nc310",76.6485819883314,81.24
"45","nc320",63.1524874363623,78.16
"46","nc362",74.9408748437883,71.12
"47","os420",67.3647463556591,62.94
"48","pa880",68.4211409560896,66.77
"49","r229",80.6798889568752,68.13
"50","sd44",70.201871777187,75.7
"51","sg1533",54.0225462835729,62.46
"52","t232",65.6595380994523,60.89
"53","tzi16",67.4020501613547,67.29
"54","va17",71.6742150316391,66.52
"55","w117ht",63.2756270621542,41.54
"56","wf9",71.8823120770924,82.21
