"","taxa","s1","earmass_BLUP.Hung_2012_1"
"1","3316",60.6581326145825,81.74
"2","3811",67.4454476830045,68.65
"3","a6",61.6449390076824,75.51
"4","a635",65.7586601556928,47.9
"5","a641",64.2287765380158,54.77
"6","a654",65.6561851617601,52.99
"7","b115",67.2358984122189,71.64
"8","b46",68.2964925499379,74.12
"9","b73",74.7142298194821,91.55
"10","b73htrhm",74.3259415613352,97.93
"11","b84",75.9426437966746,71.56
"12","c49a",61.0882064891621,47.66
"13","ci1872",62.5537361326562,56.48
"14","ci28a",80.4753814262461,72.74
"15","ci3a",64.8524708084288,65.65
"16","cm105",61.5349693353718,53.17
"17","cml103",64.9755458905708,77.98
"18","cml108",64.468481121829,60.15
"19","cml11",67.6635175001918,49.51
"20","cml14",64.0153134470569,71.07
"21","cml220",63.9205217933617,68.88
"22","cml228",62.5406945290188,60.12
"23","cml277",65.4824093624654,46.39
"24","cml333",66.7894454049027,47.79
"25","cml341",65.7779604867386,49.25
"26","co125",63.2808530889376,39.78
"27","d940y",67.2380107539779,53.78
"28","de811",67.8923162059923,74.14
"29","f2834t",64.6827346113889,67
"30","h49",70.4549514463973,77.44
"31","hi27",64.8579482466946,68.33
"32","i205",70.5629522425148,43.83
"33","ki43",63.8031254211533,47.34
"34","l578",64.1636522880429,61.8
"35","m37w",67.0985693334153,52.86
"36","ms1334",63.5004061409764,55.75
"37","n6",65.1730940961125,76.05
"38","nc260",68.0909010695982,67.78
"39","nc296a",56.2893689470812,46.03
"40","nc346",56.3794877242778,54.42
"41","nc348",57.9525819885657,58.04
"42","nc354",58.1530318156272,56.11
"43","nc358",60.2426354244579,63.06
"44","nc360",69.6301971033374,75.4
"45","p39",44.8117609774915,44.8
"46","pa880",68.6238523909928,66.77
"47","r4",69.7463898102354,60.77
"48","sd44",70.7623922979589,75.7
"49","sg1533",50.6971053537449,62.46
"50","sg18",48.2130543782741,55.06
"51","t8",69.1408138170111,78.37
"52","tzi25",69.1636507464148,78.7
"53","va99",71.4535270317613,85.52
"54","vaw6",67.4352083013284,61.84
"55","w117ht",63.085583198277,41.54
"56","w64a",73.4222207603739,56.5
