"","taxa","s1","earmass_BLUP.Hung_2012_1"
"1","a188",61.3644477029747,65.81
"2","a239",63.4754851657382,70.33
"3","a6",61.3129905357102,75.51
"4","a619",71.5690131598784,76.28
"5","a634",64.08769153414,53.45
"6","a661",59.2339835806885,65.79
"7","ab28a",65.942661095939,54.67
"8","b57",63.7993851685748,91.43
"9","b64",63.025733944874,69.67
"10","b75",68.3986360854661,84.12
"11","ch70130",61.8932656953375,69.17
"12","ch9",64.5483067633009,69.09
"13","cm37",49.4018403257711,40.67
"14","cml10",64.191851442734,73.09
"15","cml11",63.8356999193252,49.51
"16","cml254",66.2645551507727,67.18
"17","cml277",62.8637051383552,46.39
"18","cml281",62.0774500585966,76.06
"19","cml323",63.2307559115302,68.15
"20","cml52",62.70483256707,48.58
"21","cml61",65.5945370128098,76.19
"22","cml92",62.2186954002711,88.87
"23","d940y",61.4175061850437,53.78
"24","de3",73.4930889653016,74.86
"25","f44",63.5286542232345,38.09
"26","h105w",63.6520857822424,73.16
"27","hp301",49.0412464386223,38.75
"28","hy",71.924476180738,73.35
"29","i205",70.182970515544,43.83
"30","ids69",47.2807956242695,38.9
"31","il677a",51.0538722677062,61.49
"32","ki11",63.5359096698748,71.21
"33","m14",64.1012234573784,71.46
"34","mo44",66.6263916934392,71.44
"35","mo45",64.6886202935899,77.7
"36","nc250",68.3722033948287,72.55
"37","nc262",77.2927424935658,73.71
"38","nc294",77.2921888832823,63.93
"39","nc296a",55.4180188022335,46.03
"40","nc300",68.4451965056453,59.67
"41","nc302",55.1932064353654,54.42
"42","nc324",65.9419541463228,48.55
"43","nc326",82.2369381446569,73.23
"44","nc33",64.1825736310131,61.63
"45","nc366",65.1229352478966,63.32
"46","nc368",74.0363718340761,62.84
"47","oh40b",69.1282847546178,69.33
"48","sc55",63.7492552726094,63.1
"49","tzi16",67.4354255533832,67.29
"50","va35",72.7065991183199,81
"51","va59",72.4191688792825,69.69
"52","va85",68.4428731031322,66.72
"53","va99",70.2194492696238,85.52
"54","w22",62.8582631190585,51.99
"55","w64a",72.5268668260422,56.5
"56","wf9",72.7788884715743,82.21
