"","taxa","s1","earmass_BLUP.Hung_2012_1"
"1","3316",58.2074163726003,81.74
"2","a632",66.8442561762438,58.53
"3","a641",58.1095324035862,54.77
"4","b105",72.0458782111929,67.77
"5","b109",79.3307907853069,86.27
"6","b164",65.1611740351099,70.66
"7","b46",68.4461305635891,74.12
"8","b57",62.1164788716051,91.43
"9","b75",68.8020023171471,84.12
"10","b84",81.8220894965874,71.56
"11","c123",72.9701078134564,72.54
"12","ci28a",81.994488995783,72.74
"13","cm174",52.9631965840532,61.65
"14","cm7",58.2706344324841,46.41
"15","cml103",62.7896292264493,77.98
"16","cml14",62.1205735115215,71.07
"17","cml154q",60.5577100788917,88.64
"18","cml218",61.8981182933258,68.67
"19","cml254",65.2245120124321,67.18
"20","cml323",63.4627718193495,68.15
"21","cml328",63.5370366431637,50.83
"22","cml332",68.1437915812314,70.7
"23","cml333",65.1443348388101,47.79
"24","f6",61.2974597668041,57.37
"25","ga209",62.6995947691964,43.61
"26","h99",65.0721019591569,68.61
"27","hy",72.9931921523116,73.35
"28","ids69",40.906726342634,38.9
"29","il101",49.4515168979637,37.32
"30","ki2021",62.8953492197996,72.11
"31","ki3",60.4154533441294,55.57
"32","mo17",63.0570817726472,71.99
"33","mo1w",67.8322579618018,70.65
"34","mo24w",64.3865902751535,100.33
"35","mo45",66.9043563085141,77.7
"36","mo46",68.6543487575814,60.84
"37","mo47",66.7759932457604,59.67
"38","mog",64.9141540828896,71.18
"39","ms1334",61.371750640445,55.75
"40","n7a",70.4809790029481,67.41
"41","nc232",67.2114207107147,78.88
"42","nc238",60.374833024419,74.5
"43","nc262",80.6230891224319,73.71
"44","nc296",52.1786265371189,51.45
"45","nc342",77.1998133334567,66.07
"46","nc350",52.0790896484764,47.31
"47","nc356",58.7983795457212,65.66
"48","nc360",70.3586126523204,75.4
"49","oh40b",71.4149742734201,69.33
"50","oh43",76.4194885656115,73.48
"51","pa875",66.5636879815033,70.86
"52","sa24",47.3924954692437,60.84
"53","sc213r",57.4957363740974,69.05
"54","sc357",59.2829367525131,61.97
"55","tzi8",62.8278441968685,45.88
"56","va14",71.9062808587216,56.89
