"","taxa","s1","earmass_BLUP.Hung_2012_1"
"1","4722",54.2130118729588,43.51
"2","a188",61.496315732441,65.81
"3","a6",61.1528260328819,75.51
"4","a641",60.9379871621395,54.77
"5","b109",75.197998189121,86.27
"6","b14a",64.7245174494155,67.07
"7","b37",67.2575235019852,90.94
"8","b64",62.4736256058171,69.67
"9","b73htrhm",77.2467452739778,97.93
"10","c49a",59.3665422493335,47.66
"11","ch9",65.0777489160696,69.09
"12","ci1872",61.9463510862364,56.48
"13","ci64",67.9076908982136,78.81
"14","ci66",66.1455615884407,58.31
"15","cm105",59.4472430147578,53.17
"16","cml103",64.242561640447,77.98
"17","cml154q",61.1057027351239,88.64
"18","cml238",63.8339104037757,57.89
"19","cml323",63.0075440501957,68.15
"20","cml52",62.5700839971949,48.58
"21","de2",81.4460763731877,87.7
"22","de811",65.6281089422749,74.14
"23","e2558w",64.2851190696933,83.63
"24","gt112",67.9489774063003,54.36
"25","h99",66.3801614708284,68.61
"26","i137tn",60.6923712835384,76.3
"27","i205",70.5912146617939,43.83
"28","ia2132",53.6531617995765,44.59
"29","ids69",44.7924286161879,38.9
"30","il14h",50.1604930186094,46.34
"31","ki43",62.7738360987053,47.34
"32","ki44",62.4704161307472,57.48
"33","mo47",67.2790647914859,59.67
"34","mog",64.4732742801317,71.18
"35","n28ht",68.7423460329237,76.47
"36","n6",63.9570507363339,76.05
"37","n7a",69.9538479311267,67.41
"38","nc262",77.751826700235,73.71
"39","nc300",62.2035115151512,59.67
"40","nc320",65.7793968757559,78.16
"41","nc33",64.7695515506987,61.63
"42","nc340",62.175443347388,77.25
"43","nc348",56.1423969586408,58.04
"44","nc352",55.400088119509,66.79
"45","nc368",68.8094702975414,62.84
"46","oh40b",70.1908476623281,69.33
"47","p39",45.8743241743499,44.8
"48","r109b",66.0186884170082,61.57
"49","tzi10",60.4122231433434,44.57
"50","tzi16",65.6480368075351,67.29
"51","tzi9",62.458040979674,88.81
"52","va102",76.4371588990132,77.21
"53","va22",72.0354487099931,85.27
"54","va59",74.506648589594,69.69
"55","va99",70.4934310273967,85.52
"56","w117ht",62.846173954135,41.54
