"","taxa","s1","earrowno_BLUP.Hung_2012_1"
"1","4226",13.3987573069734,13.82
"2","a214n",14.5241621493769,13.1
"3","a239",13.6513493121573,13.53
"4","a634",14.1688988197158,12.59
"5","a635",14.2504323739096,13.47
"6","a659",13.6975611911468,13.06
"7","a661",13.4124718275262,14.56
"8","a682",12.4634744958187,10.44
"9","b105",14.6068597675266,15.03
"10","b64",14.305753408157,14.21
"11","b75",13.8594198724018,14.37
"12","ci3a",13.5758436317036,16.75
"13","cm7",13.4696933624373,13.37
"14","cml10",13.4647570021786,12.31
"15","cml103",13.3763757048595,13.45
"16","cml11",13.4438757187851,11.61
"17","cml158q",13.549879866188,13.82
"18","cml321",13.5978496650383,14.04
"19","cml331",14.0315148642586,13.42
"20","cml341",13.3195037983243,12.92
"21","cml38",13.5561332094072,15.04
"22","cml5",13.6035306155653,12.75
"23","cml52",13.4480611257929,11.49
"24","de1",13.7877271665652,15.08
"25","de2",13.7646612785581,15.66
"26","e2558w",13.8867565283875,12.26
"27","f2834t",13.1596552219608,12.17
"28","f44",13.2997457534615,12.89
"29","h105w",14.1786858202885,15.43
"30","i137tn",13.2310904186436,11.08
"31","i29",13.374282896668,16.21
"32","ky226",13.9201251850849,13.26
"33","ky228",13.3883620610983,12.25
"34","m162w",14.2289205602827,14.03
"35","mo24w",13.6010817737864,16.31
"36","mo45",13.4921369479043,13.25
"37","mo47",13.5377175639927,14.35
"38","mog",13.5520828674408,16.86
"39","ms153",13.443709672616,13.62
"40","nc258",13.6324909727218,14.17
"41","nc294",15.3931716182017,15.69
"42","nc306",15.4791217636408,12.73
"43","nc336",12.7903960169474,12.62
"44","nc338",12.9964764800915,13.58
"45","nc340",13.1196656379121,13.52
"46","nc356",13.2302031289187,12.34
"47","nc358",13.2730515470993,11.97
"48","nc364",13.7864498356287,14.21
"49","oh43",13.8871839797432,14.13
"50","r109b",13.7393889689463,12.65
"51","r177",13.7704811678266,12.9
"52","sc357",13.1978153035788,13.52
"53","sd44",13.8708804610715,15.93
"54","va22",13.381697773576,12.99
"55","va85",13.8079840684503,12.14
"56","w64a",14.1396337503623,13.16
