"","taxa","s1","earrowno_BLUP.Hung_2012_1"
"1","a239",13.8551572130659,13.53
"2","a6",13.3819669157515,14.11
"3","a619",13.7286932700686,14.16
"4","a634",14.0146459540686,12.59
"5","a661",13.5440048483173,14.56
"6","ab28a",14.0505394335884,11.14
"7","b52",13.9126553908839,16.5
"8","b57",13.6637374998973,14.61
"9","b64",14.0067743095318,14.21
"10","ch70130",13.6188333492992,12.03
"11","ch9",13.9570606000358,13.11
"12","cm37",13.6268171934945,11.19
"13","cml10",12.727200203427,12.31
"14","cml254",13.5652119915126,12.27
"15","cml264",13.5366426270613,14.13
"16","cml277",13.3015851273226,10.68
"17","cml281",13.4940128985759,13.72
"18","cml323",13.7183347266479,12.65
"19","cml38",13.6206701059292,15.04
"20","cml61",13.5298651036258,13.76
"21","co106",13.4635575459218,13.9
"22","e2558w",13.8418807131059,12.26
"23","f7",13.5316322526377,12.29
"24","h105w",13.9980181729904,15.43
"25","h91",14.0439516040767,14.64
"26","h99",13.8114916254398,12.38
"27","ia5125",13.6447359604226,13.41
"28","ids91",12.9397443446418,12.66
"29","k148",13.6381846762922,12.62
"30","k64",14.96121655854,13.3
"31","ki11",13.6831452228843,12.93
"32","ki14",13.7576362810119,12.27
"33","ki43",13.4108517787006,12.68
"34","ky21",13.9072905692249,12.51
"35","l317",13.8563231902495,13.78
"36","mo46",13.7846105042819,12.69
"37","nc260",14.007758978756,13.09
"38","nc264",13.6147167165908,13.03
"39","nc294",15.1943382664146,15.69
"40","nc302",12.9757811451162,11.18
"41","nc310",15.8704250885032,18.61
"42","nc314",14.3486647625887,14.16
"43","nc324",14.2112164444242,13.73
"44","nc338",12.8875517591572,13.58
"45","nc340",13.0168493830814,13.52
"46","nc344",13.6883955260652,14.49
"47","nc360",13.5845696476987,13.1
"48","oh43",13.8026345122314,14.13
"49","oh43e",14.0155659467647,13.91
"50","oh7b",13.9520831889707,13.83
"51","r229",15.9686566804118,14.17
"52","t234",13.9803751364709,14.42
"53","tzi25",14.4806462992637,13.65
"54","va59",12.8102572961694,11.82
"55","w182b",13.667644625771,12.17
"56","w22",13.9577139424163,12.81
