"","taxa","s1","GDD_DTS_BLUP.Peiffer_2014"
"1","a632",856.361120287429,810.269
"2","a635",865.562269782292,877.459
"3","a679",873.10988409749,806.035
"4","a682",850.102965938656,803.252
"5","b68",876.866458652651,949.673
"6","b73htrhm",877.453315041724,873.799
"7","b76",900.329151858852,830.01
"8","c49a",829.520750495131,727.484
"9","ci64",962.658844444034,948.413
"10","cm37",746.10451813636,714.745
"11","cml11",1042.95823199698,1095.991
"12","cml247",1052.58072728548,1115.544
"13","cml258",1051.23935402358,1151.571
"14","cml341",1051.00921732683,1118.355
"15","co125",843.496145061225,716.717
"16","de811",890.521059321415,948.96
"17","h49",884.754487008613,870.674
"18","hi27",990.570326296501,1063.474
"19","il101",771.995529832105,795.945
"20","k64",925.240088387193,971.641
"21","ki11",1031.85301522883,1064.963
"22","ki2021",1030.8995215515,1128.022
"23","l578",986.824109896447,1038.814
"24","mo18w",993.145135762591,1078.648
"25","ms71",850.163893457119,832.853
"26","n192",824.456581324249,786.308
"27","nc230",933.393271169444,938.131
"28","nc232",936.692202289458,954.24
"29","nc262",916.77939336513,838.685
"30","nc298",980.575374202787,972.789
"31","nc302",988.585671235403,933.517
"32","nc306",901.306757489523,911.786
"33","nc318",957.303463997895,946.804
"34","nc324",898.97161254941,918.923
"35","nc338",1001.40702492167,980.008
"36","nc340",1018.78324347141,986.75
"37","nc342",921.482604305501,889.499
"38","nc354",1009.47786188972,979.654
"39","nc356",989.758579708382,947.043
"40","nc360",967.391235054484,964.672
"41","nc362",922.082637007421,926.551
"42","os420",874.169680972215,848.776
"43","pa880",916.133850718593,909.607
"44","r168",874.217674620674,806.371
"45","r4",858.103396795637,913.851
"46","sa24",919.186398087064,912.554
"47","sg18",896.149564003391,951.968
"48","t8",949.266065731931,902.446
"49","tzi10",1015.48389926538,1082.039
"50","tzi11",1017.75054555693,1014.151
"51","tzi18",1034.08102735562,1014.377
"52","va102",873.338581023975,814.934
"53","va14",914.895539182195,923.857
"54","va35",930.541842957338,872.866
"55","va59",923.552667147953,843.396
