"","taxa","s1","GDD_DTA_BLUP.Peiffer_2014"
"1","3316",874.132393871784,928.182
"2","a556",843.20156258584,794.29
"3","a641",813.293275796404,758.862
"4","a679",858.004730200677,797.966
"5","a682",822.20410487761,769.626
"6","ab28a",934.839354147908,1003.205
"7","b103",849.559010003776,802.574
"8","b104",881.496356172888,858.899
"9","b14a",820.660005508853,860.424
"10","b164",870.251866127921,819.736
"11","ch70130",852.701252471639,778.113
"12","ci21e",883.181056575011,908.494
"13","ci64",957.013525724,955.596
"14","ci7",871.546735022219,938.508
"15","cml154q",1024.36895326952,973.558
"16","cml220",1001.51209141527,889.804
"17","cml247",1034.49185746545,1100.915
"18","cml261",1029.49317128234,1113.158
"19","cml5",1030.87526728895,1111.122
"20","cmv3",763.419232113514,723.099
"21","h49",857.879128245036,855.043
"22","h84",860.415831709368,856.593
"23","h95",870.466449641642,879.725
"24","i137tn",944.173018156145,951.772
"25","ids28",856.270853521393,848.46
"26","k64",909.605496648108,954.228
"27","ki3",1066.51695249183,1000.371
"28","ki44",1006.27374306191,1045.241
"29","ky21",879.550113536516,943.384
"30","ky226",916.681836771556,945.186
"31","mef156552",800.990630168223,750.997
"32","mo1w",879.512036864391,867.017
"33","ms1334",851.577485300526,731.49
"34","n192",804.857739520748,771.939
"35","nc230",908.811944988696,923.441
"36","nc232",897.043308808208,928.201
"37","nc236",899.700135807143,981.402
"38","nc296a",975.787558035475,956.504
"39","nc328",867.100854322451,874.278
"40","nc338",976.76273061222,976.033
"41","nc344",900.096940399549,925.954
"42","nc360",937.989628812269,970.508
"43","oh40b",821.103539912069,837.675
"44","oh7b",859.004574134378,962.799
"45","pa762",822.960799705077,873.272
"46","pa875",894.620667017859,872.887
"47","pa91",859.825788400281,885.514
"48","r168",836.170637723433,812.213
"49","r177",858.408134755467,838.396
"50","sc357",966.753823792481,979.283
"51","tx601",990.180836598141,1050.011
"52","tzi8",1018.07770376269,1056.27
"53","va102",859.373301035809,812.147
"54","va26",829.130882360985,835.944
"55","w117ht",843.381816937806,762.856
"56","w22",829.171989959758,844.94
