"","taxa","s1","GDD_DTA_BLUP.Peiffer_2014"
"1","a239",836.034337677697,814.5
"2","a556",835.650775755455,794.29
"3","a632",842.313994589172,795.425
"4","a659",845.213168444817,734.269
"5","a661",809.41430373963,724.82
"6","a680",846.910132264224,872.717
"7","a682",820.714555282205,769.626
"8","ab28a",923.68670081143,1003.205
"9","b109",859.473191893934,860.677
"10","b64",895.727149360819,708.103
"11","b77",901.279978009188,869.27
"12","b84",877.305455759584,890.098
"13","ci66",918.294680134642,972.216
"14","cm37",739.010019430079,693.626
"15","cml277",1042.06138910184,1094.143
"16","cml38",1021.79254300315,1038.064
"17","cml52",1023.71907359669,1015.38
"18","co255",791.532325855732,687.597
"19","gt112",1013.5737652119,1069.756
"20","h105w",853.652550592657,811.155
"21","hi27",983.170351555251,1057.286
"22","i137tn",931.021328695442,951.772
"23","ia2132",796.287609400884,797.145
"24","ia5125",799.596379337377,807.038
"25","il14h",766.907841385371,783.119
"26","k64",911.301891702032,954.228
"27","ki11",1025.57355684137,1044.388
"28","ki21",961.162125253881,986.384
"29","mo18w",969.812274571532,1029.228
"30","mo24w",888.038426170297,907.983
"31","ms71",801.335137307134,816.791
"32","n192",816.203309409407,771.939
"33","n28ht",878.351656960963,869.269
"34","nc236",890.995945892948,981.402
"35","nc296a",973.271154170107,956.504
"36","nc300",977.928859537843,998.846
"37","nc310",883.637817930785,869.564
"38","nc320",937.228971986451,946.544
"39","nc324",877.757866827417,892.738
"40","nc326",866.286272249989,880.216
"41","nc336",977.347521372493,998.919
"42","nc338",979.608497012831,976.033
"43","nc348",978.856768688034,941.746
"44","nc360",942.739685165209,970.508
"45","nc362",896.743629667313,897.506
"46","oh40b",822.14428404326,837.675
"47","oh43",807.408725754689,797.304
"48","pa762",828.00035826176,873.272
"49","pa880",891.208106962166,868.77
"50","sc357",963.371162268703,979.283
"51","sc55",921.409266979391,1018.662
"52","sg1533",881.752690237349,889.999
"53","t232",924.055752105082,942.638
"54","va14",878.068708138844,899.97
"55","va85",840.931368107209,863.065
"56","w22rrstd",836.390635965597,832.251
