"","taxa","s1","GDD_DTA_BLUP.Peiffer_2014"
"1","a188",850.666581041637,729.82
"2","a239",833.627642366065,814.5
"3","a6",999.056974393071,1011.115
"4","a619",823.821335399235,811.092
"5","a634",834.162381863887,801.161
"6","a661",815.009407754058,724.82
"7","ab28a",931.382552927015,1003.205
"8","b52",860.111000128449,918.986
"9","b57",880.63630584195,844.088
"10","b64",896.596595145771,708.103
"11","ch70130",848.831845526321,778.113
"12","ch9",846.490275467743,801.241
"13","cm37",741.162410003938,693.626
"14","cml11",1021.61063375665,1069.769
"15","cml254",1029.94035468272,1072.57
"16","cml277",1033.24713667803,1094.143
"17","cml287",999.920355908282,1140.701
"18","cml311",1005.63226866563,1104.246
"19","cml332",938.189528272103,1036.139
"20","cml52",1017.61108881129,1015.38
"21","co125",827.055277358792,704.885
"22","d940y",919.452675951187,1004.088
"23","f44",939.075529521921,1015.742
"24","h105w",840.590263668173,811.155
"25","i29",868.116724944268,758.667
"26","ids69",871.529897839372,890.882
"27","ids91",873.03891828987,830.221
"28","il677a",803.541808516218,860.736
"29","l578",959.645027126329,1033.668
"30","m162w",949.186368401396,1014.995
"31","m37w",939.649821128989,924.896
"32","mo44",862.37286424312,835.098
"33","mp339",951.69537459442,979.431
"34","n7a",885.816765611078,851.107
"35","nc294",881.321856763531,880.712
"36","nc296a",974.475984965931,956.504
"37","nc298",962.8510480363,961.353
"38","nc310",880.523823031869,869.564
"39","nc314",880.939434589141,875.254
"40","nc324",883.633393438423,892.738
"41","nc33",905.547275401277,986.355
"42","nc336",980.345855737763,998.919
"43","nc350",971.983749006174,970.901
"44","nc360",936.119208293292,970.508
"45","oh43",810.332698815473,797.304
"46","oh603",890.955980231716,926.128
"47","pa762",828.854167342214,873.272
"48","r109b",854.850988907325,853.195
"49","r177",865.19048525618,838.396
"50","r229",879.820792269774,876.903
"51","sc55",923.766987203657,1018.662
"52","sg18",875.178516385889,895.674
"53","va22",882.952386606707,887.505
"54","vaw6",892.572311594485,878.128
"55","w22rrstd",831.993847915699,832.251
"56","wf9",822.399590430056,827.217
