"","taxa","s1","GDD_DTA_BLUP.Peiffer_2014"
"1","4722",877.685515130695,926.68
"2","a272",949.138119157897,841.632
"3","a554",817.264313204015,721.559
"4","a556",834.156710078902,794.29
"5","a619",816.278707312146,811.092
"6","b105",855.541627916072,898.722
"7","b64",888.667804243956,708.103
"8","b84",872.865724214002,890.098
"9","c103",842.223945068737,866.303
"10","ci28a",898.845846277953,921.102
"11","cm105",779.90359973021,725.39
"12","cm174",774.426194839917,727.226
"13","cml108",993.954363936975,1007.76
"14","cml228",1025.05925260049,1084.046
"15","cml247",1034.91352044427,1100.915
"16","cml254",1033.03329728596,1072.57
"17","cml314",1015.7576622838,1030.086
"18","cml332",939.358380489821,1036.139
"19","cml38",1023.04626497541,1038.064
"20","cml92",976.247662143746,966.283
"21","de1",869.249916964778,904.642
"22","ep1",837.745729874465,697.818
"23","f44",940.54271846431,1015.742
"24","ids91",881.329069323609,830.221
"25","il14h",775.164619523775,783.119
"26","ki43",1000.97252212605,1022.566
"27","ki44",998.428257009682,1045.241
"28","ky226",915.341944022033,945.186
"29","mef156552",797.024015022109,750.997
"30","mo17",838.909707537836,825.535
"31","ms1334",855.562574681264,731.49
"32","ms71",792.925968199432,816.791
"33","nc222",898.323531480949,980.327
"34","nc230",904.61606030651,923.441
"35","nc260",852.502151245324,874.537
"36","nc262",889.351832329298,801.817
"37","nc304",978.911623400989,949.502
"38","nc306",893.283169970651,904.787
"39","nc310",877.408982388787,869.564
"40","nc314",894.618923704752,875.254
"41","nc324",893.234945850928,892.738
"42","nc336",974.250497666219,998.919
"43","nc344",906.635483858701,925.954
"44","nc346",964.75423341706,972.845
"45","nc366",961.074553436782,995.116
"46","oh40b",831.969269633779,837.675
"47","pa762",827.328985904052,873.272
"48","r229",892.977965930275,876.903
"49","sg1533",879.918911922331,889.999
"50","tzi8",1017.51259307505,1056.27
"51","va102",816.424708803384,812.147
"52","va14",882.176081213276,899.97
"53","vaw6",895.070764295501,878.128
"54","w22",828.583291433293,844.94
"55","wd",787.13175296739,702.768
"56","wf9",826.137009956872,827.217
