"","taxa","s1","GDD_DTS_BLUP.Peiffer_2014"
"1","4226",881.732727601522,827.732
"2","a214n",935.19322588776,1028.742
"3","a239",862.558767939514,825.944
"4","a634",862.781183367288,812.938
"5","a635",874.518062545231,877.459
"6","a659",865.336232724489,744.694
"7","a661",835.308436750784,761.06
"8","a682",856.987018888562,803.252
"9","b105",888.95631966693,925.138
"10","b57",910.179508620818,883.352
"11","b64",913.573287253981,717.521
"12","b75",910.537188170732,868.363
"13","ci3a",897.175389192408,950.213
"14","cm7",861.428857976973,724.544
"15","cml10",1066.12983434826,1030.863
"16","cml103",1025.76233784528,962.954
"17","cml11",1064.53878537215,1095.991
"18","cml158q",1030.40289425896,1064.94
"19","cml228",1046.7665108285,1039.303
"20","cml314",1046.02295710624,1062.322
"21","cml328",1004.23865926463,1048.374
"22","cml38",1043.89804732574,1051.265
"23","cml52",1051.43333581062,1187.359
"24","cml69",1045.0795548495,1067.936
"25","co255",890.095146777689,698.674
"26","ep1",902.642758565906,732.504
"27","f7",875.413428962273,699.071
"28","h99",897.380827605232,831.291
"29","ids28",885.395996939337,879.116
"30","ids91",910.249784414948,855.679
"31","ky21",907.143529886939,989.489
"32","mef156552",832.291968310044,746.209
"33","mo1w",904.536111319151,910.127
"34","mo24w",919.497970383128,969.516
"35","mo46",897.141011020149,937.712
"36","n192",832.763561621128,786.308
"37","n6",900.201779975841,873.465
"38","n7a",921.281783110554,863.255
"39","nc258",910.606184646948,946.724
"40","nc260",881.880484952741,918.671
"41","nc290a",869.399124166923,930.652
"42","nc310",887.387330973134,889.441
"43","nc324",903.18395073289,918.923
"44","nc326",882.915917150948,908.283
"45","nc33",927.401967694855,1024.043
"46","nc352",990.361941271338,1031.981
"47","nc354",1006.89310367062,979.654
"48","pa875",921.910388635497,897.293
"49","pa91",898.034666949188,934.861
"50","sc357",991.929668384451,976.759
"51","tzi8",1035.36090730423,1065.166
"52","u267y",951.36922640078,1045.477
"53","va99",919.610929861959,897.725
"54","w117ht",875.677552428199,767.266
"55","w153r",864.020909212705,826.563
