"","taxa","s1","GDD_DTS_BLUP.Peiffer_2014"
"1","a188",868.116929280151,737.854
"2","a239",854.494896547751,825.944
"3","a6",1026.8533413995,1038.915
"4","a619",833.895640435976,818.545
"5","a634",869.227438185805,812.938
"6","a661",849.550782540281,761.06
"7","ab28a",950.197045083816,1026.691
"8","b57",904.140896909772,883.352
"9","b64",916.422512059774,717.521
"10","b75",909.466854886417,868.363
"11","ch70130",878.734204151113,821.145
"12","ch9",872.778418041334,845.661
"13","cm37",782.084175538363,714.745
"14","cml10",1078.4087343664,1030.863
"15","cml258",1056.86213737563,1151.571
"16","cml287",1031.53341657842,1160.79
"17","cml333",1032.29264792871,1028.283
"18","cml69",1044.2600823228,1067.936
"19","cml77",1001.25223080556,993.001
"20","cmv3",802.605928785396,708.894
"21","co106",867.686254492808,711.907
"22","d940y",944.451440441508,1062.952
"23","e2558w",927.863400199972,971.794
"24","h84",895.693294835986,903.063
"25","hy",893.625150965464,898.357
"26","i205",881.848234810919,880.103
"27","il14h",780.411721018642,800.205
"28","il677a",816.495377096837,919.122
"29","ki11",1050.83399736765,1064.963
"30","ki43",1026.3255026336,1032.302
"31","l317",900.046195159973,944.972
"32","l578",981.778054698284,1038.814
"33","m162w",947.733120869397,1006.405
"34","mo44",888.99117000183,884.165
"35","mo47",939.792504328311,834.733
"36","mog",906.891404335714,936.675
"37","nc250",919.768112362102,878.166
"38","nc260",893.275421240277,918.671
"39","nc262",896.957283509268,838.685
"40","nc290a",895.711778460129,930.652
"41","nc296a",986.470973666307,989.929
"42","nc300",1007.23172164857,1016.428
"43","nc302",987.742343375432,933.517
"44","nc304",1005.12378094447,979.507
"45","nc326",880.639052257413,908.283
"46","nc33",932.054472429955,1024.043
"47","oh7b",876.187207995568,986.386
"48","p39",761.108636220121,763.964
"49","r168",862.44096661919,806.371
"50","sd40",881.94071921843,890.128
"51","sd44",877.841456815758,786.463
"52","tzi16",990.588333737377,977.729
"53","va99",892.612879077813,897.725
"54","w64a",884.912614845822,859.662
"55","wd",781.955815959955,706.973
