"","taxa","s1","GDD_ASI_BLUP.Peiffer_2014"
"1","4722",24.3753506861605,30.48
"2","a239",24.8285275624436,11.846
"3","b10",26.815050692101,49.876
"4","b115",24.6328770077387,34.265
"5","b76",35.3360297219196,13.888
"6","ci91b",28.1827630709307,27.435
"7","cm7",21.084809563638,5.808
"8","cml10",24.5440372613252,53.128
"9","cml11",25.2042989481377,36.296
"10","cml14",24.8430324597146,44.116
"11","cml228",22.6246246894013,27.963
"12","cml238",23.8212779828127,28.127
"13","cml247",26.3936899132078,12.906
"14","cml258",26.1328056884551,50.437
"15","cml277",24.609649880647,28.877
"16","cml333",24.6995841249782,29.15
"17","cml341",23.1810768186644,36.435
"18","cml92",22.0587494135756,22.105
"19","co106",20.9768109791563,21.99
"20","de3",27.316019294768,23.513
"21","f7",20.4199939368228,5.483
"22","gt112",22.1275413556647,10.128
"23","h99",24.6794791594638,14.404
"24","hp301",30.1613313365371,23.598
"25","hy",21.6137291546383,30.361
"26","i205",23.7788700976744,24.279
"27","il677a",22.6760205389287,45.341
"28","k148",22.0572126822815,42.341
"29","ki2021",21.8508529068568,41.314
"30","ki44",22.7355855140257,34.145
"31","l317",24.0047034072174,50.753
"32","l578",20.376409731066,14.029
"33","mo1w",23.5987858074175,39.468
"34","mo47",28.0717286011611,16.861
"35","mp339",25.8437393989147,29.495
"36","mt42",19.5587730998343,21.096
"37","nc222",23.0042609221179,16.641
"38","nc250",31.4335880468045,24.33
"39","nc304",16.85263464321,21.937
"40","nc328",18.1633865810347,13.493
"41","nc336",22.2054865194783,21.165
"42","nc342",24.9348535875989,8.736
"43","nc344",21.6422595315487,11.748
"44","nc348",18.4019335418141,8.81
"45","nc366",23.9228842284717,11.675
"46","p39",21.8720586995541,38.744
"47","pa880",21.7006611421222,32.862
"48","r109b",23.296908115015,21.816
"49","r229",17.6651746086488,28.264
"50","sa24",25.3940666004106,30.558
"51","sd44",23.4040427502738,22.411
"52","u267y",23.0660615596294,34.515
"53","va85",23.8091463157914,29.245
"54","w22rrstd",22.5277912158051,30.631
"55","w64a",24.4418866198372,37.282
"56","wd",15.4107319212489,-5.165
