"","taxa","s1","GDD_ASI_BLUP.Peiffer_2014"
"1","a239",26.4421402246628,11.846
"2","a556",26.8838908432863,-4.499
"3","a632",29.6169909884245,18.038
"4","a659",23.9728855699939,19.874
"5","a661",20.6838076139328,30.325
"6","a680",14.5165452796594,6.681
"7","a682",30.6986965787722,21.789
"8","ab28a",23.2487364562933,23.178
"9","b109",17.7190442954041,16.708
"10","b64",25.1838313684181,20.557
"11","b77",26.7639668027105,16.59
"12","b84",25.7657477724155,20.372
"13","ci66",23.1240926943418,33.197
"14","cm37",19.6926550908767,11.81
"15","cml264",26.4034747877294,29.532
"16","cml341",25.6844868177741,36.435
"17","cml5",29.1659106818311,33.314
"18","co125",20.2587163510665,11.077
"19","ga209",27.0607319534798,40.217
"20","gt112",22.5313165767048,10.128
"21","h99",24.1808103685029,14.404
"22","hy",22.8196503181728,30.361
"23","i29",26.2700691904887,19.801
"24","ia2132",26.8659056372047,27.869
"25","il101",25.1973721449017,22.584
"26","k55",20.5310708718537,19.137
"27","k64",10.8743942883826,16.831
"28","ki21",29.4666261526321,14.915
"29","mo18w",28.2091387918525,40.534
"30","mo24w",24.0954856927022,48.587
"31","ms71",23.4351204497227,21.96
"32","n192",17.2032918143913,19.461
"33","n28ht",24.7038500420238,14
"34","nc236",23.6577461097753,5.811
"35","nc296a",18.1994690949984,27.337
"36","nc300",25.2077821899187,13.557
"37","nc310",17.5607845402649,24.917
"38","nc320",24.4701327259943,13.269
"39","nc324",22.2915394006742,27.542
"40","nc326",16.5516911470966,29.837
"41","nc336",23.412278681241,21.165
"42","nc338",20.567243873058,5.505
"43","nc348",18.3331414506882,8.81
"44","nc360",22.2805808053448,-0.715
"45","nc362",19.8495806886296,25.717
"46","oh40b",24.125393442503,48.703
"47","oh43",18.0843432389321,17.797
"48","pa762",19.179545747489,13.166
"49","pa880",23.9124398349006,32.862
"50","sc357",22.7073001080162,1.843
"51","sc55",23.0432808708008,17.405
"52","sg1533",32.7754907885758,25.64
"53","t232",25.7304846760896,21.66
"54","va14",22.887435468284,23.076
"55","va85",22.3061598305007,29.245
"56","w22rrstd",22.8724826644359,30.631
