"","taxa","s1","GDD_ASI_BLUP.Peiffer_2014"
"1","4722",26.6069881362884,30.48
"2","a272",25.684581896735,17.77
"3","a554",22.5585538228298,9.655
"4","a556",26.3645222021678,-4.499
"5","a619",18.2770179828985,17.912
"6","b105",25.3131254271414,22.977
"7","b64",25.0644335349274,20.557
"8","b84",25.7517993106981,20.372
"9","c103",20.8948578859328,33.257
"10","ci28a",23.6758923608402,22.839
"11","cm105",24.2773092164407,21.004
"12","cm174",23.8129121611341,24.292
"13","cml108",23.116318853272,6.117
"14","cml228",26.2425635483121,27.963
"15","cml247",29.2273106555119,12.906
"16","cml254",26.679277438514,13.156
"17","cml311",25.308672480357,43.632
"18","cml331",32.3963765466168,41.207
"19","cml341",26.1416790400124,36.435
"20","cml91",22.8087744691484,32.182
"21","d940y",25.1181133861193,37.298
"22","e2558w",13.1360680334671,34.776
"23","f2834t",23.5678193937148,29.532
"24","ids69",27.4331195632188,22.302
"25","il101",27.8475221057147,22.584
"26","ki43",23.980640683837,14.792
"27","ki44",24.2964995096667,34.145
"28","ky226",25.527147545897,19.682
"29","mef156552",24.841434356297,-3.047
"30","mo17",22.0017778460368,49.316
"31","ms1334",21.672308830597,7.373
"32","ms71",21.6310624629141,21.96
"33","nc222",23.8487496987971,16.641
"34","nc230",22.0865810803525,11.065
"35","nc260",29.9233851882922,34.848
"36","nc262",20.8226163167758,32.656
"37","nc304",16.982827183211,21.937
"38","nc306",21.441480899906,4.427
"39","nc310",20.1189196566557,24.917
"40","nc314",25.3385953854518,21.228
"41","nc324",25.6675389082042,27.542
"42","nc336",22.5350581901385,21.165
"43","nc344",16.7320208233991,11.748
"44","nc346",21.2311418152896,20.035
"45","nc366",23.6923250940404,11.675
"46","oh40b",23.3117546622902,48.703
"47","pa762",18.6461065929353,13.166
"48","r229",18.6271990208229,28.264
"49","sg1533",33.1204230225423,25.64
"50","tzi8",25.0966830273946,14.56
"51","va102",14.2242931902591,6.074
"52","va14",23.8053989258345,23.076
"53","vaw6",24.2510699838135,17.933
"54","w22",25.6033155500734,21.3
"55","wd",17.2441129580175,-5.165
"56","wf9",30.8183683902578,16.314
