"","taxa","s1","kernelnoperrow_BLUP.Hung_2012_1"
"1","4226",21.6020911659275,23.63
"2","a4415",21.8638690931012,18.58
"3","a554",22.5863604148784,20.11
"4","a632",21.3483894065064,21.5
"5","a659",21.8459367837313,18.09
"6","b105",22.4198710249557,24.69
"7","b57",21.6184289386739,23.76
"8","b64",20.7856193175864,23.63
"9","b68",21.0999567390207,24.69
"10","b77",21.7719522432597,21.02
"11","c123",24.0657103037277,24.3
"12","ci21e",21.8271639011631,24.67
"13","ci7",23.8513799976278,20.51
"14","ci90c",22.3569658054543,21.92
"15","cm105",21.0397457233813,20.75
"16","cml254",21.3839858120511,23.95
"17","cml258",20.8832068732698,20.29
"18","cml287",20.6075915798616,25.36
"19","cml331",21.2231454559728,23.18
"20","cml341",20.834190462371,19.62
"21","co125",21.9258265649714,16.33
"22","co255",21.1620384074285,22.47
"23","d940y",21.6830718599209,23.42
"24","f7",20.9557439065599,23.23
"25","i205",22.6455071003354,15.92
"26","ia2132",20.6875717001094,20.99
"27","k148",22.2838898666999,21.3
"28","k64",22.3590829625839,24.38
"29","ki21",22.4856813785475,20.39
"30","ki43",21.1865020130551,17.95
"31","ki44",20.8903237770383,20.13
"32","m14",22.7960024494903,23.78
"33","mo45",21.1971413548974,24.49
"34","n6",22.7662726835899,23.96
"35","nc258",23.5158134017758,23.69
"36","nc264",21.2075020995669,20.82
"37","nc304",20.0497114567318,16.67
"38","nc320",21.6267581805974,23.86
"39","nc328",24.2605176286471,24.14
"40","nc340",19.9989812573939,20.97
"41","nc356",20.2404845098244,22.03
"42","nc358",20.6753549834829,22.22
"43","nc364",24.0282363844627,28.57
"44","nc368",22.316218267606,18.92
"45","nd246",21.4374393052257,23.02
"46","oh40b",23.6563418413426,23.42
"47","oh7b",21.430050470681,24.01
"48","pa880",22.3959990724245,21.42
"49","pa91",23.6419309842924,27.93
"50","sc213r",20.3654290179633,20.33
"51","sc357",20.8841338326716,21.42
"52","u267y",21.5686457474204,19.01
"53","va17",24.6058495241394,19.94
"54","vaw6",22.3469571963123,21.8
"55","w22rrstd",22.0558586729941,21.66
"56","yu796ns",22.602062835051,20.16
