"","taxa","s1","kernelnoperrow_BLUP.Hung_2012_1"
"1","a239",21.5588662134291,21.43
"2","a556",22.3955689182487,19.8
"3","a632",21.3392642570287,21.5
"4","a659",21.8050933242606,18.09
"5","a661",21.5909543821238,19.79
"6","a680",24.6452147748179,27.55
"7","a682",24.1281262778652,22.18
"8","ab28a",22.8682075762191,20.97
"9","b109",23.6245871460684,25.15
"10","b14a",21.6719511423519,20.42
"11","b64",21.5714343569982,23.63
"12","b77",22.1284615704675,21.02
"13","b84",23.7283144201988,22.66
"14","ci66",22.8684899531928,20.11
"15","cm37",20.5497590392987,19.89
"16","cml277",21.094300935201,15.33
"17","cml311",21.0087880639214,22.53
"18","cml45",21.5825436403386,23.58
"19","cml5",21.4005733385471,19.1
"20","de3",22.5284747891632,20.7
"21","f44",22.0624578702367,15.36
"22","f7",21.3724395505915,23.23
"23","gt112",21.7907479351128,18.37
"24","h105w",21.7938528389862,24.28
"25","hi27",21.2292672214997,22.09
"26","ia2132",20.4481407644466,20.99
"27","ids28",22.4011646235661,22.99
"28","k148",22.2905100252469,21.3
"29","k55",23.4078303146247,19.94
"30","k64",22.5295436705647,24.38
"31","ki11",21.126279057078,20.2
"32","mo18w",21.0805052793949,18.77
"33","mo1w",22.1657548459628,23.17
"34","mo46",22.7165837126859,18.47
"35","n192",23.4765055281678,22.62
"36","nc250",20.2414607740648,21.83
"37","nc314",19.8278744097368,22.14
"38","nc318",22.245786468168,22.03
"39","nc328",24.1966318672236,24.14
"40","nc340",20.0470830909304,20.97
"41","nc344",24.1829979112148,24.29
"42","nc358",20.9749890370345,22.22
"43","nc366",21.5740341383705,18.35
"44","p39",19.7292544913206,21.63
"45","pa875",22.2155534937181,24.78
"46","r109b",22.1412704464962,19.88
"47","r4",22.0903200894418,23.62
"48","sc55",22.037105260234,20.25
"49","sd44",21.9879719154543,25.88
"50","t234",22.0756334899034,22.04
"51","u267y",21.5080422113501,19.01
"52","va102",25.5671934762465,23.41
"53","va26",23.8806077694956,21.95
"54","va59",25.1363722034747,25.59
"55","w182b",21.6172669731856,23.7
"56","w22",21.5540831945212,22.33
