"","taxa","s1","kernelnoperrow_BLUP.Hung_2012_1"
"1","3316",21.7034180795089,26.9
"2","3811",23.2600515038212,25.08
"3","a6",20.3787433272474,23.28
"4","a635",21.6429117657944,18.69
"5","a641",21.8151228295611,19.33
"6","a654",22.0414110834143,19.06
"7","b115",22.3280211561024,21.54
"8","b46",22.3518483051936,21.68
"9","b73",24.3253228991987,24.77
"10","b73htrhm",24.2564468908433,27.41
"11","b84",23.4264641124008,22.66
"12","c49a",21.4164686674913,22.29
"13","ci1872",21.6937196915136,21.25
"14","ci28a",23.5769678338018,21.61
"15","ci3a",21.9754376308444,21.9
"16","cm105",21.515705660575,20.75
"17","cml103",21.8036121143693,23.1
"18","cml108",21.4686016058704,18.9
"19","cml11",22.2693923619345,21.26
"20","cml154q",20.884411519427,22.52
"21","cml228",20.6622801480591,19.96
"22","cml238",21.2757338688477,19.4
"23","cml277",21.4662023266455,15.33
"24","cml333",21.6104831866885,18.55
"25","cml341",21.6111077965233,19.62
"26","co106",21.6807557427346,21.42
"27","co255",21.6539720390345,22.47
"28","de3",22.7956063916406,20.7
"29","f2834t",21.6692975561866,21.46
"30","h49",23.1641365447428,23.25
"31","hi27",21.4746043642693,22.09
"32","i205",22.502891360274,15.92
"33","ki43",21.1492131270771,17.95
"34","l578",21.568961255753,19.82
"35","m37w",22.0819696864055,19.97
"36","ms1334",21.6429606871748,19.69
"37","n6",22.5489031912507,23.96
"38","nc260",21.9552405075196,20.94
"39","nc296a",20.4924943647985,17.69
"40","nc346",20.4212591110973,21.8
"41","nc348",20.0925741410431,19.32
"42","nc354",20.3304998412783,20.16
"43","nc358",20.8841657213559,22.22
"44","nc360",23.2768277003125,24.91
"45","p39",19.9643059239634,21.63
"46","pa880",22.2433258631584,21.42
"47","r4",21.9428743014793,23.62
"48","sd44",22.7161686860309,25.88
"49","sg1533",22.5044712860102,23.66
"50","sg18",22.654725338379,26.31
"51","t8",23.5196355938167,26.53
"52","tzi25",22.1345087414982,23.4
"53","va99",24.5193270827438,22.1
"54","vaw6",22.4223083259694,21.8
"55","w117ht",21.6551809798841,18.75
"56","w64a",23.9471603353745,20.52
