"","taxa","s1","kernelnoperrow_BLUP.Hung_2012_1"
"1","a6",20.7216519296637,23.28
"2","a619",24.0123633604586,26.32
"3","a635",21.4185735934125,18.69
"4","a654",22.0105205906392,19.06
"5","b109",24.1926839727571,25.15
"6","b46",22.1518960530959,21.68
"7","ci31a",21.6621378003256,20.1
"8","ci64",22.3463440548774,23.14
"9","ci7",24.0135522671873,20.51
"10","ci90c",22.6773763651663,21.92
"11","cm37",20.7439757632203,19.89
"12","cml154q",20.875450593119,22.52
"13","cml157q",21.3437079209541,20.45
"14","cml228",21.236863782792,19.96
"15","cml254",21.4891631452747,23.95
"16","cml264",21.139465713463,21.05
"17","cml314",21.3597350693465,22
"18","cml322",21.4196749140083,23.26
"19","cml323",21.6535049242108,22.86
"20","cml333",21.4299212805165,18.55
"21","cml69",21.3722778802952,16.79
"22","d940y",21.8156525223414,23.42
"23","f7",21.3978300280558,23.23
"24","gt112",21.4478863978719,18.37
"25","hp301",23.5424905019752,23.78
"26","hy",23.3068670242598,21.22
"27","ids91",23.0429577157571,21.25
"28","ki11",21.346412744056,20.2
"29","ki14",21.5468727854829,21.47
"30","ki3",21.2962419881079,17.48
"31","ki43",21.565415677308,17.95
"32","mo18w",21.156353038908,18.77
"33","mo1w",22.640053513847,23.17
"34","mo44",22.5253443544023,21.06
"35","mog",22.6068620877913,20.01
"36","mt42",21.2826197613693,19.88
"37","n6",22.58689021906,23.96
"38","nc260",22.9611423184423,20.94
"39","nc262",24.4695413515801,23.73
"40","nc290a",24.6509132442465,25.34
"41","nc320",21.467794567183,23.86
"42","nc326",24.9749260729385,24.19
"43","nc368",22.2526804164945,18.92
"44","oh40b",23.8153734251006,23.42
"45","oh603",22.522767571456,16.64
"46","oh7b",21.2200201301396,24.01
"47","pa880",22.729054598711,21.42
"48","pa91",23.6751667474901,27.93
"49","r168",22.1238472189897,21.28
"50","r229",24.7188380028919,21.56
"51","sd40",21.6855016171548,28.5
"52","tzi16",22.1879131887454,21.16
"53","tzi25",22.3009968368723,23.4
"54","va17",23.8388469553686,19.94
"55","va22",23.7932306824442,28.6
"56","w182b",21.5703714555662,23.7
