"","taxa","s1","leafwidth_BLUP.Hung_2012_1"
"1","4722",77.6097759197084,92.77
"2","a554",80.1501079559167,70.13
"3","a556",82.9494742743607,82.7
"4","a619",86.5982200798187,88.26
"5","b105",83.5573096633899,85.06
"6","b64",81.1929188574879,62.66
"7","b84",87.4307980984355,77.97
"8","c103",85.8558528913785,93.52
"9","ci28a",91.0103813470936,107.02
"10","ci66",85.9300069339839,86.02
"11","cm105",73.4824395058526,62.63
"12","cm174",72.6947256802808,61.6
"13","cml108",90.7734433539581,96.13
"14","cml228",95.8911068779625,93.96
"15","cml247",91.6516308782631,89.57
"16","cml254",95.6993953187072,86.14
"17","cml287",91.8777602505829,92.79
"18","cml314",93.0017388179242,92.61
"19","cml328",90.8366030559782,83.58
"20","e2558w",84.4190644229842,100.47
"21","h99",87.2457916296422,71.99
"22","hp301",76.1834120653335,77.79
"23","ia5125",72.2774128424929,52.09
"24","il14h",65.1245734792426,73
"25","k148",85.2817765510354,71.54
"26","ki2021",96.0996530499952,107.5
"27","ki21",93.393976101167,91.32
"28","ki43",93.745579844815,98.24
"29","m162w",85.3355792324722,103.09
"30","ms153",81.1951241975664,80.39
"31","mt42",77.6542975671433,72.06
"32","n6",83.2615458716783,65.86
"33","nc236",87.7874119356839,102.23
"34","nc250",78.0500457372659,73.7
"35","nc264",85.3402872088081,90.97
"36","nc296a",87.8006716388318,82.88
"37","nc298",85.3662651768177,89.41
"38","nc306",80.6977736613703,85
"39","nc310",84.4114174698245,85.37
"40","nc314",68.1391436263719,60.07
"41","nc33",86.3744985633157,86.99
"42","nc336",81.7207969431962,76.31
"43","nc340",82.8047617680392,77.11
"44","nc368",83.9172032170768,95.42
"45","oh603",87.7622167794785,69.28
"46","r109b",83.6710842431495,64.01
"47","sc213r",97.0036719962101,108.73
"48","t232",87.735920554507,87.11
"49","t8",91.039157842786,89.95
"50","va102",83.1958547840971,86.26
"51","va14",93.3488066292943,92.31
"52","va26",85.4515169660479,87.57
"53","va85",84.0707699343251,92.69
"54","vaw6",89.1298295029875,90.86
"55","w182b",78.1279729753008,74.28
"56","w22",85.0285909905327,91
"57","wf9",92.5351680446697,104.64
