"","taxa","s1","leaflength_BLUP.Hung_2012_1"
"1","4226",690.893010265973,727.47
"2","a4415",746.326592773432,765.39
"3","a554",652.821976225139,588.95
"4","a632",764.703097958873,700.95
"5","a635",740.504179631434,656.59
"6","a659",668.487087107184,711.16
"7","b105",718.679943082783,720.48
"8","b57",703.420668667103,748.02
"9","b64",762.682619687699,657.37
"10","b68",755.109381201772,850.94
"11","b77",715.594070672752,704.11
"12","b79",709.947947108712,760.82
"13","ci7",696.023751682273,862.97
"14","cm105",659.902302325804,669.52
"15","cm7",666.859963013344,525.62
"16","cml154q",828.526398268712,828.24
"17","cml254",848.771859150322,927.71
"18","cml281",850.755172846741,857.22
"19","cml323",792.202654962202,887.95
"20","cml331",802.662131601869,897.16
"21","cml332",815.248985146863,841.74
"22","cml38",832.884580034925,817.85
"23","cml69",836.257768285446,941.61
"24","co106",682.782551808741,500.15
"25","co125",666.715087627841,541.57
"26","ep1",680.486196014587,512.86
"27","h49",706.905078534057,762.49
"28","il14h",598.006271358583,745.22
"29","ki14",813.513373670117,822.7
"30","m14",721.677940674244,639.73
"31","mef156552",641.863473252429,611.57
"32","mo1w",752.168857201653,680.41
"33","mo24w",724.751965147458,893.24
"34","ms1334",698.635966802847,616.81
"35","nc230",713.190600094426,640.62
"36","nc232",741.81036777403,711.59
"37","nc296a",871.140523766594,806.75
"38","nc306",708.26258272386,690.82
"39","nc310",731.32465993846,713.15
"40","nc326",744.419116873764,766.05
"41","nc338",803.892208905242,636.06
"42","nc352",809.468193387262,779.8
"43","nc364",760.896421969864,734.07
"44","oh43",612.72997172851,692.59
"45","pa880",726.960626007836,756.12
"46","pa91",743.321039146441,885.36
"47","sc213r",780.899279813493,899.86
"48","sg18",766.23980078531,797.15
"49","tx303",774.657179049485,780.52
"50","tx601",796.577150507643,929.39
"51","tzi25",792.388009836281,906.46
"52","tzi8",843.919881248751,794.28
"53","tzi9",813.30116933648,891.63
"54","va17",721.195717574244,742.94
"55","vaw6",734.209397937159,766.39
"56","w182b",592.445424510207,558.62
"57","yu796ns",703.702782453515,716.54
