"","taxa","s1","leafwidth_BLUP.Hung_2012_1"
"1","a632",80.1875876119637,73.7
"2","a635",80.2944519346246,65.73
"3","a679",86.3655668413254,82.62
"4","a682",82.2038561399352,75.51
"5","b105",83.2679839993086,85.06
"6","b68",76.9950786584668,77.85
"7","b73htrhm",87.5409823082635,82.85
"8","b76",81.0501686746488,84.1
"9","b79",82.8238728510668,97.63
"10","c49a",77.7803585498687,62.72
"11","cm37",63.9680044340037,52.91
"12","cml11",86.1008661547208,91.5
"13","cml218",91.1851220596945,106.57
"14","cml247",91.7874398787656,89.57
"15","cml254",94.7655336815648,86.14
"16","cml314",93.8101534086297,92.61
"17","cml322",90.7477238642125,93.18
"18","cml323",89.8842820100309,83.48
"19","cml77",89.1508091593427,93.51
"20","cml92",90.6169969407299,86.91
"21","f6",86.4755902933945,96.95
"22","ia2132",71.8789697902007,79.95
"23","ids28",82.3899344191618,57.36
"24","k148",83.7070104898197,71.54
"25","ky21",82.8331699729538,96.23
"26","ky226",88.8259764177746,77.63
"27","ky228",85.5091911023747,90.58
"28","l578",91.8897607946302,88.01
"29","mo18w",93.6017938889213,90.39
"30","mo46",85.5321559402549,70.4
"31","ms153",80.2771740077635,80.39
"32","ms71",74.6047202417371,72.76
"33","nc230",84.1003394967306,109.05
"34","nc238",100.830634806324,101.08
"35","nc250",77.326210503784,73.7
"36","nc300",84.7723867764193,74.21
"37","nc304",82.3591121885508,50.94
"38","nc310",87.7113899395969,85.37
"39","nc318",90.3659144822954,83.97
"40","nc328",89.2800108291602,81.99
"41","nc342",84.4282977073151,91.62
"42","nc346",85.2849756763427,87.64
"43","nc360",85.2083533220784,84.56
"44","nc368",85.7728411346322,95.42
"45","pa91",94.0482381236219,90.85
"46","r168",80.1738881413129,64.73
"47","r177",83.4202913236064,78.68
"48","r4",84.5944204690553,87.5
"49","sc357",90.0996121494765,76.84
"50","sc55",88.3870962736868,96.15
"51","t8",89.7238912209176,89.95
"52","tzi9",91.4862938096618,86.26
"53","va14",93.8588904630947,92.31
"54","va22",91.3710666547988,104.33
"55","va35",89.6392419220402,86.99
"56","w117ht",82.3270575110663,59.31
"57","w64a",91.6866413278221,91.18
