"","taxa","s1","leaflength_BLUP.Hung_2012_1"
"1","4722",672.037732363943,766.51
"2","a239",687.931774958758,672.35
"3","b10",753.229313815894,796.62
"4","b115",718.6004439919,704.02
"5","b76",653.830851232405,619.17
"6","ci91b",679.96685131834,629.79
"7","cm7",664.651532603215,525.62
"8","cml10",852.045909674667,880.19
"9","cml11",852.352617193047,862.2
"10","cml14",851.989737663604,840.95
"11","cml228",833.028843404254,923.81
"12","cml238",845.330081466816,778.79
"13","cml247",860.895205248991,876.38
"14","cml258",844.192407245565,914.07
"15","cml277",861.574113276946,779.1
"16","cml332",861.378364847965,841.74
"17","cml333",832.680086082011,791.61
"18","cml77",806.530607953537,774.83
"19","cml92",824.688626530658,877.16
"20","f7",655.556287456726,544.7
"21","h84",685.346862066285,622.78
"22","hi27",822.168180464546,852.71
"23","hy",741.229209473956,661.08
"24","i137tn",773.063980157855,775.53
"25","ia5125",655.429250659272,621.28
"26","il14h",599.547825208869,745.22
"27","il677a",633.48300048166,601.45
"28","ki11",838.030214883286,879.62
"29","ki3",844.923384365511,737.88
"30","ky21",716.311988480633,731.9
"31","ky226",757.224350094308,811.14
"32","mo46",743.239536228276,764.74
"33","mog",705.17912192273,764.54
"34","ms153",683.11684597974,615.07
"35","mt42",652.662303737053,537.1
"36","n28ht",707.178660979631,681.11
"37","nc296a",865.874975180141,806.75
"38","nc298",753.074232647017,667.98
"39","nc328",720.451046297195,716.26
"40","nc33",753.834106680358,870.07
"41","nc342",745.920604976136,759.26
"42","nc364",762.380656185143,734.07
"43","os420",729.196704389389,713.07
"44","pa875",714.757712019932,700.18
"45","r109b",701.333899706874,692.11
"46","r168",701.202450036892,694.84
"47","r177",695.229754860116,670.54
"48","sa24",682.948313641382,795.25
"49","tx601",806.196135189816,929.39
"50","tzi16",802.034067765951,845.03
"51","u267y",761.806462599926,650.03
"52","va85",691.282196947844,714.01
"53","va99",795.480127326643,715.8
"54","w117ht",664.472887749976,578.69
"55","w22rrstd",634.008746663933,617.89
"56","w64a",691.982027435271,654.04
"57","wd",613.680040093082,510.33
