"","taxa","s1","leafwidth_BLUP.Hung_2012_1"
"1","4226",81.1415546886647,91.08
"2","4722",77.9196971992687,92.77
"3","a554",82.8779573241305,70.13
"4","ab28a",88.0549444369815,116.27
"5","b104",78.790552796478,80.95
"6","b115",86.4236096944141,91.53
"7","b37",75.2786840785003,87
"8","b52",85.8826446433496,87.19
"9","b57",85.3769844424186,81.92
"10","b64",81.8326431457191,62.66
"11","b73",85.7778355317895,88.99
"12","b73htrhm",85.226552530282,82.85
"13","c49a",77.3282266013171,62.72
"14","ch70130",84.0378611051961,95.7
"15","ch9",88.1474673836781,82.29
"16","ci31a",87.9154200159908,92.69
"17","cm37",65.1462846788233,52.91
"18","cml14",91.9378367765471,100.21
"19","cml218",90.1818181177492,106.57
"20","cml254",94.5529404739234,86.14
"21","cml281",91.8731991276509,101.03
"22","cml328",90.5131152168969,83.58
"23","cml341",93.5822411292669,110.93
"24","cml69",89.3698447396944,110.32
"25","cml91",92.1216564612833,92.97
"26","de1",93.8114632959901,95.51
"27","f2834t",90.085026646117,79.02
"28","gt112",99.2066727140672,109
"29","h99",86.375192602528,71.99
"30","ids28",80.4629805034028,57.36
"31","ids69",75.5120718555254,76.36
"32","il101",68.0806683277927,45.71
"33","ki3",96.1809195269722,102.85
"34","ki43",92.5260207523759,98.24
"35","m37w",93.2910466540344,94.15
"36","mef156552",75.0892604662344,74.98
"37","ms1334",83.2608051622235,60.94
"38","n7a",86.5591742303232,66.87
"39","nc222",86.8017482650102,107.33
"40","nc258",86.8749546013114,85.76
"41","nc290a",81.0071661637073,81.61
"42","nc296a",88.1765619149649,82.88
"43","nc314",66.9141163923418,60.07
"44","nc33",87.8543521489044,86.99
"45","nc338",87.0505548549952,78.83
"46","nc342",84.3049301302717,91.62
"47","nc354",84.8717889444226,77.22
"48","nc356",88.3840761188754,78.94
"49","oh43",89.2602907168457,90.54
"50","oh43e",90.1408264719203,86.21
"51","pa762",88.3278922387347,92.62
"52","r177",83.8415099895094,78.68
"53","r229",83.1708787932404,84.56
"54","r4",84.6997418255851,87.5
"55","sa24",78.620209262921,81.9
"56","sc55",88.100310879063,96.15
"57","sg18",81.5243340044646,77.56
