"","taxa","s1","leaflength_BLUP.Hung_2012_1"
"1","a6",802.505281809902,852.8
"2","a619",708.265767982399,591.22
"3","a635",753.08753731744,656.59
"4","a654",650.641678873199,543.91
"5","b109",729.677121179781,697.33
"6","b46",694.072146233838,726.86
"7","ci31a",707.118871239032,744.97
"8","ci64",797.148539827238,751.44
"9","ci7",693.789175007012,862.97
"10","ci90c",744.030576418348,730.8
"11","cm37",577.608682165421,492.53
"12","cml14",840.734102396826,840.95
"13","cml154q",830.777750078108,828.24
"14","cml220",817.7257339143,728.77
"15","cml247",850.165078121852,876.38
"16","cml261",842.55189700337,872.84
"17","cml311",805.518347405117,821.33
"18","cml314",832.081913624334,910.29
"19","cml321",825.388403603469,1001.5
"20","cml331",814.243675641122,897.16
"21","cml333",825.623023770837,791.61
"22","cml52",829.545859739784,882.26
"23","cml69",831.012304737181,941.61
"24","cml91",804.449005815931,772.12
"25","de1",702.569351704408,726
"26","h91",770.496817071232,793.61
"27","h95",714.885515976682,728.21
"28","ki14",817.116698117754,822.7
"29","ki2021",825.096535777038,839.47
"30","ki21",756.158565839873,814.18
"31","ki44",816.111785990752,728.29
"32","ky228",719.238031330814,786.32
"33","l578",770.209079632048,820.78
"34","m162w",793.722236994053,752.63
"35","mog",705.010249735881,764.54
"36","n28ht",717.879198487597,681.11
"37","n6",713.925749822736,718.96
"38","nc236",711.871214388198,718.86
"39","nc296a",863.990271717143,806.75
"40","nc320",786.501075102206,883.86
"41","nc364",758.910043841293,734.07
"42","nd246",650.887157164072,579.67
"43","oh43e",691.030398116018,651.44
"44","oh603",727.220781032633,566.27
"45","os420",715.328493139654,713.07
"46","pa762",711.355885936219,618.97
"47","pa875",723.775719957216,700.18
"48","r177",706.294136021357,670.54
"49","sg18",768.932264320661,797.15
"50","t232",745.171388429315,743.94
"51","t234",714.664394236667,691.1
"52","tzi9",813.701145927237,891.63
"53","va22",725.901139006187,726.81
"54","va85",696.802688585275,714.01
"55","w22",636.9235048675,619.48
"56","w64a",678.103587513449,654.04
"57","wf9",707.967845780743,721.76
