"","taxa","s1","leafwidth_BLUP.Hung_2012_1"
"1","4226",81.3305640648237,91.08
"2","a4415",86.4352703983582,103.09
"3","a554",82.6645071999395,70.13
"4","a632",81.1378282364595,73.7
"5","a635",81.2153538779936,65.73
"6","a659",82.7218273955143,67.96
"7","b105",83.0825791946315,85.06
"8","b57",85.6415462360338,81.92
"9","b64",81.626495864406,62.66
"10","b68",79.7971857666763,77.85
"11","b77",85.5940230327704,91.09
"12","b79",83.7899469301779,97.63
"13","ci7",90.137382260864,90.1
"14","cm105",68.4180602584802,62.63
"15","cm7",80.5340222082767,63.29
"16","cml154q",94.1016040761542,75.72
"17","cml254",94.3105074836529,86.14
"18","cml281",93.525711656959,101.03
"19","cml323",88.4314573086458,83.48
"20","cml331",93.1660583207111,99.65
"21","cml332",93.4993230189495,96.33
"22","cml38",92.8142365911081,104.86
"23","cml69",88.8031934568066,110.32
"24","co106",81.8734312768775,65.61
"25","co125",80.441272295011,63.35
"26","ep1",74.7494488098911,88.6
"27","h49",95.5921747930642,93.35
"28","il14h",63.4959552793431,73
"29","ki14",96.2704972105889,102.6
"30","m14",83.5214737763964,92.98
"31","mef156552",71.0565967295257,74.98
"32","mo1w",94.5170973318572,96.78
"33","mo24w",84.5625701339574,88.58
"34","ms1334",82.7728253758988,60.94
"35","nc230",83.8064695045273,109.05
"36","nc232",91.2308434460852,93.52
"37","nc296a",88.0629527590895,82.88
"38","nc306",81.6812169275506,85
"39","nc310",83.9837607572503,85.37
"40","nc326",85.4369748518633,90.31
"41","nc338",87.1957626680759,78.83
"42","nc352",80.651001010152,79.13
"43","nc364",79.4584837135486,80.35
"44","oh43",88.8025059910274,90.54
"45","pa880",88.5980747167659,82.77
"46","pa91",93.509797892759,90.85
"47","sc213r",98.1650703238409,108.73
"48","sg18",80.1480049483178,77.56
"49","tx303",88.4464400670261,96.76
"50","tx601",91.2888221546619,82.62
"51","tzi25",89.0564605601703,96.28
"52","tzi8",90.7779453797894,103.76
"53","tzi9",90.2655622187043,86.26
"54","va17",95.0370685024852,96.43
"55","vaw6",88.1514770239162,90.86
"56","w182b",79.4782763576216,74.28
"57","yu796ns",83.586375808444,82.33
