"","taxa","s1","leafwidth_BLUP.Hung_2012_1"
"1","a239",82.2641699726242,78.4
"2","a6",91.188891603856,87.33
"3","a619",87.9729144758469,88.26
"4","a634",76.3748846547207,70.94
"5","a661",75.9160596571076,88.4
"6","ab28a",88.6360856740282,116.27
"7","b52",85.8094989405196,87.19
"8","b57",84.5575839301493,81.92
"9","b64",80.5505517763029,62.66
"10","ch70130",84.2905232270192,95.7
"11","ch9",86.8445952331589,82.29
"12","cml10",92.9828147508816,76.42
"13","cml254",95.5651583450155,86.14
"14","cml264",94.1251723747245,93.69
"15","cml277",91.7863175162122,88.86
"16","cml281",92.8194627385882,101.03
"17","cml321",90.5584658782675,102.5
"18","cml38",94.6513682187233,104.86
"19","cml45",96.3866332713721,106.05
"20","cml61",94.7494413010516,103.92
"21","cml92",88.8880460866617,86.91
"22","d940y",87.5308047683943,96.93
"23","f7",75.7130995514921,52.62
"24","h105w",77.1325832366705,83.91
"25","h91",77.5371679956708,85.59
"26","h99",86.1697503450376,71.99
"27","hp301",77.4754102425896,77.79
"28","ia2132",70.934323655852,79.95
"29","ids28",80.8455284490455,57.36
"30","ids91",78.1153792952508,74.32
"31","k4",86.3277311028123,100.82
"32","ki14",98.1040505307208,102.6
"33","ky226",88.3109009882478,77.63
"34","m37w",87.5037692431452,94.15
"35","mo47",85.7418537809806,76.59
"36","n192",79.0465939182018,85.83
"37","nc262",84.2330974520573,79.81
"38","nc290a",83.9371643027227,81.61
"39","nc296",81.4058808539528,93.12
"40","nc304",82.5726735446446,50.94
"41","nc314",83.0544574807092,60.07
"42","nc318",90.5318881663388,83.97
"43","nc324",82.5337873395504,59.98
"44","nc338",86.3318270693485,78.83
"45","nc342",85.0990296024456,91.62
"46","nc346",80.7814484948783,87.64
"47","nc352",79.3251663974857,79.13
"48","nc362",82.8268532594619,73.7
"49","nc366",92.2033014265664,98.28
"50","oh43e",91.4012546790389,86.21
"51","oh603",86.5721837824093,69.28
"52","pa91",94.2798756712029,90.85
"53","r4",84.4748992214525,87.5
"54","sd40",84.8990948171798,98.81
"55","t232",86.408824735949,87.11
"56","w22",82.7649878072134,91
"57","w22rrstd",83.1463653107716,85.19
