"","taxa","s1","nodenumberaboveear_BLUP.Hung_2012_1"
"1","a239",5.23824516842759,4.76
"2","a635",5.94347813590989,5.64
"3","a654",5.33694347632703,4.77
"4","a661",5.12034509130014,4.54
"5","b103",5.41733408988772,5.39
"6","b105",5.60393191430278,5.35
"7","b109",5.769408086422,5.37
"8","b37",5.87388139826573,5.91
"9","b73",5.72957379518212,5.75
"10","b75",5.25757838181592,4.81
"11","ch9",5.54600971653011,5.64
"12","ci91b",4.92332399207171,5.09
"13","cm174",5.47787879238873,4.81
"14","cm7",5.32347095761573,4.21
"15","cml11",5.98286275226842,6.26
"16","cml14",6.16126074833886,5.91
"17","cml281",5.98959419212114,7.38
"18","cmv3",5.05998878638032,4.78
"19","de1",4.99955661041896,4.6
"20","f2834t",5.59595549534622,5.41
"21","h105w",5.63509026333698,5.31
"22","h84",5.91716701703959,6.6
"23","h95",5.40240563298726,5.07
"24","i137tn",5.65621296847466,4.69
"25","i29",5.18932151940333,3.62
"26","ids91",4.37298813143126,4.25
"27","k148",5.45114936654649,6.23
"28","ki44",5.76925524903198,5.96
"29","l317",5.34840953730236,4.81
"30","ms1334",5.407955486903,4.82
"31","ms153",5.23162776673529,4.57
"32","n192",5.52225750726031,5.34
"33","nc232",5.68176226241887,5.69
"34","nc250",6.2897772213377,6.27
"35","nc262",5.80791330117491,5.9
"36","nc304",6.36829281990146,5.24
"37","nc320",5.27810207518067,5.43
"38","nc328",5.81764255352592,5.63
"39","nc33",5.74226436956419,6.28
"40","nc346",5.57662467646005,5.11
"41","nc352",5.80229244417363,5.85
"42","nc364",6.21679879769103,6.56
"43","pa875",5.57231922286804,5.97
"44","r168",5.26126885100938,4.82
"45","r229",5.74904540205064,5.17
"46","r4",5.38279743391352,6.25
"47","sg1533",4.99465364893,5.03
"48","sg18",4.92786167959743,5.69
"49","tzi10",5.95694608728876,5.99
"50","tzi16",5.91532227892852,5.6
"51","tzi9",5.99339354693971,5.96
"52","va17",6.04595034124648,5.98
"53","wd",5.34696741924722,3.96
"54","wf9",6.00612263658271,6.8
"55","yu796ns",5.43571072134857,5.34
