"","taxa","s1","nodenumberaboveear_BLUP.Hung_2012_1"
"1","4226",5.38599403142155,4.51
"2","a554",5.2221639469462,5.1
"3","a556",5.42901883494512,4.68
"4","a634",5.73460984743571,5.41
"5","a661",5.10123847728844,4.54
"6","b64",5.85014561938406,4.51
"7","b68",5.87025004725927,5.99
"8","b73",5.63743374452445,5.75
"9","b79",5.34580227404379,5.12
"10","c49a",5.03447770478301,4.26
"11","ci28a",5.40247965067806,4.85
"12","ci90c",5.31936101560709,5.09
"13","ci91b",4.771020166456,5.09
"14","cm174",5.4069864920444,4.81
"15","cml10",6.19622184833137,5.97
"16","cml157q",6.01348086490463,5.12
"17","cml277",6.03168387420287,6.15
"18","cml281",5.94270851215982,7.38
"19","cml311",5.90330552417218,5.87
"20","cml323",5.96505284115675,5.94
"21","cml38",6.03136258086376,5.53
"22","cml52",6.00838696162439,6.85
"23","cml92",5.95224529145748,7.07
"24","co125",5.19593331362666,4.21
"25","d940y",5.81883431225831,5.97
"26","de811",5.63237750711084,5.39
"27","ep1",5.00512504705033,4.25
"28","hy",5.67969001436234,5.11
"29","i205",5.46345914288609,4.19
"30","ids28",5.15148740543577,5.37
"31","ki2021",5.41971980057245,5.24
"32","ki43",5.67992278693746,5.13
"33","ki44",5.76166498675406,5.96
"34","ky228",5.42544958789329,6.51
"35","l317",5.2780576135822,4.81
"36","l578",5.8295110807287,5.53
"37","mo44",5.45943897556621,5.92
"38","mog",5.37158043725205,5.48
"39","n28ht",5.4566703443688,6.29
"40","n7a",5.4896077305516,5.52
"41","nc222",5.63034653177191,6.82
"42","nc250",6.27216753214982,6.27
"43","nc294",5.92893809789726,6.55
"44","nc33",5.67008856097621,6.28
"45","nc336",5.67849084863581,5.89
"46","nc360",6.03417611585428,6.25
"47","nc364",6.20236863884112,6.56
"48","nd246",5.14330269115789,4.23
"49","oh43",5.38649149672653,5.36
"50","pa91",5.67941726608518,4.8
"51","r109b",5.35944500885618,6.2
"52","r168",5.3543351919798,4.82
"53","sc357",5.90862538569159,6.21
"54","tx303",5.81957980944344,5.24
"55","u267y",5.835479705193,5.48
