"","taxa","s1","nodenumberaboveear_BLUP.Hung_2012_1"
"1","a634",5.62543848370416,5.41
"2","a641",5.40477820239715,6.25
"3","a680",5.49401302197889,5.94
"4","ab28a",5.79904420918515,5.1
"5","b73",5.61821738006749,5.75
"6","b75",5.24726272587211,4.81
"7","b77",5.50845344490638,6.79
"8","ch70130",5.37432696640403,4.78
"9","ci66",5.63191961423472,5.88
"10","cml14",6.23542040495589,5.91
"11","cml220",6.02457163818193,5.96
"12","cml311",5.94635566488752,5.87
"13","cml332",5.98950129542059,5.64
"14","cml341",6.19822282048751,5.89
"15","cml38",6.13524924099589,5.53
"16","cml69",6.01723504498273,6.08
"17","de1",5.05132376381548,4.6
"18","h99",5.21916966050833,5.52
"19","i137tn",5.63649350192023,4.69
"20","i205",5.38789994971647,4.19
"21","ia2132",5.12771458901666,5.37
"22","k64",5.05183593106873,5.42
"23","ki21",5.62547054306644,4.54
"24","ki3",5.58899673475247,5.3
"25","ki43",5.78584550158198,5.13
"26","m37w",5.83332591390292,6.25
"27","mo18w",6.36159269755971,5.89
"28","mo44",5.48274773377383,5.92
"29","ms1334",5.3058934097183,4.82
"30","ms71",4.85798822409743,5.15
"31","mt42",5.11407444927182,4.27
"32","nc232",5.63848057217104,5.69
"33","nc236",5.418407974744,5.13
"34","nc294",6.03983515141427,6.55
"35","nc298",5.93580472374185,5.66
"36","nc304",6.27609095565821,5.24
"37","nc306",6.19485468721747,6.57
"38","nc340",6.30732396085651,7.38
"39","nc344",5.599535497336,5.55
"40","nc350",6.25918676070575,6.64
"41","oh43e",5.4530604817861,5.69
"42","pa762",5.24626517301618,5.35
"43","pa875",5.5099519908127,5.97
"44","pa880",5.51693036141276,6.52
"45","pa91",5.47319246258758,4.8
"46","r177",5.49314138241974,6.23
"47","r229",5.73718834550135,5.17
"48","sa24",4.74294076586035,5.35
"49","sd44",5.44810578810265,5.31
"50","t232",5.48935561233857,5.17
"51","tx303",5.85081356420864,5.24
"52","u267y",5.8269440982686,5.48
"53","va35",5.59455272158666,5.41
"54","w22",4.84603056900875,4.26
"55","wf9",6.01677327561694,6.8
