"","taxa","s1","nodenumberaboveear_BLUP.Hung_2012_1"
"1","3316",5.40078698811958,6.58
"2","4226",5.30552901320604,4.51
"3","a239",5.24267093965799,4.76
"4","a554",5.44142308278151,5.1
"5","a641",5.44548280868356,6.25
"6","a661",5.00780274927881,4.54
"7","ab28a",5.63459811712945,5.1
"8","b57",5.34746063957248,5.62
"9","b64",5.80236654460784,4.51
"10","b75",5.32366095376567,4.81
"11","c103",5.31918544659825,4.67
"12","ci28a",5.45305227509149,4.85
"13","ci3a",5.29594534189857,5.47
"14","cm105",5.11493023257269,5.39
"15","cml220",5.98105737946609,5.96
"16","cml311",5.90261167995326,5.87
"17","cml323",5.98704073262584,5.94
"18","cml91",5.64792674344189,6.21
"19","cmv3",4.79374730542438,4.78
"20","de1",5.05414647588208,4.6
"21","ep1",5.14740196307258,4.25
"22","f6",5.60550380698813,5.85
"23","h84",5.91432253940029,6.6
"24","i29",5.24653374811748,3.62
"25","il677a",5.31158307693963,5.91
"26","k148",5.36344796450474,6.23
"27","k55",5.69196693610747,5.97
"28","ki14",5.6872512676539,5.09
"29","ki2021",5.5894821731579,5.24
"30","ki3",5.69581065088611,5.3
"31","mef156552",5.1541793500698,3.96
"32","mo1w",6.06264568848759,6.73
"33","mo24w",5.43458210366764,5.35
"34","nc230",5.61773529489915,5.41
"35","nc250",6.21244990584765,6.27
"36","nc296",5.43591735727669,5.68
"37","nc320",5.2240164165735,5.43
"38","nc340",6.33112528264542,7.38
"39","nc354",5.7696306113034,5.12
"40","nc364",6.20957242499598,6.56
"41","nc366",5.94353274796244,5.99
"42","nc368",6.24364982745699,6.81
"43","oh603",5.57327672369045,5.07
"44","p39",4.97393932891465,4.95
"45","pa91",5.67699814406129,4.8
"46","r4",5.35742675947764,6.25
"47","sc213r",6.11460467041794,7.87
"48","sg1533",5.44282632175753,5.03
"49","tx303",5.81856760071315,5.24
"50","tzi16",5.91561098923135,5.6
"51","u267y",5.76149209186379,5.48
"52","va14",6.08627244319763,6.24
"53","va17",6.07104957712832,5.98
"54","va26",5.32414110306693,5.67
"55","wd",5.42273605441789,3.96
