"","taxa","s1","nodenumberbelowear_BLUP.Hung_2012_1"
"1","4722",8.19426257296001,8.84
"2","a272",8.71845611986233,6.67
"3","a554",7.06580881201283,5.85
"4","a556",7.40644880823321,7.05
"5","a619",6.59577661189095,5.21
"6","c103",7.13742456225361,7.11
"7","ci7",7.39891222829691,9.68
"8","cm105",7.08658722842403,6.23
"9","cm174",6.9355995885726,6.05
"10","cml108",9.62132417247725,9.29
"11","cml228",9.49534993089314,11.02
"12","cml254",10.0200365961826,8.2
"13","cml281",9.84391610254285,12.46
"14","cml92",9.10237560582998,8.1
"15","co125",7.20457792575025,4.28
"16","de3",7.64157389682639,7.67
"17","f44",8.49082210740728,9.26
"18","f6",8.10553640086331,9.86
"19","h84",8.15521282170457,7.48
"20","k4",8.34573975946584,9.44
"21","ki21",8.69317877624336,8.71
"22","l317",7.97878036724949,8.95
"23","m162w",8.72631434092785,10.34
"24","m37w",9.19384052290342,7.83
"25","mef156552",7.03219455108335,6.94
"26","mo44",7.12427467354036,6.75
"27","ms1334",7.83909987494964,5.38
"28","ms71",7.18638622051914,7.12
"29","nc222",8.06774017310725,8.83
"30","nc238",8.60194010393736,11.4
"31","nc250",9.16114048209265,8.37
"32","nc258",8.02343251956736,8.37
"33","nc290a",7.23582563596301,8.39
"34","nc296",8.58430296055927,8.9
"35","nc300",9.67863663423695,10.94
"36","nc314",9.1310024740846,8.49
"37","nc320",8.89651968868455,9.86
"38","nc324",9.16413778517342,8.15
"39","nc360",8.50792068798329,9.44
"40","nc366",9.0642967981925,8.23
"41","nd246",7.21517366521568,6.68
"42","oh40b",6.88291283469292,6.05
"43","oh7b",7.53576419862201,7.81
"44","sd44",7.56583326364376,6.71
"45","t232",8.44589470776524,7.57
"46","t234",7.99756967051332,8.38
"47","t8",8.07234184873779,9.39
"48","tx601",9.31667696215895,11.64
"49","tzi16",9.4676373933898,9.18
"50","u267y",8.30154270592774,7.34
"51","va26",7.14712774174137,6.63
"52","va85",7.28161437638681,9.73
"53","w182b",6.5610218423555,5.41
"54","wf9",7.28032347225937,7.6
