"","taxa","s1","nodenumberaboveear_BLUP.Hung_2012_1"
"1","a188",5.27173980239129,5.32
"2","a554",5.50523697751831,5.1
"3","a680",5.51555661983529,5.94
"4","b37",6.03327343962477,5.91
"5","b52",5.47374757586875,5.74
"6","b57",5.3478266664206,5.62
"7","b97",5.12996629161376,5.6
"8","c103",5.39440002844455,4.67
"9","c49a",4.99547581560662,4.26
"10","ci1872",5.64751636396035,5.38
"11","ci31a",5.3714719130463,5.35
"12","ci3a",5.28809564686281,5.47
"13","cml341",6.070550901568,5.89
"14","cml5",5.92970562382469,8.65
"15","cml92",5.87069478911726,7.07
"16","cmv3",4.86006734219197,4.78
"17","co255",4.70164211252151,4.53
"18","d940y",5.80825580203946,5.97
"19","f6",5.61578333336873,5.85
"20","h105w",5.69027036322696,5.31
"21","i137tn",5.56848337453745,4.69
"22","i29",5.27090883630583,3.62
"23","ids69",4.52037079600404,3.95
"24","il101",5.02217629553045,5.36
"25","k64",5.03921239794417,5.42
"26","ki11",5.74929851859511,5.38
"27","ki3",5.47774415584086,5.3
"28","ki43",5.6988963228428,5.13
"29","ky21",5.46070306355793,5.27
"30","ky228",5.43349718977751,6.51
"31","l578",5.8651375671914,5.53
"32","mo24w",5.51138748635971,5.35
"33","mo45",5.57270379106393,5.68
"34","nc222",5.61946283055011,6.82
"35","nc258",5.66320326477136,5.43
"36","nc296a",5.56872503592553,5.38
"37","nc298",5.81397653317364,5.66
"38","nc302",5.76512793632037,6.79
"39","nc306",6.2822026330071,6.57
"40","nc310",5.95517893242744,5.71
"41","nc328",5.82456755051943,5.63
"42","nc344",5.72489803895775,5.55
"43","nc362",6.35309829703071,6.29
"44","oh40b",5.21929759393692,4.53
"45","oh603",5.5587066025028,5.07
"46","os420",5.39925265954748,4.85
"47","tx601",5.88734223587186,8.59
"48","tzi10",5.82291512222571,5.99
"49","tzi16",5.89793891324046,5.6
"50","tzi18",5.95256820804968,5.87
"51","tzi8",5.96483648204107,6.39
"52","tzi9",5.90160296226846,5.96
"53","vaw6",5.53024139145368,5.33
"54","w117ht",5.30784091233883,4.25
"55","wd",5.3684872555977,3.96
