"","taxa","s1","nodenumberbelowear_BLUP.Hung_2012_1"
"1","4226",7.58449352202365,8.09
"2","a272",8.70753634250772,6.67
"3","a556",7.3557763532857,7.05
"4","a654",6.73455659805628,4.95
"5","a679",7.91945233282858,7.35
"6","b84",8.32120547640085,9.38
"7","b97",7.36622402365516,8.02
"8","ch9",7.34061156355644,7.24
"9","ci21e",8.28651880212399,8.97
"10","ci28a",8.60336440392815,8.71
"11","ci64",9.14352239986752,10.07
"12","ci66",8.2404212966919,9.05
"13","cm7",7.17702502823785,4.45
"14","cml108",9.5214783323493,9.29
"15","cml158q",9.47957731153878,12.22
"16","cml220",9.42091555426796,8.38
"17","cml277",9.82996452932494,8.98
"18","cml281",9.74934102663919,12.46
"19","cml328",9.01862205885249,10.88
"20","cml77",9.11837627272676,6.7
"21","f44",8.59296522400912,9.26
"22","h49",7.5531683654357,8.62
"23","hp301",7.37021790247653,8.11
"24","i205",7.41625747289316,7.23
"25","il101",6.27588435689289,5.81
"26","k4",8.04347178526704,9.44
"27","k64",8.44750912357779,9.81
"28","ki2021",9.98908650403927,7.48
"29","ky21",7.74070260618806,9.74
"30","mo24w",7.93144902650373,8.48
"31","n6",7.48613751951644,8.75
"32","nc230",8.02994139047143,9.38
"33","nc260",7.22952811821966,6.71
"34","nc290a",7.1843976395946,8.39
"35","nc296",8.91173323198335,8.9
"36","nc296a",8.89224401734397,8.29
"37","nc33",7.95878351595683,9.52
"38","nc342",7.57624803945218,8.37
"39","nc344",7.80509338328156,8.28
"40","nc346",8.90670057169116,8.56
"41","nc368",9.46732907561797,9.77
"42","oh7b",7.42645360189502,7.81
"43","pa762",6.5729582220473,6.87
"44","pa880",8.01035613317111,7.98
"45","r168",7.29091827009202,7.57
"46","r229",8.75594525979679,9.19
"47","r4",7.50891766469207,7.49
"48","sa24",8.09037520436845,9.4
"49","sd40",7.67691533817215,8.13
"50","sg18",7.67556047925,9.19
"51","tx601",9.21435443951993,11.64
"52","va26",6.98273367765147,6.63
"53","va99",6.91756537902959,6.83
"54","wd",6.36534246849279,6
