"","taxa","s1","nodenumberaboveear_BLUP.Hung_2012_1"
"1","a188",5.20083560600361,5.32
"2","a239",5.28373681018621,4.76
"3","a619",5.45004889045197,5.66
"4","a632",5.6249452799234,5.64
"5","a635",5.82440372560231,5.64
"6","a679",5.68513266632873,5.11
"7","b10",6.11474503202619,4.74
"8","b64",5.80819176506833,4.51
"9","b68",5.80163093117616,5.99
"10","b76",5.87998868208775,5.42
"11","ch9",5.68704132321214,5.64
"12","ci1872",5.66148540556894,5.38
"13","cm7",5.19043514613435,4.21
"14","cml103",5.90789853558973,4.48
"15","cml281",5.95107559866778,7.38
"16","cml323",5.8212947847869,5.94
"17","cml333",5.86734254447866,6
"18","cml38",6.00679303098487,5.53
"19","cml92",5.91330170408071,7.07
"20","co255",4.68389828424169,4.53
"21","e2558w",5.68193487544933,6.53
"22","f44",5.65365001011488,6.44
"23","h49",6.33394754412617,6.2
"24","ia5125",5.12405461159822,5.34
"25","il14h",5.00057804894926,5.59
"26","k4",5.64343417044739,5.39
"27","k55",5.63734481092464,5.97
"28","k64",5.08872096566712,5.42
"29","mo17",4.9285011754197,4.92
"30","mo44",5.37760521291804,5.92
"31","mo46",5.66432083617877,5.63
"32","mo47",5.58876707940679,5.68
"33","ms153",5.19273488191406,4.57
"34","nc260",5.40326666529777,5.66
"35","nc290a",5.78205864542191,6.23
"36","nc296",5.73786339882054,5.68
"37","nc296a",5.77837618677048,5.38
"38","nc304",6.35644716450389,5.24
"39","nc306",6.34260318396763,6.57
"40","nc310",5.92047080167077,5.71
"41","nc33",5.58163912418962,6.28
"42","nc336",5.75967025751024,5.89
"43","nc346",5.6935655946566,5.11
"44","nc348",5.88522336515326,5.99
"45","nd246",5.08781587064784,4.23
"46","oh40b",5.18680398829965,4.53
"47","p39",4.80590545279134,4.95
"48","r168",5.21434941189875,4.82
"49","sd44",5.59071083496025,5.31
"50","tzi8",5.96394233968225,6.39
"51","va102",5.70478705642453,5.08
"52","va14",6.09515646564079,6.24
"53","va17",6.16078937477635,5.98
"54","va85",5.25174408372115,5.12
"55","w64a",5.79688837998751,4.55
