"","taxa","s1","nodenumberaboveear_BLUP.Hung_2012_1"
"1","3316",5.43800260796184,6.58
"2","3811",5.1000261002381,5.42
"3","a619",5.40274221659942,5.66
"4","a641",5.31781634308777,6.25
"5","a654",5.32518962056443,4.77
"6","a659",5.29044731462143,4.77
"7","a680",5.46979777584832,5.94
"8","b14a",5.60377615087892,6.21
"9","b73htrhm",5.56685464376873,5.71
"10","b75",5.23010963396525,4.81
"11","b97",5.04885657795495,5.6
"12","ch70130",5.34979597508775,4.78
"13","ci1872",5.68678922334856,5.38
"14","ci21e",5.47833108256987,6.5
"15","ci31a",5.4717799339587,5.35
"16","ci64",5.66103174039957,4.83
"17","cm174",5.39324587556753,4.81
"18","cml108",5.84980912761314,5.64
"19","cml14",6.16758310567131,5.91
"20","cml154q",6.13470086442343,5.98
"21","cml247",6.18961492691185,6.22
"22","cml333",5.96268882957867,6
"23","f6",5.55733484686659,5.85
"24","ga209",5.55679814008365,5.53
"25","ia2132",5.10611966048307,5.37
"26","ia5125",4.98177755670794,5.34
"27","il101",4.88472543341906,5.36
"28","il677a",5.19884168795253,5.91
"29","ki3",5.5117096097339,5.3
"30","l578",5.85495323996068,5.53
"31","m162w",5.83454149137395,5.63
"32","mo17",4.91208140299443,4.92
"33","mo24w",5.46581701381591,5.35
"34","mp339",5.51339845503633,5.14
"35","ms71",5.00525941800457,5.15
"36","n192",5.30607690386924,5.34
"37","nc230",5.68695095667889,5.41
"38","nc236",5.42342762865568,5.13
"39","nc250",6.32609453989946,6.27
"40","nc262",5.83557951904278,5.9
"41","nc296",5.43050513013146,5.68
"42","nc338",5.77874707400294,4.5
"43","nc350",5.8534585034741,6.64
"44","nc352",5.75772710761486,5.85
"45","nc356",6.04504642514999,6.02
"46","os420",5.36166726239513,4.85
"47","r4",5.30570919856915,6.25
"48","sc357",5.87755961615372,6.21
"49","sg18",4.8395331920765,5.69
"50","tzi18",6.10304630196813,5.87
"51","tzi9",6.02635551321463,5.96
"52","va102",5.26392277834025,5.08
"53","va17",6.05664065489123,5.98
"54","w153r",5.33348928485173,5.38
"55","wf9",6.05319318454044,6.8
