"","taxa","s1","numbraceroots_BLUP.Hung_2012_1"
"1","3316",1.6775668971818,1.4
"2","3811",1.39600979753531,1.73
"3","a6",1.78828117983436,2.22
"4","a635",1.56053172637191,1.22
"5","a641",1.45768356785151,1.2
"6","a654",1.46244386556201,1.17
"7","a679",1.94109157304271,1.69
"8","b115",1.44257795533228,1.24
"9","b73htrhm",2.09625333437794,1.69
"10","b84",1.80357609101035,1.71
"11","c49a",1.42532727988576,1.44
"12","ci1872",1.67001862642612,1.14
"13","ci28a",1.70527048477503,1.4
"14","ci3a",1.52037174424652,1.64
"15","cm105",1.35386021858806,1.26
"16","cml103",1.75950119280832,1.27
"17","cml108",1.76892299880129,1.34
"18","cml11",1.74839109682774,1.42
"19","cml220",1.76248497182006,1.69
"20","cml332",1.62496961882322,1.67
"21","cml333",1.72425751053749,1.45
"22","cml77",1.69717652981506,1.72
"23","d940y",1.56801776729213,1.9
"24","de811",1.62625199061388,1.68
"25","ep1",1.37206259727615,1.48
"26","f2834t",1.64333016238275,1.2
"27","h99",1.52530905884844,1.69
"28","il677a",1.32199219881418,1.33
"29","ki14",1.65716666382648,2.62
"30","ky226",1.61212511193093,1.68
"31","m37w",1.66884221998429,1.82
"32","mo17",1.42875591490994,1.47
"33","mo18w",1.59241552634657,1.48
"34","mp339",1.6230161972062,1.58
"35","ms1334",1.48827230301537,1.34
"36","nc236",1.53027900873936,1.43
"37","nc250",1.79403099396421,1.47
"38","nc264",1.69212636673795,1.49
"39","nc342",1.47239337518102,1.63
"40","nc350",1.74935599148079,2.06
"41","nc358",1.74652334734627,1.39
"42","nc362",1.6479608589514,1.64
"43","nc366",1.67803069098114,1.62
"44","os420",1.52964584806666,1.22
"45","pa875",1.57298815215224,1.21
"46","r109b",1.52547479100521,1.64
"47","sa24",1.36276708559384,1.65
"48","sc357",1.6209591721957,2.16
"49","sd44",1.4850737553715,1.18
"50","t234",1.57255262743508,1.28
"51","va102",1.95210950003321,1.73
"52","va17",1.42494461314701,1.23
"53","vaw6",1.61091492417842,1.44
"54","w153r",1.50167955131001,0.98
"55","wf9",1.48339662117296,1.22
