"","taxa","s1","numbraceroots_BLUP.Hung_2012_1"
"1","a6",1.74453058247495,2.22
"2","a619",1.53075413522111,1.25
"3","a635",1.50408864634945,1.22
"4","a654",1.39454383361556,1.17
"5","b109",1.85366848861986,2.18
"6","b46",1.45772878443489,1.64
"7","ci31a",1.56260348878075,1.57
"8","ci64",1.40806334092172,1.22
"9","ci7",1.46699886487806,1.91
"10","ci90c",1.51542858809496,1.84
"11","cm37",1.25597464831051,1.03
"12","cml14",1.77303880333973,3.11
"13","cml154q",1.68088037293939,1.66
"14","cml220",1.69730995749401,1.69
"15","cml247",1.74975085652462,2.04
"16","cml261",1.71008100583652,1.84
"17","cml314",1.70664912077334,2
"18","cml321",1.7647877926786,2.03
"19","cml322",1.57647667069867,1.9
"20","cml332",1.52966173588469,1.67
"21","cml77",1.65303740907972,1.72
"22","de1",1.73268005440436,1.73
"23","ga209",1.52941435423962,1.78
"24","h49",1.35651881247382,1.64
"25","i137tn",1.55775091348225,1.69
"26","i205",1.51159915720902,1.18
"27","il14h",1.2485637274384,0.97
"28","ki2021",1.82101232920994,1.44
"29","ki21",1.68292263757922,1.7
"30","ky21",1.47504921995723,1.73
"31","ky226",1.55682245318681,1.68
"32","mo24w",1.49650151393497,1.66
"33","mp339",1.56781212856456,1.58
"34","ms153",1.45938693394403,1.45
"35","n192",1.69856968579066,1.66
"36","n28ht",1.6569820597105,2.33
"37","n7a",1.50592737751971,1.65
"38","nc222",1.51175452091907,1.38
"39","nc262",1.52643957229418,1.24
"40","nc264",1.67195420647048,1.49
"41","nc306",1.87399637676433,1.91
"42","nc324",1.97417402029518,1.58
"43","nc328",1.8381872193978,2.37
"44","nc33",1.55598763150661,1.52
"45","nc360",1.68098673855852,1.94
"46","nc368",1.81354408549375,2.03
"47","oh43",1.4792754027889,1.64
"48","pa91",1.42513866029297,1.39
"49","r109b",1.49111847633278,1.64
"50","r229",1.88519953719683,2.21
"51","tzi25",1.77629801230727,2.03
"52","va22",1.37640620675053,1.47
"53","va26",1.45786488159412,1.62
"54","w22",1.5240630053284,1.98
"55","wd",1.29609670666539,0.94
