"","taxa","s1","numbraceroots_BLUP.Hung_2012_1"
"1","4226",1.5347664768576,1.15
"2","a272",1.60789790022965,1.27
"3","a556",1.53552614832192,1.41
"4","a654",1.41450223449965,1.17
"5","a679",1.82554009232579,1.69
"6","b84",1.7602030769643,1.71
"7","b97",1.5035105586664,1.74
"8","ch9",1.45036899706456,1.65
"9","ci21e",1.53044549365365,1.83
"10","ci28a",1.70991578423345,1.4
"11","ci64",1.4141153192163,1.22
"12","ci66",1.55380035165998,1.54
"13","cm105",1.33935822941939,1.26
"14","cm7",1.42086352056919,1.14
"15","cml103",1.73152990577581,1.27
"16","cml220",1.77892196428432,1.69
"17","cml261",1.82240368750985,1.84
"18","cml333",1.75677974711157,1.45
"19","cml45",1.83562949198611,1.26
"20","f2834t",1.66586585194829,1.2
"21","h84",1.66871154900009,1.64
"22","h99",1.46364007353445,1.69
"23","hp301",1.28203363009679,1.33
"24","ids28",1.41271407468529,1.88
"25","il14h",1.21559352361294,0.97
"26","k4",1.54619983219725,1.23
"27","k55",1.54353406328013,1.21
"28","ki11",1.78200081345612,1.86
"29","ki43",1.78674679226491,1.67
"30","l317",1.5666314293048,1.27
"31","ms71",1.34388162280484,1.42
"32","nc222",1.54477926699369,1.38
"33","nc236",1.54412298623287,1.43
"34","nc262",1.53443126561135,1.24
"35","nc264",1.70781841060155,1.49
"36","nc296a",1.86099968417849,2.34
"37","nc302",1.92394609292845,1.45
"38","nc304",1.91699408205077,1.35
"39","nc33",1.59186725946341,1.52
"40","nc338",1.8655252341688,2.19
"41","nc348",1.84705999325989,1.34
"42","nc354",1.8954379136449,2.21
"43","nc358",1.78233337596889,1.39
"44","oh43",1.34149993906281,1.64
"45","oh43e",1.38414850115471,1.69
"46","pa762",1.37143357713025,1.65
"47","pa91",1.39424755672195,1.39
"48","r4",1.49931523317685,1.37
"49","sa24",1.3513549329305,1.65
"50","sc55",1.59789540485879,1.5
"51","sd40",1.65631563532691,1.63
"52","tx303",1.66330013632571,1.43
"53","tzi16",1.88912140507031,1.75
"54","w153r",1.48367701737539,0.98
"55","w22",1.56787810995752,1.98
