"","taxa","s1","numbraceroots_BLUP.Hung_2012_1"
"1","4226",1.5119912587928,1.15
"2","4722",1.47255657274239,1.37
"3","a554",1.36772537260698,1.2
"4","ab28a",1.57365316101999,1.16
"5","b104",1.68713125635112,1.41
"6","b105",1.62328973001336,2.26
"7","b115",1.44100790259741,1.24
"8","b2",1.48883751936365,1.87
"9","b37",1.7715486032972,1.7
"10","b52",1.50880936734602,1.69
"11","b57",1.51170875313412,1.38
"12","b64",1.56701202234908,1.68
"13","b73",1.98802710148011,2.25
"14","b73htrhm",1.99226706609099,1.69
"15","c49a",1.40188339903986,1.44
"16","ch9",1.45301888006861,1.65
"17","ci31a",1.61071902060959,1.57
"18","cm37",1.24754726978595,1.03
"19","cml14",1.81334824403598,3.11
"20","cml254",1.77485638672694,1.5
"21","cml281",1.79029028768719,2.72
"22","cml331",1.72869566420365,1.24
"23","co255",1.3914054088154,0.93
"24","h95",1.60308163231462,1.22
"25","i205",1.56881896921162,1.18
"26","k55",1.51600905464921,1.21
"27","ki2021",1.84507617061847,1.44
"28","ki21",1.71254382883414,1.7
"29","ky226",1.6190272087184,1.68
"30","mo18w",1.55150810788577,1.48
"31","mo46",1.52849920993257,1.95
"32","mog",1.46608682776116,1.97
"33","ms1334",1.49536500245463,1.34
"34","n28ht",1.66294820832119,2.33
"35","nc236",1.52259981215185,1.43
"36","nc258",1.47680832090154,1.53
"37","nc296",2.13365081431635,1.45
"38","nc314",1.81620634539847,2.33
"39","nc324",1.80827286261965,1.58
"40","nc344",1.46015922706648,1.78
"41","nc346",2.15081708831373,1.9
"42","nc358",1.78202816296763,1.39
"43","oh40b",1.51702923468257,1.55
"44","os420",1.47880975556586,1.22
"45","pa875",1.52340714972405,1.21
"46","pa91",1.43501490885772,1.39
"47","r109b",1.5363020039259,1.64
"48","r229",1.93205770979157,2.21
"49","sd40",1.64833676842506,1.63
"50","sd44",1.47404748445139,1.18
"51","sg1533",1.43189651553572,1.21
"52","sg18",1.41423901966258,1.28
"53","t232",1.54311280115599,1.46
"54","tzi9",1.746801097645,1.37
"55","wd",1.31330268286149,0.94
