"","taxa","s1","numbraceroots_BLUP.Hung_2012_1"
"1","4226",1.48112752652676,1.15
"2","a4415",1.54722822241739,1.36
"3","a554",1.29683806147833,1.2
"4","a632",1.49981198855216,1.65
"5","a659",1.48672983657925,1.5
"6","b105",1.63636829719291,2.26
"7","b57",1.47554804036505,1.38
"8","b64",1.5411443607505,1.68
"9","b68",1.52020311021672,1.71
"10","b77",1.49357774019129,1.49
"11","c123",1.33706177567883,1.34
"12","ci21e",1.49450242273688,1.83
"13","ci7",1.43230419290429,1.91
"14","ci90c",1.5051583113841,1.84
"15","cm105",1.33207946266132,1.26
"16","cml247",1.76609614461141,2.04
"17","cml254",1.74125842736012,1.5
"18","cml281",1.76547155450936,2.72
"19","cml328",1.65957131093625,1.85
"20","cml333",1.67621226259963,1.45
"21","co255",1.35131084064409,0.93
"22","d940y",1.5947559349739,1.9
"23","de1",1.70959830848267,1.73
"24","ga209",1.51626033861741,1.78
"25","ia2132",1.24225102019247,1.47
"26","ids28",1.38859400133796,1.88
"27","k55",1.50976149544237,1.21
"28","ki14",1.65535449014247,2.62
"29","ki43",1.69174070983381,1.67
"30","ky226",1.55066067287764,1.68
"31","ky228",1.49134403284621,2.76
"32","mef156552",1.26859730416684,1.17
"33","mo47",1.55298543860093,1.64
"34","nc222",1.48840940785889,1.38
"35","nc262",1.4944351207,1.24
"36","nc294",1.9591567061078,1.65
"37","nc310",2.02147508875498,1.72
"38","nc326",2.00008132377775,2.13
"39","nc336",1.78112485782958,2.79
"40","nc344",1.46172986764592,1.78
"41","nc360",1.66634601666279,1.94
"42","nc362",1.63684594768466,1.64
"43","nc368",1.85881374174286,2.03
"44","oh43",1.40271984080326,1.64
"45","oh43e",1.430708055779,1.69
"46","os420",1.45845130256668,1.22
"47","r168",1.38774316468164,1.18
"48","sc55",1.52845377598809,1.5
"49","sd40",1.60689483415875,1.63
"50","tzi18",1.72797327883241,2.18
"51","va102",1.80341993404317,1.73
"52","va22",1.34590484348722,1.47
"53","w117ht",1.4266703534665,1.84
"54","w22",1.56684699457328,1.98
"55","yu796ns",1.46502034075002,2.32
