"","taxa","s1","oil_kernel_BLUP.Cook_2012"
"1","4226",4.31137179317056,4.513
"2","a214n",4.01292935522685,3.667
"3","a6",4.59707661976174,4.855
"4","a682",4.05700912891935,3.99
"5","b164",4.21933082769521,4.905
"6","b46",3.84490668509166,4.11
"7","b52",4.32654679407337,4.503
"8","b79",4.1428496894588,3.638
"9","ci64",4.37053008038066,3.828
"10","ci90c",4.71825044048348,4.518
"11","cm7",4.53370026243259,3.764
"12","cml10",4.71952565227163,4.703
"13","cml108",4.52571420516935,4.845
"14","cml220",4.64495606959368,3.866
"15","cml258",4.59290222109684,3.769
"16","cml264",4.52548854748646,4.252
"17","cml287",4.61176159800032,3.653
"18","cml321",4.57151043810808,5.383
"19","cml38",4.559907128466,5.368
"20","cml52",4.6115649158611,4.435
"21","co125",4.35629858929954,4.761
"22","co255",4.49580546378924,4.409
"23","f2834t",4.362742248684,4.191
"24","ga209",4.55929415429728,4.123
"25","h91",4.0202444492375,4
"26","hy",3.90658083382569,3.649
"27","ia2132",5.48266567841186,5.142
"28","il14h",5.26669042534843,6.35
"29","ki43",4.64942914998346,5.223
"30","ky228",4.44222540838837,3.786
"31","mo44",4.63402885309727,4.135
"32","mo45",4.38398025875783,3.827
"33","mog",4.44166466120691,5.526
"34","nc236",4.451862447648,4.628
"35","nc262",4.4725406372879,4.528
"36","nc264",4.90147813863308,4.962
"37","nc294",3.89370251461804,4.16
"38","nc296a",4.13841186894202,3.645
"39","nc362",4.08903698999936,4.28
"40","oh603",4.36830182827741,3.845
"41","r168",4.45874864994823,5.134
"42","r177",4.24521469948944,4.52
"43","r4",4.09250672617223,4.108
"44","sd40",4.1784006610346,4.754
"45","sd44",4.29894140636264,3.282
"46","sg18",4.25748635097166,3.863
"47","tx303",4.42998459290303,3.93
"48","tzi11",4.46587397514476,4.551
"49","tzi16",4.26553554853217,4.891
"50","tzi18",4.57017431807326,4.57
"51","tzi25",4.27522355329433,4.364
"52","va85",4.25842421644899,4.621
"53","w117ht",4.45908476284351,4.26
"54","w22rrstd",3.95318197459854,4.442
"55","wf9",3.903140655901,3.521
