"","taxa","s1","oil_kernel_BLUP.Cook_2012"
"1","4722",4.24888935662932,4.14
"2","a4415",4.45764868735606,3.489
"3","a556",4.38957323711475,3.806
"4","a6",4.55668828331533,4.855
"5","a632",3.92513127787272,4.282
"6","b68",3.82786148315531,3.665
"7","b97",4.37922808003457,4.033
"8","c123",4.32596901854102,4.151
"9","ci91b",4.15913550493667,4.25
"10","cm7",4.49391882249823,3.764
"11","cml10",4.63585496076049,4.703
"12","cml154q",4.4958094597978,3.917
"13","cml254",4.4921710305699,4.199
"14","cml261",4.47497497211657,5.049
"15","cml264",4.45928943789679,4.252
"16","cml323",4.50777584225328,4.631
"17","cml333",4.6601304428676,5.539
"18","cml341",4.45820798394471,4.225
"19","f6",4.52777412117374,5.217
"20","hp301",3.97527432412776,4.241
"21","k148",4.48072115905249,4.026
"22","k4",4.37140010155536,5.423
"23","ki2021",4.70603635520399,3.822
"24","ky228",4.4194539840911,3.786
"25","l578",4.50300983936031,5.225
"26","m14",4.3530749142882,4.944
"27","mo46",4.32291194086354,4.543
"28","mog",4.36277996771732,5.526
"29","ms1334",4.43737783382629,4.967
"30","mt42",4.41840877030394,3.986
"31","n6",4.44011163498702,4.824
"32","nc250",4.1754933637901,3.659
"33","nc264",4.88485184647549,4.962
"34","nc290a",4.55483017637177,4.252
"35","nc294",3.91160463982143,4.16
"36","nc304",4.54444870059211,5.313
"37","nc310",3.97112069521986,4.581
"38","nc314",4.10108549298138,4.806
"39","nc324",4.13546264892479,3.953
"40","nc326",3.7667436027764,4.191
"41","nc33",4.7099410024729,5.088
"42","nc346",3.86112692335391,4.497
"43","nc348",4.24329786168756,4.027
"44","oh43e",3.68841777610367,4.304
"45","os420",4.08899468157532,3.889
"46","p39",5.053925169562,8.234
"47","sc357",4.61283904523477,6.202
"48","t232",4.4148748101878,4.222
"49","tzi8",4.61982154926167,5.239
"50","tzi9",4.51376995768035,4.135
"51","va22",4.36080875057389,5.041
"52","w153r",4.21685494116174,3.697
"53","w182b",4.28332807499794,4.313
"54","wf9",3.87086648051894,3.521
"55","yu796ns",4.38643685306906,3.785
