"","taxa","s1","oil_kernel_BLUP.Cook_2012"
"1","4226",4.36065592322822,4.513
"2","a214n",4.24420949975959,3.667
"3","a239",4.14911661882077,3.858
"4","a635",4.11352842912568,3.705
"5","a641",4.27833193101137,3.941
"6","a661",4.3106890513939,4.977
"7","a679",3.81514735171258,3.33
"8","ab28a",4.85432981373416,4.917
"9","b109",3.7355199372977,3.905
"10","b64",4.25648162521473,3.334
"11","b68",4.12213429832518,3.665
"12","b76",3.96270893897544,3.56
"13","ci66",4.8059979654388,4.616
"14","cml108",4.51169999493369,4.845
"15","cml11",4.51276993823007,4.807
"16","cml14",4.48486701408002,4.913
"17","cml157q",4.51542368202604,4.845
"18","cml228",4.6238216143432,5.094
"19","cml254",4.50545626337581,4.199
"20","cml314",4.46851334891545,4.878
"21","cml328",4.57857826849572,5.615
"22","cml341",4.43388095185085,4.225
"23","cml52",4.48578288289125,4.435
"24","cml61",4.37594186307902,4.132
"25","co125",4.25220222359207,4.761
"26","e2558w",4.32710564647357,4.984
"27","f6",4.64459904898661,5.217
"28","gt112",5.12832756909499,4.398
"29","i29",4.58731136305446,4.203
"30","m37w",4.57311886637105,3.553
"31","mo1w",3.81978358396226,3.975
"32","mo24w",4.2938478476268,4.45
"33","mog",4.44916181490232,5.526
"34","ms71",4.49690503733767,4.153
"35","mt42",4.3874083804572,3.986
"36","n6",4.34834907910108,4.824
"37","nc258",4.59440791493615,5.37
"38","nc262",4.57077751622559,4.528
"39","nc290a",4.52343398337762,4.252
"40","nc296a",3.97963273607406,3.645
"41","nc304",4.53044179211418,5.313
"42","nc318",4.87225582532951,4.946
"43","nc324",4.63799638589675,3.953
"44","nc346",3.94909229214144,4.497
"45","nc348",4.25479785744497,4.027
"46","nc358",4.37063607228198,3.895
"47","oh43e",3.64325512587216,4.304
"48","r229",3.79598590755177,3.987
"49","t232",4.4997554383205,4.222
"50","tzi16",4.183916079384,4.891
"51","va102",3.83085431122114,3.785
"52","va14",4.36379757332251,4.553
"53","va85",4.28245261570427,4.621
"54","w117ht",4.43297150147666,4.26
"55","w22rrstd",4.00600996290034,4.442
