"","taxa","s1","plant_height_BLUP.Peiffer_2014"
"1","3316",165.939794542311,180.289
"2","a632",150.558323599097,154.346
"3","a641",137.891131652294,127.734
"4","b105",156.385554567449,154.353
"5","b109",170.917594293051,174.313
"6","b164",143.937141976297,165.495
"7","b46",151.538303663377,162.749
"8","b57",153.670292944293,134.997
"9","b75",149.255021540227,152.79
"10","b84",160.596480736551,160.414
"11","ci28a",168.286800159932,153.407
"12","cm174",134.521142928704,122.527
"13","cm7",144.232412105809,108.091
"14","cml103",172.255133900419,169.434
"15","cml11",190.567998622638,187.371
"16","cml14",174.140165024827,162
"17","cml154q",174.396609880302,152.203
"18","cml218",168.298235511641,182.106
"19","cml254",178.002854111799,186.04
"20","cml311",171.363963978345,190.907
"21","cml328",166.475260198743,175.987
"22","cml331",155.511371214304,205.558
"23","cml91",170.050754343658,172.73
"24","ep1",146.39743097151,114.932
"25","h99",145.989956907538,119.729
"26","hp301",144.084327082885,157.156
"27","i137tn",161.115838480975,151.838
"28","ia2132",137.521295149735,122.467
"29","ids69",131.228713682166,105.905
"30","k4",154.680171038863,167.854
"31","k64",156.306387337643,169.24
"32","ki43",169.808210129184,130.508
"33","mef156552",139.751089645675,135.849
"34","mo18w",167.803462293544,164.379
"35","mo1w",157.573268065037,147.462
"36","mo24w",155.087243880145,187.998
"37","mo44",165.299453729967,156.072
"38","mo46",151.917568606813,158.62
"39","ms153",146.22083673027,152.218
"40","nc236",157.118194432769,144.678
"41","nc250",156.527163693395,134.85
"42","nc296a",165.905821062979,148.66
"43","nc338",165.011690908897,161.77
"44","nc344",150.712003782075,172.691
"45","nc360",162.395789738128,127.722
"46","nc364",159.005182527151,163.805
"47","nc368",165.374119564597,170.741
"48","oh43e",146.389001413762,127.531
"49","pa880",156.9691658401,173.886
"50","r109b",149.129137210498,156.527
"51","r229",174.169176532726,171.597
"52","sd40",143.283785735925,178.149
"53","t234",154.730572118624,153.059
"54","va35",162.398821460876,141.835
"55","va85",146.630293401595,161.486
"56","w182b",137.256146379368,127.628
"57","w22",144.802701980699,140.969
