"","taxa","s1","plant_height_BLUP.Peiffer_2014"
"1","3316",151.95929777464,180.289
"2","a556",149.758785872727,115.693
"3","a641",138.416704244003,127.734
"4","a679",163.092114010197,158.43
"5","a682",146.33503657124,156.079
"6","b103",155.117077309859,120.219
"7","b104",161.242585530204,138.188
"8","b14a",149.660385781792,163.729
"9","b164",151.926200612797,165.495
"10","b76",151.75038109754,145.843
"11","ch70130",149.148188430324,157.655
"12","ci21e",150.321585758901,167.742
"13","ci64",156.647033451729,164.42
"14","ci7",158.903919957142,195.395
"15","cml154q",176.305498406388,152.203
"16","cml220",173.564538848698,131.644
"17","cml247",177.360152177844,155.851
"18","cml38",177.142225458216,161.86
"19","cml77",163.64176069621,164.991
"20","cmv3",130.400447960331,111.369
"21","co106",148.344942295015,117.456
"22","e2558w",153.455219474043,163.583
"23","f6",159.431430194665,172.965
"24","h49",151.473220009536,156.548
"25","i205",155.310677949034,131.773
"26","il14h",121.921239312008,159.44
"27","k64",153.177883586539,169.24
"28","ki14",173.800947176781,185.537
"29","ki3",175.285246564578,145.07
"30","ki44",171.166497858089,137.664
"31","ky226",158.703234473904,161.52
"32","mef156552",135.548227625636,135.849
"33","mo44",158.637354493853,156.072
"34","mo46",153.55945337173,158.62
"35","ms1334",147.236632153877,147.621
"36","n192",155.714107768549,144.049
"37","nc260",158.18677253049,168.132
"38","nc262",153.247779477855,115.778
"39","nc290a",152.387729508964,142.123
"40","nc296a",166.633640233664,148.66
"41","nc328",169.352553831685,166.691
"42","nc338",164.392866368746,161.77
"43","nc344",155.823829616557,172.691
"44","oh40b",142.647541516715,157.32
"45","oh43",136.847943967912,144.306
"46","pa91",157.988127309207,171.473
"47","r168",144.246822836066,158.017
"48","r177",152.179635924694,165.213
"49","r4",150.799464458172,168.866
"50","sc357",164.419132798979,156.17
"51","tx601",168.0019232902,199.819
"52","tzi10",170.488895055829,167.997
"53","tzi25",173.626988083724,179.626
"54","u267y",162.688415469419,150.716
"55","va22",152.442601799676,156.506
"56","va26",142.121690500753,163.637
"57","w182b",137.142532159846,127.628
