"","taxa","s1","plant_height_BLUP.Peiffer_2014"
"1","4722",143.467101502951,162.867
"2","a188",150.824116150263,126.094
"3","a6",167.252721516421,186.75
"4","a641",146.775569180941,127.734
"5","b109",167.396131611676,174.313
"6","b14a",151.326580764026,163.729
"7","b37",149.507011406984,160.034
"8","b64",157.36068910249,123.984
"9","b73htrhm",170.232583198263,174.67
"10","c49a",144.364989875905,127.39
"11","ch9",149.174077560723,132.823
"12","ci64",162.43888002867,164.42
"13","ci66",148.580378355281,135.776
"14","cm105",136.955622744491,134.851
"15","cml103",171.152335450066,169.434
"16","cml154q",172.408586561086,152.203
"17","cml238",171.160476801155,151.291
"18","cml261",174.447729284402,198.808
"19","cml321",171.089964719525,204.046
"20","cml69",171.91652796238,174.214
"21","cmv3",137.845939213626,111.369
"22","co125",147.440351723474,121.595
"23","co255",140.596301404625,146.175
"24","d940y",160.826340578315,167.013
"25","de2",152.572890518305,147.997
"26","de811",156.8353162759,179.433
"27","h49",150.098441254911,156.548
"28","hp301",137.671532799558,157.156
"29","i137tn",160.936392221604,151.838
"30","i29",149.651518192991,124.193
"31","ia2132",135.938972593185,122.467
"32","ki2021",164.421757385764,199.23
"33","ki44",169.125513806311,137.664
"34","mo18w",165.824334555846,164.379
"35","mo24w",157.200221061953,187.998
"36","mo44",161.20291177415,156.072
"37","mo47",162.090876428735,126.663
"38","mp339",162.317611648343,160.921
"39","ms71",150.488999697854,140.875
"40","mt42",146.820692659114,120.286
"41","nc230",152.01806778479,136.009
"42","nc290a",142.213045948021,142.123
"43","nc300",168.580078373761,174.467
"44","nc310",168.390294434509,169.224
"45","nc358",165.714984112921,156.159
"46","nc362",155.353618157398,160.078
"47","oh43e",146.405558210763,127.531
"48","os420",151.717147972708,168.325
"49","pa91",159.466158531318,171.473
"50","r168",152.795620850947,158.017
"51","sc357",164.439536920618,156.17
"52","tzi8",172.660705187393,184.968
"53","va26",149.658083769926,163.637
"54","va35",160.126597598026,141.835
"55","va85",149.172486722913,161.486
"56","vaw6",157.623299666585,105.409
"57","w153r",147.958253968028,101.599
