"","taxa","s1","plant_height_BLUP.Peiffer_2014"
"1","4226",150.642111762836,176.761
"2","a239",146.082042770318,141.403
"3","a272",159.418114865558,154.798
"4","a554",149.27658197733,129.043
"5","a556",150.085077723969,115.693
"6","a6",167.040631610882,186.75
"7","a654",145.344851940114,122.738
"8","a679",163.109386059212,158.43
"9","b164",153.137806085172,165.495
"10","b84",160.414125047172,160.414
"11","b97",155.059790339612,168.721
"12","ch9",148.745872745907,132.823
"13","ci21e",156.52887541481,167.742
"14","ci28a",169.317056360795,153.407
"15","ci64",164.267795643081,164.42
"16","ci66",143.303797747954,135.776
"17","cm7",142.048969637533,108.091
"18","cml108",170.633288180185,160.601
"19","cml158q",169.26154624297,174.917
"20","cml220",169.499719921735,131.644
"21","cml258",177.911858035408,182.432
"22","cml261",176.916720230586,198.808
"23","cml332",186.665344262234,147.338
"24","cml333",173.376616606904,186.702
"25","cml341",176.325881320072,190.175
"26","cml38",173.222391928798,161.86
"27","de2",153.071225343849,147.997
"28","f2834t",160.035545862212,148.678
"29","h84",157.674861525905,142.249
"30","hy",149.19482006265,141.275
"31","i137tn",162.893587526907,151.838
"32","ids28",146.417075630199,161.548
"33","il677a",137.70604445882,131.171
"34","ki11",171.776992692615,152.626
"35","ky21",155.813812154246,164.764
"36","nc232",163.376459411601,139.514
"37","nc236",155.896402084644,144.678
"38","nc260",158.343743288128,168.132
"39","nc298",159.408844043911,162.816
"40","nc300",169.202284843804,174.467
"41","nc310",169.031640335703,169.224
"42","nc344",152.344061445013,172.691
"43","nc352",155.80059045923,168.4
"44","nc360",160.928717573322,127.722
"45","nc364",158.626007213755,163.805
"46","oh43",144.376393790645,144.306
"47","oh603",156.56709351455,125.763
"48","p39",115.731857078833,116.761
"49","pa762",148.126824514571,140.343
"50","r109b",150.06048050046,156.527
"51","r229",173.400098123872,171.597
"52","sc213r",168.953027348465,176.064
"53","sc357",163.729655037359,156.17
"54","sc55",160.058617971436,180.436
"55","sd44",153.381864907678,143.111
"56","tx601",168.673402244998,199.819
"57","tzi9",169.885689235856,199.752
