"","taxa","s1","plant_height_BLUP.Peiffer_2014"
"1","3811",159.915779598261,181.573
"2","4226",147.067225549859,176.761
"3","a188",146.91931988242,126.094
"4","a239",143.197292328599,141.403
"5","a4415",157.330016317302,127.321
"6","b52",150.040677673522,170.445
"7","b57",153.181691985801,134.997
"8","b73htrhm",175.910799298519,174.67
"9","b77",154.85634757335,159.269
"10","b97",151.207844708477,168.721
"11","ci21e",151.844059391671,167.742
"12","ci31a",150.328050297062,142.857
"13","cml218",168.089804786743,182.106
"14","cml261",175.085072519162,198.808
"15","cml277",176.017185973467,184.117
"16","cml341",173.475633859837,190.175
"17","cml45",172.328038236855,188.007
"18","cml77",163.635050431994,164.991
"19","cmv3",129.257089795075,111.369
"20","co106",147.843749365692,117.456
"21","de2",150.231594383698,147.997
"22","ep1",145.752031789719,114.932
"23","h84",156.859328333495,142.249
"24","hp301",122.854728459148,157.156
"25","k64",157.053777106791,169.24
"26","ki2021",165.349831365189,199.23
"27","ki43",166.242838176852,130.508
"28","mo18w",163.710897395719,164.379
"29","mo24w",154.777821136799,187.998
"30","mo45",144.37361187189,181.797
"31","mo46",144.500569402382,158.62
"32","mog",161.405913356222,189.179
"33","ms153",144.627458887541,152.218
"34","nc232",163.837660711119,139.514
"35","nc236",154.058017124921,144.678
"36","nc306",169.252038406458,156.933
"37","nc320",163.975273901248,167.446
"38","nc328",170.908067788581,166.691
"39","nc336",161.509690602274,154.452
"40","nc340",172.100266815027,168.744
"41","nc344",150.419018736923,172.691
"42","nc348",164.155382819021,161.587
"43","nd246",140.800987789479,127.905
"44","oh43e",146.652632835459,127.531
"45","oh7b",149.919344963795,173.351
"46","p39",116.840900603248,116.761
"47","r109b",148.244710519175,156.527
"48","r177",150.75894108188,165.213
"49","sc213r",167.722232409426,176.064
"50","sd40",143.278111380734,178.149
"51","sg18",141.100318839711,176.916
"52","tx303",168.995741798554,198.113
"53","tzi8",175.768168044491,184.968
"54","va22",152.84139588175,156.506
"55","w22rrstd",142.465610727675,142.84
"56","w64a",151.543818886627,144.898
"57","wd",136.520588127549,130.064
