"","taxa","s1","plant_height_BLUP.Peiffer_2014"
"1","a239",144.329691988461,141.403
"2","a6",166.531004885935,186.75
"3","a619",147.486498603448,155.824
"4","a634",153.986498884366,145.156
"5","a661",140.68638334222,147.194
"6","ab28a",165.332800047186,172.271
"7","b52",153.568968500358,170.445
"8","b57",153.146173376981,134.997
"9","b64",163.390279262583,123.984
"10","ch70130",149.531765757999,157.655
"11","ch9",146.10283947842,132.823
"12","cml10",180.796577863196,202.36
"13","cml254",175.601989732239,186.04
"14","cml264",175.327723153941,165.587
"15","cml277",175.875144087378,184.117
"16","cml281",172.530433772842,156.1
"17","cml321",171.244323901249,204.046
"18","cml38",172.534353941205,161.86
"19","cml45",174.025416738127,188.007
"20","cml61",177.993393658258,201.11
"21","cml92",169.676995557849,187.583
"22","d940y",159.748954341692,167.013
"23","f7",145.194574501382,102.772
"24","h105w",156.405682781022,146.112
"25","h91",155.707093615048,164.356
"26","h99",146.982725883275,119.729
"27","hp301",136.257439375806,157.156
"28","ia2132",137.151658355634,122.467
"29","ids28",146.187786976594,161.548
"30","ids91",123.765823347132,117.517
"31","k4",155.742154144713,167.854
"32","ki14",165.709156099853,185.537
"33","ky226",157.288952848571,161.52
"34","m37w",158.300344506189,164.499
"35","mo47",162.780951429583,126.663
"36","n192",159.617486336315,144.049
"37","nc262",152.292442912273,115.778
"38","nc290a",149.881163886474,142.123
"39","nc296",151.864644899718,171.825
"40","nc304",154.602827392935,108.603
"41","nc314",155.881940225183,153.815
"42","nc318",164.314489558185,169.586
"43","nc324",154.616040335338,159.125
"44","nc338",158.6326030541,161.77
"45","nc342",154.959662226151,166.561
"46","nc346",150.640545355419,165.449
"47","nc352",153.736645329883,168.4
"48","nc362",159.029936252302,160.078
"49","nc366",166.05110317775,174.074
"50","oh43e",144.789444879868,127.531
"51","oh603",155.098879845978,125.763
"52","pa91",162.795299825865,171.473
"53","r4",150.596074812512,168.866
"54","sd40",146.300578756215,178.149
"55","t232",163.09714169072,193.956
"56","w22",149.344260848547,140.969
"57","w22rrstd",148.466909335522,142.84
