"","taxa","s1","plant_height_BLUP.Peiffer_2014"
"1","4722",134.461985472126,162.867
"2","a239",148.210486378117,141.403
"3","b10",162.664654384195,161.709
"4","b115",154.716993462068,170.258
"5","b76",153.162533682519,145.843
"6","ci91b",160.09097103343,140.427
"7","cm7",143.739996078894,108.091
"8","cml10",176.405840335885,202.36
"9","cml11",177.222385489359,187.371
"10","cml14",175.684494815825,162
"11","cml228",169.722587596963,172.665
"12","cml238",174.869951745077,151.291
"13","cml247",177.291155792236,155.851
"14","cml258",179.110804762503,182.432
"15","cml277",178.186009696101,184.117
"16","cml332",186.612642316404,147.338
"17","cml333",171.479935662015,186.702
"18","cml77",162.336406053062,164.991
"19","cml92",170.056121988469,187.583
"20","f7",145.702123521158,102.772
"21","h84",158.500208899543,142.249
"22","hi27",164.711282252038,185.703
"23","hy",155.797802197506,141.275
"24","i137tn",160.774832585572,151.838
"25","ia5125",141.950445899234,102.538
"26","il14h",126.087746113596,159.44
"27","il677a",133.687217977635,131.171
"28","ki11",171.341980179686,152.626
"29","ki3",176.116714084613,145.07
"30","ky21",153.751974174454,164.764
"31","ky226",161.490979802568,161.52
"32","mo46",153.953554139646,158.62
"33","mog",161.130551344581,189.179
"34","ms153",146.954311090744,152.218
"35","mt42",141.935046183371,120.286
"36","n28ht",156.721705558829,160.438
"37","nc296a",166.08067946823,148.66
"38","nc298",159.526068619037,162.816
"39","nc328",169.026537213111,166.691
"40","nc33",158.620035313744,204.391
"41","nc342",144.614081169825,166.561
"42","nc364",156.138020035374,163.805
"43","os420",151.608147576678,168.325
"44","pa875",155.749483056554,153.588
"45","r109b",150.715825898623,156.527
"46","r168",145.37720694422,158.017
"47","r177",151.085874057789,165.213
"48","sa24",131.583303634393,152.355
"49","tx601",167.944455614555,199.819
"50","tzi16",169.912812572235,198.647
"51","u267y",162.531241730531,150.716
"52","va85",146.497303304079,161.486
"53","va99",162.800241805589,156.995
"54","w117ht",146.376044957781,109.001
"55","w22rrstd",142.810996690785,142.84
"56","w64a",156.80063098324,144.898
"57","wd",134.582760778501,130.064
