"","taxa","s1","protein_kernel_BLUP.Cook_2012"
"1","4226",14.1390494630448,14.27
"2","a554",14.1828920255595,16.162
"3","a556",14.0789865585779,12.921
"4","a634",14.1827431738897,15.48
"5","a661",14.2324645936559,15.502
"6","b109",13.829300564012,14.227
"7","b64",14.1570181119712,13.979
"8","b68",14.1429923428301,14.409
"9","b73",13.8625484473507,13.058
"10","b79",14.2361571844947,13.467
"11","ch70130",14.2093073647975,14.457
"12","ci31a",14.1824633943725,14.996
"13","ci91b",13.8029855559276,12.576
"14","cm105",14.0909874354646,13.239
"15","cm7",14.2697008859099,15.167
"16","cml261",13.6966292298136,14.094
"17","cml264",13.717995716085,14.778
"18","cml314",13.7624045032847,15.296
"19","cml332",13.5702430536276,13.762
"20","cml38",13.8495888827489,15.375
"21","d940y",14.1088197994142,14.913
"22","de1",13.8373830841271,13.514
"23","de2",13.8232424547569,12.254
"24","ga209",14.2400387757909,14.183
"25","ia2132",15.0436102967716,16.581
"26","ids69",13.6309349444732,12.636
"27","k64",13.4957049924055,12.296
"28","ki2021",13.7660728210058,14.909
"29","ki44",13.7394140908701,14.307
"30","ky226",13.9646568034358,14.763
"31","ky228",14.0471403569693,14.142
"32","mef156552",14.8318714444299,15.189
"33","mo47",14.0789581337837,13.256
"34","nc222",13.9899083814898,14.524
"35","nc262",13.037976130316,11.462
"36","nc294",13.7916968929025,13.089
"37","nc310",13.697345013562,13.641
"38","nc326",13.755108394251,13.668
"39","nc336",13.1389003408522,13.239
"40","nc344",13.1231815301948,12.212
"41","nc358",13.5742071950112,12.504
"42","nc360",13.3295927183373,13.301
"43","nc366",13.7990823560072,13.384
"44","oh40b",14.1321975446315,14.425
"45","oh43",14.1502288773801,13.244
"46","oh7b",13.8835789237189,14.81
"47","r168",13.9650371367724,15.33
"48","sc55",14.0750107500395,14.149
"49","sd40",13.96898872864,14.192
"50","tzi18",13.7008782398036,14.927
"51","va102",14.1536339585939,12.655
"52","va22",14.2144668966165,16.211
"53","w117ht",14.1268347011119,13.171
"54","w22",13.8506642260934,13.695
"55","yu796ns",13.9469583748364,13.19
