"","taxa","s1","protein_kernel_BLUP.Cook_2012"
"1","a634",14.1900167459223,15.48
"2","a654",14.5037614542244,15.396
"3","b109",13.6683360711829,14.227
"4","b115",14.1649826384602,14.547
"5","b2",14.1204472951499,17.46
"6","b52",14.2887394296651,14.023
"7","b64",14.2567656910548,13.979
"8","b76",13.8026106924945,14.091
"9","b97",14.2472089457299,12.338
"10","ch70130",14.2987303218297,14.457
"11","ci3a",14.1718043788442,13.538
"12","cm105",14.1451626141907,13.239
"13","cml10",13.9764435561036,13.631
"14","cml108",13.9709352064782,12.643
"15","cml157q",13.83708257092,12.077
"16","cml158q",13.6935023830222,12.999
"17","cml218",14.0159525281219,13.598
"18","cml238",13.835471241216,13.954
"19","cml264",13.9541969733332,14.778
"20","cml322",14.0111384698117,14.657
"21","cml328",13.9331623155898,15.169
"22","cml331",13.797188189343,13.017
"23","cml333",13.9506933770899,13.769
"24","cml341",13.6499018241711,14.685
"25","co125",14.2864007845694,15.322
"26","hy",13.9123742026111,13.417
"27","ids28",14.1177401516409,15.062
"28","ids69",13.695746772368,12.636
"29","ids91",13.7020089364999,13.755
"30","k4",14.0808828878473,13.327
"31","ki21",13.6220526858851,12.8
"32","mef156552",14.8513263849126,15.189
"33","mo18w",14.0790226049648,12.705
"34","mo1w",14.6871360215803,14.393
"35","mo44",14.3946956534285,13.203
"36","mp339",14.0834220302844,15.261
"37","nc260",14.1662653015687,14.127
"38","nc290a",12.6651590944961,12.207
"39","nc294",13.6639135162689,13.089
"40","nc320",13.902860118521,14.236
"41","nc33",14.0107666520794,16.179
"42","nc352",13.2583321663647,12.601
"43","nc354",13.5547170635986,14.217
"44","nc362",12.9031056813766,12.462
"45","nd246",14.4730730633849,15.23
"46","oh40b",14.088610576674,14.425
"47","sa24",13.9191413773678,12.651
"48","sc213r",13.2639617001287,14.367
"49","sc55",14.0375229038619,14.149
"50","va26",14.0289109897973,14.143
"51","va59",13.6541733013276,14.74
"52","va85",13.9865075678455,13.52
"53","vaw6",13.9734654842511,13.185
"54","w22",13.8612251461254,13.695
"55","wf9",14.8488149343536,13.685
