"","taxa","s1","protein_kernel_BLUP.Cook_2012"
"1","a239",14.2943586987471,12.853
"2","a6",13.8383766485901,14.081
"3","a634",14.108220735042,15.48
"4","a661",14.1736411743806,15.502
"5","a679",13.2786203193295,14.462
"6","a682",13.7322107772065,12.463
"7","ab28a",14.2892418512821,15.116
"8","b10",13.962983626734,13.308
"9","b115",14.1256216368004,14.547
"10","b164",14.1664202369002,13.056
"11","b68",14.1210980033255,14.409
"12","b79",14.2069063638184,13.467
"13","b97",14.4711388657148,12.338
"14","ci90c",14.2349956191838,13.423
"15","cml103",13.8583345982869,13.265
"16","cml287",13.8369613048678,14.305
"17","cml321",13.7145916965429,14.056
"18","cml52",13.8463802108924,14.176
"19","cml61",13.7522287816989,14.17
"20","e2558w",13.6645243728044,13.161
"21","f44",13.9744026183286,15.109
"22","f6",14.0330201611967,15.323
"23","ga209",14.2271276842323,14.183
"24","h105w",13.9684371083622,14.059
"25","h84",13.8287696954435,14.413
"26","hi27",13.9458785118346,14.925
"27","hy",14.0954366377732,13.417
"28","i29",14.2532576205211,14.342
"29","ids28",13.9766048645658,15.062
"30","il101",15.1833862665883,14.943
"31","k64",13.5271878633062,12.296
"32","ki14",13.7971846469682,14.149
"33","ki2021",13.6682103451203,14.909
"34","l317",14.2651220714626,13.553
"35","mo45",13.9721465970039,13.09
"36","n192",13.8188327082061,14.928
"37","nc222",14.0181740252753,14.524
"38","nc238",13.443014231189,12.817
"39","nc258",12.9494333802855,12.637
"40","nc320",13.8891176727352,14.236
"41","nc324",13.8739252106685,12.847
"42","nc340",13.767160331591,13.662
"43","nc360",13.2792527844229,13.301
"44","nc362",13.0485705202428,12.462
"45","nc364",13.0696504270773,12.672
"46","nc366",13.7313199719451,13.384
"47","oh603",13.9276748427735,14.882
"48","p39",15.2803902753845,17.172
"49","r177",14.3021760844701,13.125
"50","sd44",14.2627435376272,15.653
"51","tzi18",13.66715265338,14.927
"52","tzi8",13.934192538203,15.334
"53","va59",13.6634540439451,14.74
"54","w182b",14.2772927311209,14.694
"55","yu796ns",13.9899385840077,13.19
