"","taxa","s1","protein_kernel_BLUP.Cook_2012"
"1","a188",14.2160522179278,14.572
"2","a239",14.2950879167977,12.853
"3","a619",14.0113614739488,13.858
"4","a632",14.2955917951137,13.939
"5","a635",14.2426920203045,13.666
"6","a679",13.2236568459132,14.462
"7","b10",13.9084308540815,13.308
"8","b64",14.3011279292299,13.979
"9","b68",14.087822109404,14.409
"10","b76",13.832833021917,14.091
"11","ci1872",14.0354064743884,13.639
"12","ci21e",13.9246114816376,13.203
"13","cml103",13.7900126343922,13.265
"14","cml11",13.5742926305931,14.026
"15","cml264",13.7421508599605,14.778
"16","cml314",13.7615293004841,15.296
"17","cml328",13.8946763054443,15.169
"18","cml332",13.5779844175857,13.762
"19","cml61",13.7139397214768,14.17
"20","cml92",13.9585369465591,13.386
"21","de1",13.0628581314548,13.514
"22","de811",13.9552530647822,15.733
"23","f6",14.0070371785675,15.323
"24","i137tn",13.9192015072154,14.632
"25","ids69",13.6334433468096,12.636
"26","il14h",15.3034869190978,16.264
"27","il677a",15.0024281404072,13.289
"28","k148",14.0665690593402,15.064
"29","m162w",13.3887005835358,12.742
"30","mo18w",13.877733247337,12.705
"31","mo24w",13.9972122958318,12.602
"32","mo44",14.4822682486802,13.203
"33","mog",13.8768492524606,14.279
"34","nc238",13.4536392636664,12.817
"35","nc260",14.1033103956082,14.127
"36","nc264",14.1994358912761,13.641
"37","nc290a",12.6132287377129,12.207
"38","nc298",13.4886797340263,14.421
"39","nc300",13.7415842459381,13.962
"40","nc302",13.651786252068,12.129
"41","nc324",13.8341057859877,12.847
"42","nc326",13.5751719793555,13.668
"43","nc340",13.7207561947017,13.662
"44","nc342",12.864551714291,13.378
"45","nc364",12.8385899917408,12.672
"46","nc366",13.8419125545919,13.384
"47","oh603",13.9008821762253,14.882
"48","pa880",13.8677405243256,14.757
"49","sc55",14.0972876031699,14.149
"50","tzi11",13.7704775340173,12.691
"51","tzi18",13.7862960442262,14.927
"52","tzi9",13.8745308192191,12.535
"53","u267y",13.9323951853874,13.489
"54","va35",14.2425757656121,12.961
"55","w22",13.8093357576984,13.695
