"","taxa","s1","protein_kernel_BLUP.Cook_2012"
"1","a239",14.2043866207496,12.853
"2","a635",14.3170227395854,13.666
"3","a654",14.3973114593042,15.396
"4","a661",14.1387425433044,15.502
"5","b103",14.018848795489,13.963
"6","b105",13.8918719145318,14.184
"7","b109",13.823653341643,14.227
"8","b37",14.0912037058846,13.424
"9","b73",13.7572215496203,13.058
"10","b75",14.174697824396,15.51
"11","ci1872",14.092851459931,13.639
"12","ci91b",13.8415230324137,12.576
"13","cm105",14.1841227715741,13.239
"14","cm7",14.3126328725012,15.167
"15","cml103",13.9503628779725,13.265
"16","cml154q",13.8219258047579,12.498
"17","cml157q",13.9622356288047,12.077
"18","cml281",13.9978008079901,13.866
"19","cml61",13.9810109065412,14.17
"20","cml69",14.0606792334235,13.578
"21","cml77",14.0839641388171,14.122
"22","co106",14.0543198995305,13.135
"23","co125",14.1955879214636,15.322
"24","d940y",14.1231375071782,14.913
"25","e2558w",13.6686602342164,13.161
"26","gt112",13.9017698502267,11.649
"27","ia2132",15.016988235354,16.581
"28","k148",14.0020383476313,15.064
"29","ki21",13.8661659662746,12.8
"30","ki3",14.3173900015308,13.139
"31","mef156552",14.8260222917389,15.189
"32","mo45",14.0476189787787,13.09
"33","mo46",14.044901623405,14.55
"34","ms153",14.2241570455849,13.795
"35","n7a",13.9836027574889,13.825
"36","nc260",13.5956791130165,14.127
"37","nc262",12.952589946312,11.462
"38","nc294",13.8322483072253,13.089
"39","nc318",14.040930569052,14.106
"40","nc324",13.9484571052303,12.847
"41","nc348",13.7483063254359,13.698
"42","nc360",13.3431126888399,13.301
"43","nc366",13.9938651202871,13.384
"44","pa762",13.9205653772965,14.322
"45","pa875",14.0056421373372,14.335
"46","pa880",13.8717952921325,14.757
"47","r168",13.9871468004748,15.33
"48","sa24",13.7875812349398,12.651
"49","t232",13.9746420398026,13.399
"50","t8",14.1111075611708,14.31
"51","tzi16",13.6378645137588,12.502
"52","tzi18",13.9218495314318,14.927
"53","tzi9",13.9670194045954,12.535
"54","u267y",14.012073661912,13.489
"55","va99",14.8102813068706,13.371
