"","taxa","s1","protein_kernel_BLUP.Cook_2012"
"1","4226",14.1487775331232,14.27
"2","4722",13.5420004127937,14.102
"3","a556",13.9853246257997,12.921
"4","b10",13.7025111114442,13.308
"5","b105",13.7434571753552,14.184
"6","b109",13.4698564056378,14.227
"7","b14a",13.934947743454,14.685
"8","b37",14.2146558137059,13.424
"9","b46",13.6163362111809,14.465
"10","b57",14.1982065923656,13.983
"11","b64",14.1142367004705,13.979
"12","b68",13.9925970968599,14.409
"13","b73htrhm",13.5387239664468,13.981
"14","b75",14.1086434415652,15.51
"15","ch9",14.2079409678369,14.071
"16","ci21e",13.9244465764372,13.203
"17","ci64",13.59084793058,12.9
"18","cml103",13.8700999261148,13.265
"19","cml158q",13.6524800137278,12.999
"20","cml264",13.8442698537129,14.778
"21","cml314",13.8371549080382,15.296
"22","cml333",13.8827862875488,13.769
"23","d940y",14.1050013425238,14.913
"24","h91",13.8702899426771,14.594
"25","i205",14.148688376292,14.221
"26","k64",13.7693768519317,12.296
"27","ki21",13.6783969281696,12.8
"28","ki3",14.2864670835861,13.139
"29","ky226",13.9361334187923,14.763
"30","mo18w",13.9579090085235,12.705
"31","mo45",13.9910769773632,13.09
"32","ms1334",14.2076897202827,15.022
"33","n192",13.6770401268009,14.928
"34","nc232",13.9027507295824,14.096
"35","nc250",14.3532428079685,13.731
"36","nc258",12.9758724986291,12.637
"37","nc294",13.7916747517346,13.089
"38","nc310",13.4874348045318,13.641
"39","nc318",13.932685284206,14.106
"40","nc324",13.9956453589466,12.847
"41","nc328",13.4715289846692,13.051
"42","nc340",13.8607316506774,13.662
"43","nc354",13.5484123191516,14.217
"44","nc362",12.9230262042392,12.462
"45","nc368",13.790397258015,14.334
"46","os420",14.1454810616577,15.342
"47","pa875",14.0195640669109,14.335
"48","r168",14.0939983849644,15.33
"49","sc357",14.1574689277577,14.551
"50","sc55",14.1458238687026,14.149
"51","sd40",13.8546971738909,14.192
"52","sg1533",13.9007133458969,14.117
"53","tzi16",13.6899320023783,12.502
"54","tzi25",13.7385584744231,12.746
"55","w64a",13.9706402935201,14.035
