"","taxa","s1","southern_leaf_blight_BLUP.Kump_2011"
"1","a239",6.41920677778065,7.834416667
"2","a556",6.72692453228652,6.617256667
"3","a659",6.27356594188171,4.410416667
"4","a661",6.07699812721684,7.110616667
"5","a680",6.58551767082291,6.238566667
"6","a682",6.63360478110609,7.378766667
"7","ab28a",6.5166373909644,6.306766667
"8","b64",6.48174454349513,6.037566667
"9","b77",6.47246493801666,6.402316667
"10","b84",5.36628753490255,5.778866667
"11","ci66",6.35954894007306,6.862296667
"12","cm174",5.5109202030762,5.578916667
"13","cm37",5.68868470836345,3.155416667
"14","cml264",7.38726578313664,7.539066667
"15","cml333",7.40058816154247,7.161516667
"16","cml38",7.31776026869828,6.597896667
"17","cml45",7.33068550213131,7.331816667
"18","cmv3",5.83066491519519,3.445416667
"19","e2558w",6.81613245098212,5.107416667
"20","hi27",7.060851962033,7.214716667
"21","i205",6.56939018120546,6.285366667
"22","ia5125",6.47130735945256,4.469416667
"23","il101",6.07255918244589,6.529616667
"24","il677a",6.29929079085431,4.890916667
"25","ki21",6.96446095570072,7.790166667
"26","ki3",7.4986710055263,7.516316667
"27","mo17",6.64633449717221,8.041416667
"28","mog",6.52200049406101,6.775486667
"29","ms71",6.63679783476542,5.958866667
"30","n192",6.11450313442176,4.877416667
"31","n6",6.38250363526222,6.144616667
"32","nc230",6.33147071478242,6.519316667
"33","nc304",7.6076018491994,7.771416667
"34","nc310",6.51879903124394,7.122866667
"35","nc314",7.26902558912714,7.659716667
"36","nc318",7.10527658500489,6.981766667
"37","nc326",6.17879615811439,6.114366667
"38","nc336",7.31955877505096,7.941416667
"39","nc344",7.17817596826808,7.815416667
"40","nc358",7.27060496222029,7.302066667
"41","nc368",6.97552781888351,6.965016667
"42","oh43",6.95146252884494,7.491816667
"43","os420",6.19429452784571,6.151216667
"44","p39",6.09716948875066,5.145416667
"45","r109b",6.49199619537506,5.888766667
"46","r177",6.57166469603523,7.275366667
"47","r229",6.70013810547681,6.244266667
"48","sc357",6.60841477679933,7.084766667
"49","sc55",6.77238383139991,7.074516667
"50","t8",7.3026656522275,7.814416667
"51","tx303",6.83436545004822,6.435066667
"52","tzi8",7.39647807407844,7.259066667
"53","va14",6.84082378362148,6.921581667
"54","va22",6.92026710312945,6.900316667
"55","va85",6.78240290820907,7.702616667
"56","w22",6.1403795381489,5.524916667
"57","wd",5.94897122488135,5.904166667
