"","taxa","s1","southern_leaf_blight_BLUP.Kump_2011"
"1","4722",6.53191665557096,7.068116667
"2","a239",6.16170676988256,7.834416667
"3","b10",6.24300889864094,6.025366667
"4","b115",6.27128756369517,6.648261667
"5","b76",6.68263402111788,6.584951667
"6","ci91b",6.94250757678932,5.649516667
"7","cm7",6.10459806897791,5.569916667
"8","cml10",7.20383879555926,7.205616667
"9","cml11",7.31546687536806,7.503516667
"10","cml14",7.30406584083249,7.309616667
"11","cml228",7.35351530965081,7.433416667
"12","cml238",7.26831263324222,7.214866667
"13","cml247",7.40185979921905,7.805416667
"14","cml258",7.23950575156611,7.510566667
"15","cml277",7.21432879465505,7.723016667
"16","cml332",7.24825402567582,7.378516667
"17","cml333",7.28909268716596,7.161516667
"18","cml77",7.07663654819396,6.869416667
"19","cml92",7.03499031610888,7.615516667
"20","f7",6.37714106594497,2.985416667
"21","h84",6.56776677457939,7.149066667
"22","hi27",7.01693220925323,7.214716667
"23","hy",6.11696389337425,5.797666667
"24","i137tn",6.82636798421476,7.281266667
"25","ia5125",6.29999748998669,4.469416667
"26","il14h",6.26929922484086,6.442616667
"27","il677a",6.27718062431413,4.890916667
"28","ki11",7.45952512454369,7.641266667
"29","ki3",7.58507547718784,7.516316667
"30","ky21",6.37017908402688,6.707866667
"31","ky226",6.82097454875019,6.375566667
"32","mo46",6.76277206223818,4.250916667
"33","mog",6.5847420910366,6.775486667
"34","ms153",6.32310087053582,7.110516667
"35","mt42",6.09688257092989,2.830416667
"36","n28ht",6.23866238977357,4.067416667
"37","nc296a",7.42088842279464,7.384866667
"38","nc298",7.41530517015376,7.664366667
"39","nc328",6.62450052389099,7.346666667
"40","nc33",6.40497576279489,7.090666667
"41","nc342",7.32754695095465,7.341966667
"42","nc364",7.26748767307667,7.522466667
"43","os420",6.35810687040079,6.151216667
"44","pa875",6.53699962848665,7.313866667
"45","r109b",6.30907434810637,5.888766667
"46","r168",6.18346617803833,7.077716667
"47","r177",6.50123811718273,7.275366667
"48","sa24",6.68754327725317,6.883666667
"49","tx601",7.1981182791222,7.329266667
"50","tzi16",6.91498807652659,7.510716667
"51","u267y",6.71844441822403,5.460916667
"52","va85",6.65875579563475,7.702616667
"53","va99",6.13332460929433,5.500416667
"54","w117ht",6.35688771020345,5.542416667
"55","w22rrstd",5.73267378860791,6.044666667
"56","w64a",6.15497709105404,5.659666667
"57","wd",6.05164023692666,5.904166667
