"","taxa","s1","southern_leaf_blight_BLUP.Kump_2011"
"1","a6",7.21346250334361,7.399866667
"2","a619",7.1838342437047,6.946166667
"3","a635",5.94785325436878,5.968616667
"4","a654",5.81004018472264,5.226916667
"5","b109",6.09475467348608,7.127816667
"6","b46",6.0852672894501,6.182816667
"7","ci31a",6.48215152008317,6.967766667
"8","ci64",6.86316776610988,7.244716667
"9","ci7",6.72034080744024,6.866716667
"10","ci90c",7.03121614582348,7.473316667
"11","cm37",4.84346408661205,3.155416667
"12","cml14",7.26062346498024,7.309616667
"13","cml154q",7.16509324334835,7.789166667
"14","cml220",7.05919792291331,7.509366667
"15","cml247",7.29161328825434,7.805416667
"16","cml261",7.20779163492927,7.230566667
"17","cml311",7.04763756878448,7.599916667
"18","cml314",7.31624491006359,7.396216667
"19","cml321",7.22063806262748,6.899016667
"20","cml331",7.13454956478557,7.374416667
"21","cml333",7.19042784731159,7.161516667
"22","cml52",7.20025236037925,7.643266667
"23","cml69",7.24040288616651,7.191966667
"24","cml91",7.01748552577106,6.601086667
"25","de1",6.64553922995345,6.711311667
"26","h91",6.00223473852606,6.061816667
"27","h95",7.19859844514723,7.296616667
"28","ki14",7.26002260961993,7.748916667
"29","ki2021",7.36624231334332,7.685916667
"30","ki21",7.25793597508976,7.790166667
"31","ki44",7.17383269277877,6.983816667
"32","ky228",6.42770232057364,6.132716667
"33","l578",6.93302803313795,6.518616667
"34","m162w",6.32980604299559,7.422816667
"35","mog",6.49094476575274,6.775486667
"36","n28ht",6.10954098985618,4.067416667
"37","n6",6.21940726928016,6.144616667
"38","nc236",6.47375303828752,7.524416667
"39","nc296a",7.43030375309588,7.384866667
"40","nc320",7.1166398549934,7.100566667
"41","nc364",7.25207295899029,7.522466667
"42","nd246",5.9638060045161,5.641166667
"43","oh43e",7.07418571624753,7.333066667
"44","oh603",6.77336862801106,6.666221667
"45","os420",6.14386354052707,6.151216667
"46","pa762",7.20207582246615,7.369216667
"47","pa875",6.56044314215304,7.313866667
"48","r177",6.53891848970968,7.275366667
"49","sg18",5.85975634584691,6.763851667
"50","t232",6.4267159191674,7.263166667
"51","t234",6.47864104991325,6.759256667
"52","tzi9",7.11052073542622,7.150216667
"53","va22",7.06822248309075,6.900316667
"54","va85",6.680012764068,7.702616667
"55","w22",6.12400800986368,5.524916667
"56","w64a",5.93137251998566,5.659666667
"57","wf9",5.78552460643769,5.047916667
