"","taxa","s1","southern_leaf_blight_BLUP.Kump_2011"
"1","a188",6.37856072011857,4.905416667
"2","a4415",6.68441153665637,6.865766667
"3","a679",7.15598860776903,7.500966667
"4","b103",6.62639239666261,7.431416667
"5","b2",6.39535804400728,6.605881667
"6","b46",5.96727888882627,6.182816667
"7","b52",6.12666001051698,6.975916667
"8","b84",5.36598339515861,5.778866667
"9","b97",6.57904521382258,6.248266667
"10","c123",7.07519003087869,5.489416667
"11","ch9",6.11073117699751,5.123416667
"12","ci28a",6.62020991856672,7.330416667
"13","ci31a",6.62919682118426,6.967766667
"14","cml322",7.33609752433323,6.918616667
"15","cml328",7.13336328842414,6.860416667
"16","cml38",7.32644471586945,6.597896667
"17","cml61",7.2734450449405,8.190416667
"18","co106",6.49304735616787,5.492916667
"19","co255",5.96472075154742,6.203466667
"20","d940y",7.08771425915003,7.501766667
"21","de1",6.59248550588592,6.711311667
"22","gt112",6.86412869582034,6.545346667
"23","h105w",5.92151129924384,6.346666667
"24","h84",6.49322223157947,7.149066667
"25","hi27",6.9704130998174,7.214716667
"26","hp301",6.79904352770208,5.406916667
"27","ids28",6.44160262933466,6.098516667
"28","ids69",6.85268254172174,7.234616667
"29","il677a",6.11551025271782,4.890916667
"30","k55",6.48068380753205,5.447816667
"31","ky226",6.71962157482862,6.375566667
"32","m14",6.77472681049765,6.782226667
"33","mef156552",6.00379735692266,7.053166667
"34","mo46",6.72901281882995,4.250916667
"35","mo47",6.84346877635638,5.955816667
"36","mt42",6.15421399804607,2.830416667
"37","nc250",7.08434424220755,8.291916667
"38","nc264",6.97241395674081,7.462816667
"39","nc296",7.3465234044532,7.402516667
"40","nc298",7.33015692616839,7.664366667
"41","nc300",7.49434739310604,7.293916667
"42","nc304",7.54496265720752,7.771416667
"43","nc328",6.61692697553771,7.346666667
"44","nc33",6.54051586120329,7.090666667
"45","nc346",7.31336714657268,7.528866667
"46","nc348",7.30297668591467,7.447266667
"47","nc364",7.27721132491912,7.522466667
"48","nd246",6.02519769781904,5.641166667
"49","os420",6.15988491816795,6.151216667
"50","pa880",6.60313453067872,7.119516667
"51","tx601",7.22544015820988,7.329266667
"52","tzi10",7.19080352264272,7.184666667
"53","tzi16",6.38029688705215,7.510716667
"54","tzi9",7.20408698689865,7.150216667
"55","u267y",6.63915038837217,5.460916667
"56","va22",7.04643688041874,6.900316667
"57","vaw6",6.65977040101023,6.526406667
