"","taxa","s1","southern_leaf_blight_BLUP.Kump_2011"
"1","3811",6.27013586123734,6.687976667
"2","a554",5.79338321452614,5.077916667
"3","a661",5.97827127777636,7.110616667
"4","a682",7.10512961123949,7.378766667
"5","ab28a",6.51976421657041,6.306766667
"6","b164",6.20617099846078,7.361666667
"7","b2",6.35573441131412,6.605881667
"8","b46",5.83083462784437,6.182816667
"9","b73htrhm",6.09181974738899,6.857066667
"10","b77",6.5290712343916,6.402316667
"11","b84",5.32037080018695,5.778866667
"12","ci28a",6.59363116535864,7.330416667
"13","cm174",5.14051099579957,5.578916667
"14","cm7",6.09797181451584,5.569916667
"15","cml154q",7.14640123072025,7.789166667
"16","cml228",7.2940028160538,7.433416667
"17","cml238",7.2131601674968,7.214866667
"18","cml247",7.36382186054465,7.805416667
"19","cml277",7.30826750255592,7.723016667
"20","cml341",7.37659883428364,6.212716667
"21","cml91",7.02862794762114,6.601086667
"22","cml92",7.16320140277953,7.615516667
"23","e2558w",6.77804558624775,5.107416667
"24","f2834t",6.85521105243455,7.531966667
"25","f44",6.73383105403047,6.619331667
"26","h49",5.67019729488485,5.902516667
"27","h99",6.82642585658009,7.170266667
"28","hi27",6.90241684547652,7.214716667
"29","i137tn",6.78782902536391,7.281266667
"30","ki14",7.30519687212509,7.748916667
"31","mef156552",5.95573827005554,7.053166667
"32","mp339",6.76131424273158,6.591251667
"33","mt42",6.00413360398569,2.830416667
"34","nc222",6.6892441918675,6.021816667
"35","nc230",6.42188223040751,6.519316667
"36","nc232",6.39873715611807,6.460706667
"37","nc290a",7.24570373264015,7.281916667
"38","nc294",7.11531621258243,6.682341667
"39","nc296",7.49939867889726,7.402516667
"40","nc296a",7.48716974483585,7.384866667
"41","nc300",7.48887647548776,7.293916667
"42","nc304",7.45256021009282,7.771416667
"43","nc310",6.34884901136069,7.122866667
"44","nc318",7.12272148589315,6.981766667
"45","nc320",7.18264663525853,7.100566667
"46","nc326",5.9745203840609,6.114366667
"47","nc33",6.46797904852065,7.090666667
"48","nc356",7.26188026795499,7.280616667
"49","sa24",6.85554203042486,6.883666667
"50","sd40",6.74234542882338,7.033666667
"51","sg18",5.77108535681067,6.763851667
"52","va17",6.60653394386946,7.284366667
"53","va22",6.92211977859466,6.900316667
"54","va35",7.4932932390676,7.197816667
"55","va99",6.0644697163198,5.500416667
"56","w117ht",6.25915725138543,5.542416667
"57","w22rrstd",5.78087773586981,6.044666667
