"","taxa","s1","southern_leaf_blight_BLUP.Kump_2011"
"1","3811",6.17266412862376,6.687976667
"2","4226",6.20061671012501,6.296616667
"3","a188",6.24991372488517,4.905416667
"4","a239",6.06569566816402,7.834416667
"5","a4415",6.66673963538259,6.865766667
"6","b52",6.12372332001972,6.975916667
"7","b57",6.40752473089449,6.115266667
"8","b73htrhm",6.22097544642259,6.857066667
"9","b77",6.50247907481054,6.402316667
"10","b97",6.38448155454223,6.248266667
"11","ci21e",6.35404069134417,6.409916667
"12","ci31a",6.59421986280593,6.967766667
"13","cml218",7.23574908993884,7.137716667
"14","cml261",7.3083787870871,7.230566667
"15","cml277",7.32059616929233,7.723016667
"16","cml341",7.35930481122481,6.212716667
"17","cml45",7.32453638077586,7.331816667
"18","cml77",7.09878189731761,6.869416667
"19","cmv3",5.20921458938491,3.445416667
"20","co106",6.37076294712569,5.492916667
"21","de2",6.68182673907513,6.396616667
"22","ep1",6.28366632095772,7.865416667
"23","h84",6.64157301029945,7.149066667
"24","hp301",6.81094908882295,5.406916667
"25","k64",6.69536495605636,7.196516667
"26","ki2021",7.46946401449427,7.685916667
"27","ki43",7.29741753122974,7.358316667
"28","mo18w",6.75170662511652,7.193616667
"29","mo24w",6.62907112717461,6.218966667
"30","mo45",6.58605928960814,6.981416667
"31","mo46",6.5581377242306,4.250916667
"32","mog",6.58613863740946,6.775486667
"33","ms153",6.21373767877235,7.110516667
"34","nc232",6.44590063291755,6.460706667
"35","nc236",6.49278899180068,7.524416667
"36","nc306",6.87060820087245,7.285066667
"37","nc320",7.09025944487345,7.100566667
"38","nc328",6.44525170235942,7.346666667
"39","nc336",7.34218497991489,7.941416667
"40","nc340",7.30142869518841,7.500516667
"41","nc344",7.2276800077183,7.815416667
"42","nc348",7.4330529302109,7.447266667
"43","nd246",5.943651170132,5.641166667
"44","oh43e",6.96322200426977,7.333066667
"45","oh7b",5.57056063641731,6.087766667
"46","p39",5.55340757691745,5.145416667
"47","r109b",6.25133803310329,5.888766667
"48","r177",6.49253978198364,7.275366667
"49","sc213r",6.6522332728985,6.818466667
"50","sd40",6.83209516028757,7.033666667
"51","sg18",6.50142171524437,6.763851667
"52","tx303",6.80925827675313,6.435066667
"53","tzi8",7.30436332530955,7.259066667
"54","va22",6.99321195862282,6.900316667
"55","w22rrstd",5.79418957153798,6.044666667
"56","w64a",5.85039374173272,5.659666667
"57","wd",6.07586738071038,5.904166667
