"","taxa","s1","southern_leaf_blight_BLUP.Kump_2011"
"1","4226",6.12509309355463,6.296616667
"2","a214n",6.66339500581147,6.912016667
"3","a556",6.73227640325922,6.617256667
"4","a632",5.91978997628788,5.705966667
"5","a654",5.6311572536039,5.226916667
"6","a680",6.59099394077304,6.238566667
"7","b14a",5.94972908626529,5.974916667
"8","b37",6.97424396851478,6.405316667
"9","b46",5.95687762408207,6.182816667
"10","b52",6.14711048192563,6.975916667
"11","b77",6.3298972203031,6.402316667
"12","c103",7.19011265677484,7.773716667
"13","ch70130",6.29124574383097,7.369866667
"14","ci31a",6.42578563106321,6.967766667
"15","ci66",6.31380309335219,6.862296667
"16","cm7",5.87158114254865,5.569916667
"17","cml157q",7.51032426472892,7.327616667
"18","cml238",7.25593657988901,7.214866667
"19","cml254",7.33806852240115,7.220066667
"20","cml258",7.21213677924189,7.510566667
"21","cml264",7.20807989740245,7.539066667
"22","cml287",7.26825485371985,7.357016667
"23","cml322",7.32180069295497,6.918616667
"24","cml341",7.42891217513721,6.212716667
"25","cml45",7.4115761819502,7.331816667
"26","cml61",7.27924236202681,8.190416667
"27","cml91",7.07312416482977,6.601086667
"28","ep1",6.14247159993479,7.865416667
"29","f2834t",6.73199456451953,7.531966667
"30","f6",6.62279824187153,6.071966667
"31","h91",6.04883262460713,6.061816667
"32","ia2132",5.50031567740982,6.821421667
"33","ids28",6.38422405276281,6.098516667
"34","il14h",5.49390035849642,6.442616667
"35","k64",6.68247184192799,7.196516667
"36","ki2021",7.49046462664875,7.685916667
"37","ki3",7.46379287303509,7.516316667
"38","mef156552",5.79235479348378,7.053166667
"39","nc232",6.44737238912333,6.460706667
"40","nc264",6.76604852011815,7.462816667
"41","nc300",7.48349045095155,7.293916667
"42","nc314",7.22299694777011,7.659716667
"43","nc326",6.2987312015039,6.114366667
"44","nc33",6.36742567730079,7.090666667
"45","oh40b",7.1089560845322,6.308016667
"46","pa762",7.47919017085946,7.369216667
"47","r109b",6.31494218628405,5.888766667
"48","sc357",6.60900159782784,7.084766667
"49","sd40",6.79161547695746,7.033666667
"50","sg1533",6.44450827857684,6.408816667
"51","tx601",7.27133753661528,7.329266667
"52","tzi18",7.31449400735219,7.412216667
"53","tzi9",7.24385726709989,7.150216667
"54","va22",7.12195845316771,6.900316667
"55","w153r",6.40593475577377,6.713191667
"56","w22",6.11341687317462,5.524916667
"57","wf9",5.64176430926495,5.047916667
