"","taxa","s1","starch_kernel_BLUP.Cook_2012"
"1","a188",66.2788968776546,65.813
"2","a239",66.3808792860246,68.636
"3","a619",67.0401406716283,65.947
"4","a632",65.3882903660488,66.34
"5","a635",66.3278557803658,68.811
"6","a679",69.0885277236536,68.822
"7","b10",66.9036647798058,65.48
"8","b64",65.7504509536283,68.451
"9","b68",66.1709832746908,66.259
"10","b76",65.0354094469083,62.712
"11","ci1872",66.6356530656065,65.027
"12","ci21e",66.2939923251327,68.918
"13","cml103",66.3591846861932,68.865
"14","cml11",65.7500235854078,66.518
"15","cml264",65.968183828572,64.242
"16","cml314",66.0251735058641,66.795
"17","cml328",66.0624110583189,63.998
"18","cml332",66.7567891439798,65.069
"19","cml61",66.0589611867677,64.705
"20","cml92",66.2990486929411,66.583
"21","de1",67.340973075701,66.641
"22","de811",66.0248243796788,62.675
"23","f6",66.0875458562583,65.848
"24","i137tn",66.3209168023673,66.767
"25","ids69",63.8478581591321,66.5
"26","il14h",64.3511854017772,63.883
"27","il677a",64.6121439207906,65.925
"28","k148",66.3635109014594,66.266
"29","m162w",67.5704922940536,67.633
"30","mo18w",66.0318715418135,67.605
"31","mo24w",66.4334742109071,66.614
"32","mo44",65.9023693299028,67.571
"33","mog",66.6607536629423,65.726
"34","nc238",66.6846573614968,69.141
"35","nc260",66.2742649666924,65.729
"36","nc264",66.4596820006285,68.732
"37","nc290a",67.6146217030674,67.322
"38","nc298",66.5949820733375,66.156
"39","nc300",66.1289166568251,65.779
"40","nc302",66.7865933234974,68.891
"41","nc324",67.2389906439437,69.702
"42","nc326",68.4127264307777,67.921
"43","nc340",66.2143442418448,63.587
"44","nc342",67.1994448705606,66.159
"45","nc364",68.1865606444484,69.588
"46","nc366",66.3126241928702,68.787
"47","oh603",66.5033666583563,68.1
"48","pa880",66.7153990291893,64.368
"49","sc55",66.1095688033307,67.747
"50","tzi11",66.1075893397151,69.527
"51","tzi18",66.0646403116179,65.313
"52","tzi9",66.0931666408384,67.288
"53","u267y",66.6621669571398,64.818
"54","va35",66.0527668627591,69.546
"55","w22",67.7949354171365,68.846
