"","taxa","s1","starch_kernel_BLUP.Cook_2012"
"1","4722",64.9216859309827,62.495
"2","a6",65.8594408427711,64.346
"3","a635",66.5739112900228,68.811
"4","b14a",66.7286874925677,64.794
"5","b77",66.2768722548465,67.115
"6","b84",67.6547458417153,67.067
"7","ci64",67.6668920646087,67.141
"8","cm174",67.6116037304827,68.337
"9","cml11",65.7201656830035,66.518
"10","cml157q",66.1774776605075,65.574
"11","cml158q",66.4541950875102,65.594
"12","cml220",66.0017441084031,66.539
"13","cml247",65.7993929251172,63.259
"14","cml261",66.3055798927094,66.683
"15","cml277",65.8427875270538,67.473
"16","cml311",66.0352734780427,64.566
"17","cml323",66.1551407789599,67.562
"18","cml45",65.9656121631108,66.961
"19","co255",65.1461253608174,63.171
"20","de2",66.763487819224,67.785
"21","de3",66.0655037417666,67.197
"22","ga209",66.332173331333,68.4
"23","gt112",67.2313560672312,67.611
"24","hy",67.1216186984947,66.325
"25","ids69",63.7787182383372,66.5
"26","ki3",65.2942339050949,63.891
"27","ki43",65.8314772074435,63.84
"28","ki44",66.0632769205343,64.509
"29","ky228",66.4826669118,66.761
"30","m37w",64.4116107249019,67.58
"31","ms71",66.9138746659489,65.167
"32","n192",68.0805158194085,67.715
"33","nc304",66.8811047549346,64.943
"34","nc318",67.1277763168998,66.464
"35","nc348",66.8785125778957,65.229
"36","nc350",67.7520963767514,66.807
"37","nc364",68.0531775869411,69.588
"38","nc368",67.1309849442759,66.178
"39","nd246",66.0575844152222,66.643
"40","oh43e",67.0777233483886,65.064
"41","os420",66.6235263567301,63.623
"42","r177",66.9572142595572,68.964
"43","r229",68.2501688381422,68.367
"44","sa24",64.8526952505729,68.172
"45","sc213r",66.9948740255524,64.497
"46","sc357",66.4543619328428,62.913
"47","t8",66.8741327303322,65.571
"48","tzi10",66.0070602858079,66.625
"49","tzi16",66.5580918351273,69.865
"50","tzi18",66.2536336541823,65.313
"51","tzi9",65.9838702726171,67.288
"52","va59",67.1637798825274,67.127
"53","va85",66.6568362563754,66.552
"54","vaw6",66.7653076106125,67.825
"55","w22",67.8470015095068,68.846
