"","taxa","s1","starch_kernel_BLUP.Cook_2012"
"1","4226",66.3784327892622,67.211
"2","a214n",66.2618891931569,66.771
"3","a6",65.7591956243092,64.346
"4","a682",66.9328941961918,66.602
"5","b164",66.4520648447587,68.183
"6","b46",67.1390529617255,66.14
"7","b52",66.2331717609522,66.125
"8","b79",66.5738426827664,68.423
"9","ci64",67.6430105156224,67.141
"10","ci90c",66.8041299479525,67.332
"11","cm7",66.2752757656502,67.425
"12","cml10",66.118434087131,64.366
"13","cml108",66.3073720779129,65.881
"14","cml220",65.7800313623622,66.539
"15","cml258",66.2550524919716,67.431
"16","cml264",66.0681640317921,64.242
"17","cml287",66.0174664558752,65.923
"18","cml321",65.9548047548684,65.114
"19","cml38",66.0404798459954,62.377
"20","cml52",65.8434759944139,67.279
"21","co125",66.1747541401063,66.059
"22","co255",65.1921598316671,63.171
"23","f2834t",66.4665674034881,67.105
"24","ga209",66.2572038383034,68.4
"25","h91",66.5992582335392,66.224
"26","hy",67.2280561146243,66.325
"27","ia2132",64.553838410021,60.961
"28","il14h",64.9925411846736,63.883
"29","ki43",65.7258122757513,63.84
"30","ky228",66.4661312659229,66.761
"31","mo44",65.6354436683044,67.571
"32","mo45",65.834533445599,63.014
"33","mog",66.4779578946312,65.726
"34","nc236",66.335381829265,69.384
"35","nc262",67.1860630370022,67.727
"36","nc264",66.443991998367,68.732
"37","nc294",66.9331789926693,67.711
"38","nc296a",68.1873647557675,70.338
"39","nc362",67.9989888658622,69.743
"40","oh603",66.496694874846,68.1
"41","r168",66.4421027068188,66.82
"42","r177",66.9564152823207,68.964
"43","r4",66.6129636562058,66.311
"44","sd40",66.313697206961,66.686
"45","sd44",66.8227713209435,68.342
"46","sg18",64.7791447799317,66.644
"47","tx303",66.2107736616291,67.478
"48","tzi11",66.1954968765876,69.527
"49","tzi16",66.4139422596553,69.865
"50","tzi18",66.1443713439698,65.313
"51","tzi25",66.789232510832,69.759
"52","va85",66.5845768935256,66.552
"53","w117ht",66.2049259746516,67.875
"54","w22rrstd",67.9139641536588,68.825
"55","wf9",66.646381194703,69.164
