"","taxa","s1","starch_kernel_BLUP.Cook_2012"
"1","4226",66.5760976009662,67.211
"2","4722",66.1852226105779,62.495
"3","a556",66.7971298178633,68.643
"4","b10",67.4349933098578,65.48
"5","b105",67.3255703207512,68.313
"6","b109",68.6013294446813,67.698
"7","b14a",67.2595709958188,64.794
"8","b37",64.8963816175606,63.535
"9","b46",68.0366397678478,66.14
"10","b57",66.3997794136396,66.303
"11","b64",66.2611609157386,68.451
"12","b68",66.5494352593623,66.259
"13","b73htrhm",68.8139760847776,67.597
"14","b75",66.8436574545421,66.799
"15","ch9",66.8935411974348,62.768
"16","ci21e",66.4856769453747,68.918
"17","ci64",66.6949843389741,67.141
"18","cml103",66.3005870076929,68.865
"19","cml158q",66.2497832708008,65.594
"20","cml264",65.8691997527375,64.242
"21","cml314",66.0200317797479,66.795
"22","cml333",65.9110489675309,64.789
"23","d940y",66.907189123995,62.03
"24","h91",67.2413888262184,66.224
"25","i205",66.7864895671785,66.835
"26","k64",66.7885514122307,69.145
"27","ki21",66.1019868725914,68.735
"28","ki3",64.9948522620931,63.891
"29","ky226",66.7548089993001,65.333
"30","mo18w",66.2061430960338,67.605
"31","mo45",65.8895714593966,63.014
"32","ms1334",66.3371405769688,65.078
"33","n192",68.5301484296027,67.715
"34","nc232",66.9633046523521,69.092
"35","nc250",65.0797485222521,65.374
"36","nc258",67.1544073243075,66.197
"37","nc294",67.0571595155534,67.711
"38","nc310",68.3123983501462,68.027
"39","nc318",67.054493618811,66.464
"40","nc324",67.2334812799932,69.702
"41","nc328",68.5027279087122,68.191
"42","nc340",66.0894555292108,63.587
"43","nc354",66.8532008778485,64.508
"44","nc362",68.0579758139002,69.743
"45","nc368",67.0787270925309,66.178
"46","os420",66.2708454764828,63.623
"47","pa875",66.6040155721536,67.128
"48","r168",66.375158533445,66.82
"49","sc357",66.3973503496761,62.913
"50","sc55",66.1646001851774,67.747
"51","sd40",66.3573494057507,66.686
"52","sg1533",65.9418942062012,66.102
"53","tzi16",66.4947599902218,69.865
"54","tzi25",66.7179061629499,69.759
"55","w64a",67.5103483212118,68.477
