"","taxa","s1","starch_kernel_BLUP.Cook_2012"
"1","3316",64.761034654804,66.08
"2","4226",66.4812288040612,67.211
"3","a239",66.2990177212835,68.636
"4","a554",66.5189922409513,61.789
"5","a619",67.0714100823034,65.947
"6","a641",66.4528551335169,69.047
"7","a661",66.4535670403473,66.154
"8","b57",66.5255335347048,66.303
"9","b64",65.6002257064645,68.451
"10","b75",66.5424208246394,66.799
"11","c103",66.7438141924991,66.271
"12","ci31a",65.9155309917867,64.104
"13","ci64",66.7559153664347,67.141
"14","cm174",67.5486351434942,68.337
"15","cml103",66.1931914974493,68.865
"16","cml238",65.553725718714,66.539
"17","cml254",66.1285473284928,68.576
"18","cml277",65.745222150896,67.473
"19","cml281",65.7271892521202,66.602
"20","cml314",65.7473126205964,66.795
"21","cml69",65.9327967265235,66.204
"22","co106",66.2470772755046,68.572
"23","d940y",66.784380292936,62.03
"24","e2558w",66.8763785709352,69.095
"25","ep1",65.0573315135302,62.655
"26","h49",67.2412521686764,68.755
"27","hp301",65.7550874630599,62.295
"28","ia2132",64.4418159675121,60.961
"29","il101",64.0931855993964,64.537
"30","k64",66.6276264273432,69.145
"31","ki14",65.1137793332013,64.328
"32","ky228",66.4341062912909,66.761
"33","l578",66.1970710302907,66.003
"34","ms153",66.2951709204253,66.093
"35","n192",67.8398987072335,67.715
"36","n7a",66.6251304286561,68.436
"37","nc318",67.051667128672,66.464
"38","nc320",67.112694120724,67.316
"39","nc326",68.377272638849,67.921
"40","nc338",67.0209131786313,66.045
"41","nc352",67.9503727339871,69.171
"42","nc358",66.6877623682934,67.755
"43","nc362",66.8103207891198,69.743
"44","nc364",66.7175198563095,69.588
"45","pa880",66.7128628265031,64.368
"46","r229",68.3186285251558,68.367
"47","sc213r",66.9118424646106,64.497
"48","sg1533",66.438445651905,66.102
"49","t234",66.5247255428976,69.195
"50","u267y",66.5435727888311,64.818
"51","va102",68.2276937567634,70.333
"52","va17",65.8857306329613,67.006
"53","va22",65.9868654464145,64.48
"54","va99",66.2640639757897,68.112
"55","w22rrstd",67.989440039538,68.825
