"","taxa","s1","tassprimbranchno_BLUP.Hung_2012_1"
"1","a239",10.4150679920149,5.56
"2","a6",14.4781168462318,15.95
"3","a619",8.10466873216622,8.35
"4","a634",7.35210898385824,5.28
"5","a661",10.5417441668368,6.17
"6","ab28a",11.6577508766602,10.55
"7","b52",9.93871956800667,6.44
"8","b57",11.7262011697907,19.16
"9","b64",8.50058797216229,4.77
"10","ch70130",11.0004011642735,7.3
"11","ch9",10.6550155771919,2.77
"12","cml10",14.9713888247255,15.83
"13","cml254",14.1442259294705,11.07
"14","cml264",14.332217817711,15.83
"15","cml277",13.9391142481747,5.7
"16","cml281",14.1510837947543,17.67
"17","cml321",13.5971033069456,9.21
"18","cml38",14.6739694865154,14.73
"19","cml45",14.012273393907,11.81
"20","cml61",14.5320822556635,16.54
"21","cml92",12.8009615928763,14.6
"22","d940y",12.8294068436218,10.53
"23","f7",10.3927162614395,1.85
"24","h105w",9.13439465898335,7.31
"25","h91",6.96077798996769,9.03
"26","h99",10.5967965879054,4.59
"27","hp301",16.3883849345038,15.1
"28","ia2132",10.9316969253697,12.65
"29","ids28",12.7338167164219,15.73
"30","ids91",14.6424090512107,13.93
"31","k4",12.3329835813061,14.88
"32","ki14",13.855826968827,14.96
"33","ky226",11.719333280263,12.17
"34","m37w",13.5946697772363,10.91
"35","mo47",10.7611470241084,13.05
"36","n192",6.02336946371817,5.76
"37","nc262",9.25871113707386,6.07
"38","nc290a",9.04178248927147,5.59
"39","nc296",11.0132753007183,10.39
"40","nc304",12.9964961270985,12.49
"41","nc314",7.93010603220394,7.77
"42","nc318",14.8791385015497,23.99
"43","nc324",8.12934830078676,7.61
"44","nc338",12.5741740235408,13.09
"45","nc342",10.1092968889237,8.23
"46","nc346",10.9513907932029,10.59
"47","nc352",12.1291364726697,13
"48","nc362",8.55163695537745,5.71
"49","nc366",13.6114422072538,13.22
"50","oh43e",8.25602059604877,4.5
"51","oh603",11.0378866690897,8.57
"52","pa91",9.30474574269809,10.33
"53","r4",9.84623523575277,8.07
"54","sd40",8.69081709126671,10.95
"55","t232",11.6350889503344,14.84
"56","w22",9.32798307671325,10.67
"57","w22rrstd",9.2945354695364,9.29
