"","taxa","s1","tasslength_BLUP.Hung_2012_1"
"1","3811",350.601050263987,348.68
"2","a554",311.145299588241,262.16
"3","a661",308.299852693043,287.97
"4","a682",333.200341527404,342.22
"5","ab28a",332.31757386879,370.77
"6","b164",307.494322772601,292.42
"7","b2",323.766028558442,375.67
"8","b46",310.361419182942,295.39
"9","b73htrhm",294.386409307193,293.01
"10","b77",333.629168756535,367.83
"11","b84",295.260135570294,293.61
"12","ci28a",337.379751075563,352.83
"13","cm174",271.973399099322,245.54
"14","cm7",308.706366473832,332.19
"15","cml154q",341.565424852229,396.54
"16","cml228",338.457605084644,357.25
"17","cml238",344.904550324148,348.47
"18","cml247",357.130767051185,345.16
"19","cml277",352.05013108169,340
"20","cml341",347.978966958702,362.94
"21","cml91",341.62857726011,356.13
"22","cml92",334.494822982715,322.5
"23","e2558w",322.520433829152,393.78
"24","f2834t",333.371609070665,436.13
"25","f44",331.056561910166,366.78
"26","h49",323.148150167978,303.89
"27","h99",316.213639321508,238.89
"28","hi27",332.660164064755,307.18
"29","i137tn",335.523989478028,319.04
"30","ki14",333.65719633279,367.51
"31","mef156552",312.575784209179,268.24
"32","mp339",331.054227465402,321.1
"33","mt42",302.003188040798,218.21
"34","nc222",323.879444756215,338.61
"35","nc230",306.656678189212,332.38
"36","nc232",337.144990674899,357.49
"37","nc290a",323.826604350781,339.21
"38","nc294",287.35238316011,258.87
"39","nc296",351.537567746225,387.14
"40","nc296a",350.729141402101,358.08
"41","nc300",325.441021124538,324.19
"42","nc304",346.403674992513,294.44
"43","nc310",288.691492272275,273.79
"44","nc318",327.307870808146,323.74
"45","nc320",330.624946917778,298.78
"46","nc326",289.57452552447,302.01
"47","nc33",334.12606985218,343.19
"48","nc356",319.147139941433,345.83
"49","sa24",319.872550848035,395.53
"50","sd40",308.441709940372,408.51
"51","sg18",329.306698571681,328.44
"52","va17",339.410689643349,359.05
"53","va22",338.207485740647,339.77
"54","va35",334.459745171241,370.82
"55","va99",346.926446333825,344.87
"56","w117ht",312.720571804244,307.9
"57","w22rrstd",315.322970007268,305.19
