"","taxa","s1","tasslength_BLUP.Hung_2012_1"
"1","3811",349.011069723225,348.68
"2","4226",310.755047040409,317.01
"3","a188",319.115119789325,321.25
"4","a239",302.104525893685,319.72
"5","a4415",332.65058465876,251.26
"6","b52",305.40402571612,377.77
"7","b57",315.812284835678,317.02
"8","b73htrhm",298.200537370646,293.01
"9","b77",329.091055247131,367.83
"10","b97",319.361335679171,324.05
"11","ci21e",301.425071578127,413.5
"12","ci31a",319.370574459158,373.3
"13","cml218",340.392457100819,348.09
"14","cml261",349.243702756375,375.16
"15","cml277",357.255112654561,340
"16","cml341",346.912962070763,362.94
"17","cml45",352.898755924954,350.22
"18","cml77",339.01189696671,325.68
"19","cmv3",289.084145266958,305.6
"20","co106",311.825394777011,244.85
"21","de2",337.025144324022,366.54
"22","ep1",310.552317185883,227.27
"23","h84",301.274297093308,261.49
"24","hp301",297.044981358171,346.29
"25","k64",340.119987990503,327.94
"26","ki2021",343.428646797,346.34
"27","ki43",338.356295217008,356.17
"28","mo18w",348.622034981285,428.95
"29","mo24w",312.891833307934,415.34
"30","mo45",318.369165697082,310.35
"31","mo46",312.459779282424,343.74
"32","mog",318.308016563409,366.32
"33","ms153",306.908650721774,322.65
"34","nc232",332.033241830897,357.49
"35","nc236",321.770337845124,338.93
"36","nc306",288.77249899907,287.94
"37","nc320",327.429061411093,298.78
"38","nc328",288.182678093083,273.05
"39","nc336",360.145505019019,346.37
"40","nc340",335.542718535212,308.44
"41","nc344",312.271443754696,290.7
"42","nc348",343.041893583435,317.76
"43","nd246",301.665452742447,267.77
"44","oh43e",300.7824185405,309.91
"45","oh7b",303.670508206128,350.28
"46","p39",301.029132273956,265.45
"47","r109b",311.4251005779,324.48
"48","r177",320.165607174512,307.88
"49","sc213r",300.496252933744,358.96
"50","sd40",297.670179709489,408.51
"51","sg18",311.094441626706,328.44
"52","tx303",333.366307553452,372.78
"53","tzi8",355.231816349563,345.43
"54","va22",350.061397440981,339.77
"55","w22rrstd",314.014449432749,305.19
"56","w64a",316.10484644266,310.59
"57","wd",291.568326149637,285.66
