"","taxa","s1","tasslength_BLUP.Hung_2012_1"
"1","4226",314.71001996624,317.01
"2","4722",321.786588654054,343.86
"3","a554",301.422955286325,262.16
"4","ab28a",339.046736782385,370.77
"5","b104",304.481786299855,274.36
"6","b115",329.412523419773,358.07
"7","b37",282.417036898816,291.44
"8","b52",308.758394040434,377.77
"9","b57",322.715678659423,317.02
"10","b64",307.549081621888,247.56
"11","b73",291.583191137347,301.6
"12","b73htrhm",291.871264986589,293.01
"13","c49a",301.864955671884,309.36
"14","ch70130",316.379138003868,324.87
"15","ch9",321.06087323027,315.99
"16","ci31a",329.608583548761,373.3
"17","cm37",291.226983959425,295.43
"18","cml14",352.92288201631,367.61
"19","cml218",345.456894465796,348.09
"20","cml254",361.821875157424,329.99
"21","cml281",353.711130230242,313.04
"22","cml328",333.17196365088,328.29
"23","cml341",350.922523649319,362.94
"24","cml69",355.592970223765,327.75
"25","cml91",346.696325284695,356.13
"26","de1",357.581798560118,345.69
"27","f2834t",337.434204179751,436.13
"28","gt112",328.206310792202,258.99
"29","h99",312.633655944819,238.89
"30","ids28",315.050238915931,278.22
"31","ids69",327.558153927577,267.95
"32","il101",299.651251496603,365.84
"33","ki3",353.387923662045,284.76
"34","ki43",345.153720736526,356.17
"35","m37w",367.532009071631,393.55
"36","mef156552",307.786930240583,268.24
"37","ms1334",315.205424342567,335.08
"38","n7a",318.664365447446,259.68
"39","nc222",325.910330885272,338.61
"40","nc258",314.608836988068,279.36
"41","nc290a",325.842887441634,339.21
"42","nc296a",369.772322115754,358.08
"43","nc314",313.024761103125,323.89
"44","nc33",334.731347455102,343.19
"45","nc338",344.690473473991,277.71
"46","nc342",319.250266640044,303.58
"47","nc354",345.41482306944,344.07
"48","nc356",321.861594585231,345.83
"49","oh43",288.027238226,321.42
"50","oh43e",295.254767216541,309.91
"51","pa762",308.857589247744,283.46
"52","r177",324.037954968892,307.88
"53","r229",300.055448622901,304.14
"54","r4",315.388890090034,341.21
"55","sa24",325.577108046837,395.53
"56","sc55",330.517113532723,234.85
"57","sg18",338.187886129652,328.44
