"","taxa","s1","totalkernelno_BLUP.Hung_2012_1"
"1","4226",223.196775908793,269.8
"2","4722",235.513560191184,211.62
"3","a554",228.202187655226,230.93
"4","ab28a",241.881416459171,192.91
"5","b104",241.03209336948,275.68
"6","b105",238.155085806167,268.57
"7","b2",241.459369386063,271.15
"8","b37",212.623002385874,258.55
"9","b52",242.263730721816,262.09
"10","b57",227.353945977551,250.88
"11","b64",228.533340515719,246.87
"12","b73",282.15485720312,313.69
"13","b73htrhm",281.458712041416,319.28
"14","ci31a",226.922481708359,241.03
"15","cm105",218.296145945409,198.01
"16","cm37",209.275255894066,201.35
"17","cml14",219.225154267205,250.6
"18","cml218",217.443595398111,236.29
"19","cml254",226.111048431608,249.78
"20","cml287",216.566637107197,292.93
"21","cml322",223.093422570628,272.26
"22","cml332",219.977439269285,245.08
"23","cml5",222.762743176499,198.69
"24","cml61",221.592226173421,237.37
"25","cml92",225.161307109058,280.92
"26","de3",237.311899748222,229.63
"27","de811",231.777105726996,235.24
"28","h84",221.696850560057,243.7
"29","il101",213.597974686203,173.49
"30","ki11",225.456304321471,204.01
"31","ki14",220.222142801038,227.81
"32","ki43",222.774265972904,171.01
"33","l578",227.419016649107,209.18
"34","mo18w",230.363425910154,194.47
"35","mo1w",249.507040710698,257.27
"36","ms153",225.198797993519,219.04
"37","mt42",220.279980124449,184.95
"38","n192",268.799047839819,238.16
"39","n28ht",235.002689375536,293.82
"40","n7a",236.187955290056,227.54
"41","nc250",207.065039917553,240.43
"42","nc264",225.899859134864,242.26
"43","nc290a",272.585040284414,311.88
"44","nc296a",204.103107511923,168.82
"45","nc300",219.784358784582,173.48
"46","nc314",219.841229752326,220.96
"47","nc320",228.219998699553,295.34
"48","nc326",277.2173454484,300.24
"49","nc348",211.733627324978,205.93
"50","nc360",247.46139824526,249.4
"51","oh43",263.694720678509,295.22
"52","p39",206.258192807164,206.5
"53","r168",232.361371196905,222.89
"54","r4",234.504417216277,268.63
"55","w153r",227.706314903636,207.71
"56","w22",219.054879904212,202.11
