"","taxa","s1","totalkernelweight_BLUP.Hung_2012_1"
"1","a632",48.9039398466801,46.96
"2","a635",49.3272381422763,45.45
"3","a679",58.8340415547253,65.9
"4","a682",51.3880440950997,40.51
"5","b68",49.0102194331702,52.75
"6","b73htrhm",61.1086584679901,74.89
"7","b76",57.1724631869696,52.58
"8","c49a",45.7137554974769,35.58
"9","ci64",53.904943560188,64.7
"10","cm37",40.7589904011674,32.58
"11","cml11",51.4196188012298,34.45
"12","cml218",48.2379009604187,50.22
"13","cml247",49.4145508277361,36.63
"14","cml321",48.1565190152297,31.8
"15","cml328",48.7488096676726,41.25
"16","cml333",50.2499326501133,34.15
"17","de811",51.9135975024245,62.39
"18","h91",49.1326126160358,54.77
"19","ids69",34.7144774210245,31.35
"20","ids91",35.2865389659917,31.8
"21","il14h",40.2719604202766,35.92
"22","k4",51.0219159958486,64.01
"23","k55",50.3918343612434,51.05
"24","ky226",51.2986682028556,42.22
"25","m162w",56.3772783564951,55.52
"26","m37w",46.7165120919321,38.52
"27","mo17",52.3532805305627,58.81
"28","mp339",47.3261881468601,51.39
"29","ms71",45.5622044894714,43.11
"30","n7a",54.3637465940936,54.05
"31","nc294",56.7256816429412,48.17
"32","nc296",41.5344687427716,40.93
"33","nc298",45.606051834739,43.77
"34","nc304",45.1783915346607,30.94
"35","nc310",56.9966977063859,68.72
"36","nc318",51.0512189656595,48.2
"37","nc320",50.8318504771107,63.12
"38","nc33",49.2942099865545,44.37
"39","nc336",42.8966055713944,51.66
"40","nc338",45.7111910091422,30.75
"41","nc344",56.1218688227051,56.67
"42","nc352",42.5829092971596,55.38
"43","nc354",45.9940888966833,43.03
"44","oh43",55.7384879528353,58.84
"45","pa762",53.5310588728432,63.87
"46","pa875",50.8091405104673,54.52
"47","pa880",53.0046878717305,47.56
"48","r109b",51.0223257953712,47.15
"49","r229",60.1817001792171,52.91
"50","r4",52.1626880525549,49.62
"51","sg18",41.6167537929759,43.72
"52","t8",52.8071968352075,62.07
"53","tzi10",48.1466759448181,34.73
"54","tzi18",48.3899339966425,42.42
"55","va26",52.9575875062732,62.55
"56","w182b",45.1697967129927,41.25
