"","taxa","s1","totalkernelweight_BLUP.Hung_2012_1"
"1","4722",41.2553044439861,20.78
"2","a272",47.6012852617458,31.03
"3","a554",49.0225569621661,37.81
"4","a556",53.1038225767161,36.04
"5","a619",56.5928526331068,59.94
"6","b64",49.3344984505038,46.64
"7","c103",56.1564405174261,65.51
"8","ci28a",60.0040228688752,54.97
"9","ci7",54.1892759366484,39.1
"10","cm105",46.5893642175058,39.3
"11","cml108",49.9518980560615,41.6
"12","cml228",47.5132992301101,45.39
"13","cml247",49.4350007514943,36.63
"14","cml254",50.5066737847252,52.16
"15","cml311",47.4139241151795,45.95
"16","cml321",47.6657227535268,31.8
"17","cml61",49.6367450916344,56.09
"18","de2",60.4005884157736,64.89
"19","de811",52.3304669659625,62.39
"20","h95",52.1822822981807,47.49
"21","hp301",38.920532427668,29.49
"22","ia2132",42.3728718330558,38.35
"23","ids91",37.3025778130528,31.8
"24","il101",40.0196704435828,28.94
"25","k55",51.3699913702923,51.05
"26","ki3",48.030743581446,42.51
"27","ky226",51.2884069433163,42.22
"28","mef156552",44.1216214009908,67.15
"29","mo1w",50.9686886051922,56.02
"30","mo44",50.6371927910629,51.61
"31","mo46",52.4991981922281,47.84
"32","nc238",46.542229680309,55.45
"33","nc260",50.5692119821209,51.07
"34","nc296a",43.8417940800958,36.39
"35","nc300",53.4215159391505,43.9
"36","nc306",55.599948516737,44.48
"37","nc314",47.5045676006674,47.72
"38","nc318",53.4911163732659,48.2
"39","nc336",47.3671124472577,51.66
"40","nc354",46.3682816422422,43.03
"41","nc358",47.7658905019537,48.24
"42","nc364",56.9456576076657,62.38
"43","oh40b",53.5471661906857,52.31
"44","oh603",51.9866098622499,38.73
"45","oh7b",51.2355632338502,58.37
"46","pa91",53.9472944818972,61.75
"47","sa24",41.6672819314447,46.77
"48","sc357",47.0447373668106,43.78
"49","sc55",48.8926882839431,49.62
"50","tzi10",47.8665564597633,34.73
"51","tzi11",49.2427524382747,36.1
"52","tzi9",48.5001491765885,70.35
"53","u267y",50.2991854859644,40.65
"54","va99",52.3196900940018,67.84
"55","wf9",56.0991903490558,59.34
"56","yu796ns",51.0306825606126,54.39
