"","taxa","s1","totalkernelweight_BLUP.Hung_2012_1"
"1","4722",42.4559486334129,20.78
"2","b10",54.3257014960398,57.7
"3","b115",51.9233717564756,50.9
"4","b76",57.1237326971538,52.58
"5","b79",52.4472399556454,64.42
"6","ci91b",48.724487975382,52.23
"7","cm7",47.8046087600741,36.38
"8","cml10",49.0333268027377,54.93
"9","cml11",49.3501107213917,34.45
"10","cml220",48.7696046012302,53.27
"11","cml247",49.4731206234815,36.63
"12","cml261",48.3213629368031,63.12
"13","cml321",47.7324126042142,31.8
"14","cml333",50.3473449869009,34.15
"15","cml341",48.39977294556,32.15
"16","co125",49.8375915725086,37.66
"17","f6",48.319135900388,48.37
"18","h99",50.782155040546,49.72
"19","hy",56.3395612318591,56.75
"20","i205",54.423861272244,33.82
"21","ids69",35.4238686000446,31.35
"22","il14h",40.5916490911388,35.92
"23","k148",50.8457366643916,35.88
"24","k4",51.8983942140059,64.01
"25","ki14",48.103855267042,49.78
"26","ki43",48.5102840797165,35.48
"27","ky228",48.7979720938567,48.54
"28","mog",51.0294445387149,51.67
"29","ms1334",49.8219236292815,41.08
"30","ms71",46.4530643365178,43.11
"31","mt42",46.8394020612553,29.45
"32","nc232",52.3183163259586,60.68
"33","nc238",46.4225267939722,55.45
"34","nc258",55.5136033179708,52.39
"35","nc314",46.5351648250498,47.72
"36","nc326",64.4812055079875,57.02
"37","nc33",49.6735353518477,44.37
"38","nc344",57.0236891218247,56.67
"39","nc352",44.4284215974795,55.38
"40","nc368",55.4768736802758,49.37
"41","oh40b",56.0231574021782,52.31
"42","oh43",59.0556057660903,58.84
"43","oh603",53.9143819058804,38.73
"44","pa880",54.5062331836596,47.56
"45","sc55",50.0983288282937,49.62
"46","sg1533",42.1912259927668,49.18
"47","t232",51.5958754126127,46.95
"48","tx601",48.9615937312444,44.07
"49","tzi11",49.0816215126076,36.1
"50","tzi16",52.3075610765341,50.52
"51","tzi9",48.3899014052869,70.35
"52","va14",54.8622909830982,40.25
"53","va59",59.0124192629851,56.67
"54","vaw6",52.7696649611271,46.58
"55","w22",49.5496367903092,40.92
"56","w22rrstd",49.3657318522461,42.96
