"","taxa","s1","totalkernelno_BLUP.Hung_2012_1"
"1","a188",225.552223429244,222.24
"2","a239",228.30971022069,243.31
"3","a6",215.981654913081,269.12
"4","a619",263.107526685223,264.78
"5","a634",229.590075687954,209.36
"6","a661",220.629518334235,216.62
"7","ab28a",243.642410605624,192.91
"8","b57",227.475896819319,250.88
"9","b64",227.416497884462,246.87
"10","b75",244.920530809969,248.41
"11","ch70130",226.072259926251,256.09
"12","ch9",232.174656903668,219.99
"13","cm37",207.285959588278,201.35
"14","cml10",221.353305536039,239.28
"15","cml11",223.457538115667,198.53
"16","cml254",227.531263782942,249.78
"17","cml277",218.502706214013,175.22
"18","cml281",217.64560329889,264.8
"19","cml322",228.676430635614,272.26
"20","cml52",220.066128974901,207.66
"21","cml61",224.389127795834,237.37
"22","cml92",225.991906009551,280.92
"23","d940y",225.101009706733,221.39
"24","de3",245.19581751926,229.63
"25","f44",226.291257109734,169.7
"26","h105w",230.775011551993,281.35
"27","hp301",240.886473020416,224.49
"28","hy",237.714407962711,256.21
"29","i205",241.954577575931,161.84
"30","ids69",226.19870658983,217.99
"31","il677a",207.573191520629,226.84
"32","ki11",225.677832424992,204.01
"33","m14",241.522940136595,256.28
"34","mo24w",230.668942841363,327.26
"35","mo44",239.633133901406,232.44
"36","nc238",228.261302037678,246.37
"37","nc260",237.383351023342,242.49
"38","nc290a",268.633005741137,311.88
"39","nc296",192.758819067864,203.61
"40","nc298",209.407183880859,211.37
"41","nc300",220.525793153577,173.48
"42","nc320",234.117107076778,295.34
"43","nc324",232.055703300179,198.45
"44","nc328",287.158582666485,246.88
"45","nc364",257.759496596019,301.46
"46","nc366",226.840943580846,193.89
"47","nd246",218.888302140523,209.36
"48","sc357",223.866712771902,230.73
"49","tzi11",223.294872784146,186.69
"50","va26",252.987273338262,262.28
"51","va35",246.650382555472,274.19
"52","va59",248.851539343344,234.24
"53","va85",240.298521639026,199.13
"54","w182b",223.156039333532,188.92
"55","w22",223.041455701941,202.11
"56","wf9",254.647501781738,289.43
