"","taxa","s1","totalkernelno_BLUP.Hung_2012_1"
"1","3316",226.752917121036,287.35
"2","3811",230.971906827626,278.14
"3","a6",217.257217378905,269.12
"4","a635",229.542754130954,227.56
"5","a641",226.136116290094,207.2
"6","a654",234.259828866581,174.22
"7","b115",235.235583542373,218.93
"8","b46",225.622959859555,240.92
"9","b73",286.165366774884,313.69
"10","b73htrhm",285.089167155326,319.28
"11","b84",264.963849532282,249.21
"12","ci1872",230.926132409399,214.5
"13","ci28a",245.766217454944,255.58
"14","ci3a",231.037753303253,256.77
"15","cm105",216.122917157539,198.01
"16","cml103",224.019362728642,248.66
"17","cml11",229.464811040498,198.53
"18","cml14",221.02058793588,250.6
"19","cml220",222.575665907819,223.09
"20","cml228",212.178846452062,203.78
"21","cml333",231.621667958667,189.89
"22","cml5",226.299851772035,198.69
"23","cml77",220.627856025594,247.6
"24","d940y",234.921082501001,221.39
"25","de3",241.059939628494,229.63
"26","e2558w",227.528536782566,278.91
"27","h91",233.228515162432,242.87
"28","hp301",237.857665699749,224.49
"29","hy",236.580776096485,256.21
"30","i29",228.815995625614,237.01
"31","k64",239.324943445586,214.49
"32","m37w",230.25213409438,204.87
"33","mo17",235.720829136404,239.94
"34","mo45",229.814947454829,306.69
"35","mp339",220.417923066841,219.99
"36","n7a",243.408401044865,227.54
"37","nc264",243.167816997374,242.26
"38","nc290a",268.89349730579,311.88
"39","nc298",209.118638269021,211.37
"40","nc314",226.732933515944,220.96
"41","nc340",200.917551513498,222.14
"42","nc344",254.182552327011,302.44
"43","nc362",268.644263284359,274.11
"44","nc368",243.509149921311,220.3
"45","pa875",238.842715057245,272.13
"46","r109b",234.540609444207,206.06
"47","r229",275.726377102729,259.33
"48","sc357",221.56158899334,230.73
"49","t232",235.055616629829,195.25
"50","t8",243.435240776442,247.85
"51","tzi25",243.286105866933,249.37
"52","u267y",234.342899711221,196.11
"53","vaw6",242.027649908582,242.91
"54","w117ht",226.088989928511,168.48
"55","w64a",267.902941185214,212.53
"56","yu796ns",234.669438998381,218.82
