"","taxa","s1","totalkernelweight_BLUP.Hung_2012_1"
"1","4226",48.7995784687963,56.99
"2","a214n",52.0456091051686,42.11
"3","a239",49.7198723384307,56.23
"4","a634",51.5722998722743,39.11
"5","a635",51.0444519023733,45.45
"6","a659",51.5340322725198,37.81
"7","a661",47.2345982024643,48
"8","a682",52.6180840426606,40.51
"9","b105",55.7396506333421,49.43
"10","b57",49.0451574125775,67.82
"11","b64",50.4066025485979,46.64
"12","b75",53.8252343294311,67.04
"13","ci3a",49.3136726147645,49.42
"14","cm7",47.033633931718,36.38
"15","cml10",48.1168819337978,54.93
"16","cml103",48.5108829923287,60.21
"17","cml11",48.1797585065263,34.45
"18","cml228",46.8943126715123,45.39
"19","cml287",46.086170484679,70.24
"20","cml321",47.0089268151426,31.8
"21","cml322",49.3845697152765,49.37
"22","cml332",51.507430444735,55.02
"23","cml38",48.5891815939822,48.74
"24","cml69",48.5994041055051,35.2
"25","co106",47.9454884011049,46.38
"26","co125",48.6581724107637,37.66
"27","de811",52.7769365950753,62.39
"28","h84",55.1278637575953,53.52
"29","ia5125",46.4851379238008,29.71
"30","ki3",47.2438256321461,42.51
"31","ki44",48.1600027702021,43.65
"32","ky228",47.9288925409379,48.54
"33","l578",48.4528640556282,43.95
"34","mo1w",51.5909312481676,56.02
"35","mo24w",50.3775966768026,73.57
"36","mt42",46.1880863190025,29.45
"37","nc222",50.4599925113457,48.72
"38","nc258",54.3581164051835,52.39
"39","nc262",60.1809057272611,60.9
"40","nc296a",43.502710757091,36.39
"41","nc302",44.2091711046457,41.22
"42","nc314",47.0492539405353,47.72
"43","nc328",62.2185002249975,53.13
"44","nc33",49.1401353388786,44.37
"45","nc344",56.1456885127549,56.67
"46","nc350",42.9413427388885,37.23
"47","nc352",45.4976581148772,55.38
"48","nc364",56.6681836279252,62.38
"49","pa875",51.1476309686822,54.52
"50","sc55",48.3222673109339,49.62
"51","va22",55.2188773563799,65.16
"52","va85",53.1911290929542,50.62
"53","vaw6",52.778063347109,46.58
"54","w22rrstd",45.2154644807669,42.96
"55","w64a",55.7862082643761,44.26
"56","wf9",56.8711143320844,59.34
