"","taxa","s1","totalkernelno_BLUP.Hung_2012_1"
"1","a632",240.403443041293,222.46
"2","a635",230.303495500633,227.56
"3","a679",264.207154511985,325.04
"4","a682",239.785387437962,193.7
"5","b68",229.441905611944,238.45
"6","b73htrhm",288.126888378411,319.28
"7","b76",244.07248245528,206.67
"8","c49a",212.306663353662,192.86
"9","ci64",225.11770336523,248.12
"10","cm37",207.120024535815,201.35
"11","cml11",230.373024330743,198.53
"12","cml218",224.589210466818,236.29
"13","cml247",230.844737584124,195.16
"14","cml321",227.007360079973,171.13
"15","cml328",225.713091322558,204.23
"16","cml341",227.472210849874,193.1
"17","e2558w",227.073360951523,278.91
"18","h95",253.732298383298,256.18
"19","ids91",221.935790958183,201.01
"20","il101",209.348537788797,173.49
"21","il677a",210.092212665361,226.84
"22","k55",239.087211670303,222.92
"23","k64",228.188467939331,214.49
"24","ky228",229.074911188661,235.24
"25","m37w",222.896134267111,204.87
"26","mef156552",221.080205000607,265.93
"27","mo18w",234.9152505795,194.47
"28","ms1334",228.760101766805,185.64
"29","mt42",221.791451939038,184.95
"30","nc222",232.252457359613,205.96
"31","nc296",214.862100691669,203.61
"32","nc296a",216.036416236366,168.82
"33","nc300",224.880083429914,173.48
"34","nc306",262.92850715228,190.54
"35","nc314",262.419615101897,220.96
"36","nc320",234.679238864369,295.34
"37","nc324",259.434021771684,198.45
"38","nc336",217.534197263519,222.09
"39","nc338",218.984223392744,146.5
"40","nc340",225.517510984535,222.14
"41","nc346",214.864912919416,203.91
"42","nc354",219.321167545394,200.62
"43","nc356",219.711307038316,228.89
"44","oh43e",265.200379090065,255.14
"45","pa875",235.74261767801,272.13
"46","pa880",243.766839557405,225.27
"47","pa91",255.82014537577,251.74
"48","r168",234.984066891077,222.89
"49","r4",237.152737204981,268.63
"50","sa24",222.212055347262,276.33
"51","sg18",240.013030737899,288.24
"52","t8",244.073056634798,247.85
"53","tzi10",227.790226586779,220.11
"54","tzi18",225.906926336545,199.39
"55","va26",252.742888560974,262.28
"56","w182b",222.638221140523,188.92
