"","taxa","s1","totalkernelno_BLUP.Hung_2012_1"
"1","4722",239.22875036579,211.62
"2","b10",242.781236658036,230.85
"3","b115",232.065159060191,218.93
"4","b76",238.506610753775,206.67
"5","b79",241.747152592538,258.2
"6","ci91b",225.887236492201,266.06
"7","cm7",220.54305101126,179.39
"8","cml10",223.034397946053,239.28
"9","cml11",224.768597765557,198.53
"10","cml220",222.399795506562,223.09
"11","cml247",227.134027894651,195.16
"12","cml261",221.314028711564,254.31
"13","cml321",222.330436143648,171.13
"14","cml341",224.613439211139,193.1
"15","cml38",225.309413457711,235.9
"16","co255",226.277894836249,255.05
"17","f7",222.478257319121,197.79
"18","hi27",223.106728299828,268.63
"19","i137tn",221.368804397358,245.05
"20","i29",229.281636957463,237.01
"21","ids91",233.341451759589,201.01
"22","il677a",210.645899187665,226.84
"23","k4",234.755536905022,290.85
"24","k55",238.996802635901,222.92
"25","ki2021",211.730928245504,257.7
"26","ki44",218.627161737857,203.63
"27","l317",220.067062247435,285.48
"28","mp339",219.172777911841,219.99
"29","ms153",226.589198113768,219.04
"30","mt42",219.562722458417,184.95
"31","n192",275.297828353076,238.16
"32","nc236",234.976526655768,220.24
"33","nc250",220.779466392734,240.43
"34","nc260",232.094137187071,242.49
"35","nc318",247.334243016413,235.78
"36","nc328",289.779346067555,246.88
"37","nc336",208.387321500153,222.09
"38","nc346",195.313519306979,203.91
"39","nc354",208.691745224341,200.62
"40","nd246",221.095934129774,209.36
"41","oh43",262.713591035384,295.22
"42","oh43e",258.860988468019,255.14
"43","oh7b",233.777676619727,259.19
"44","pa91",256.872792780762,251.74
"45","sc55",228.919946792231,247.28
"46","sg1533",249.75740493058,264.89
"47","t232",233.285842496681,195.25
"48","tx601",224.464263256454,227.26
"49","tzi11",222.244684494735,186.69
"50","tzi16",244.881578231952,244.4
"51","tzi9",222.786768415676,304.03
"52","va14",249.715700990638,222.55
"53","va59",254.228904309848,234.24
"54","vaw6",240.155376702294,242.91
"55","w22",224.665614738281,202.11
"56","w22rrstd",224.542258940575,216.36
