"","taxa","s1","totalkernelno_BLUP.Hung_2012_1"
"1","4722",237.136331903135,211.62
"2","a188",227.475990687065,222.24
"3","a679",263.358415374134,325.04
"4","ab28a",242.701770763698,192.91
"5","b115",235.586680314089,218.93
"6","b14a",236.464419838298,221.38
"7","b68",229.334289430597,238.45
"8","b73",292.507576988783,313.69
"9","b84",265.237353731626,249.21
"10","b97",235.138192738072,228.36
"11","ci3a",233.666272253639,256.77
"12","ci7",253.510489539413,209.45
"13","cm174",207.406568690673,212.8
"14","cm7",222.11613834291,179.39
"15","cml158q",227.299697275209,189.06
"16","cml323",230.34524017537,252.64
"17","cml333",229.46658719351,189.89
"18","cml91",228.272220577886,230.81
"19","co106",223.550266212659,247.37
"20","de811",236.773482026607,235.24
"21","f6",227.395153481109,211.99
"22","h49",248.207469705391,293.91
"23","h91",235.456244673229,242.87
"24","h95",255.312199566204,256.18
"25","hi27",225.0720113002,268.63
"26","k148",235.354367043249,227.43
"27","k4",235.545850397254,290.85
"28","ki2021",211.660366155134,257.7
"29","ki21",227.508079355984,231.09
"30","ky226",239.365022512504,196.6
"31","m37w",223.693832601459,204.87
"32","mo17",237.068909312465,239.94
"33","mo1w",238.56946810415,257.27
"34","mo47",245.386539249046,226.22
"35","ms71",231.094583660562,223.67
"36","n192",275.611081303353,238.16
"37","n6",236.429664860791,254.01
"38","nc250",218.35189047219,240.43
"39","nc258",266.76483961627,250.85
"40","nc264",243.603406736821,242.26
"41","nc326",288.228355015024,300.24
"42","nc328",284.087471497861,246.88
"43","nc354",210.185654563749,200.62
"44","nc358",216.472404074333,220.21
"45","nd246",221.383962712169,209.36
"46","oh43e",265.435216881608,255.14
"47","pa880",242.921604109871,225.27
"48","r168",237.450288641903,222.89
"49","sc213r",222.875112323145,220.99
"50","sc55",231.184523992004,247.28
"51","t232",236.269971768138,195.25
"52","tx303",231.35921653023,213.08
"53","tzi16",245.80469020525,244.4
"54","tzi18",222.42669141571,199.39
"55","va59",254.943190838404,234.24
"56","w117ht",227.431755378112,168.48
