"","taxa","s1","totalkernelno_BLUP.Hung_2012_1"
"1","4722",236.72719295285,211.62
"2","a188",224.75791634218,222.24
"3","a6",212.667297761217,269.12
"4","a641",229.615548629524,207.2
"5","b109",280.850733314307,294.11
"6","b14a",240.577254062758,221.38
"7","b37",221.71669079416,258.55
"8","b64",233.122999885634,246.87
"9","b73htrhm",291.066369768013,319.28
"10","c49a",213.868091572331,192.86
"11","ch9",235.698678301207,219.99
"12","ci1872",234.601650129105,214.5
"13","ci64",218.910044623228,248.12
"14","ci66",236.823388994497,208.23
"15","cm105",219.264394695211,198.01
"16","cml103",222.974339849064,248.66
"17","cml154q",215.011901287846,262.04
"18","cml238",220.241895922121,230.09
"19","cml322",226.66939121336,272.26
"20","cml52",218.400609723691,207.66
"21","de2",259.03027662824,252.87
"22","de811",237.674868728085,235.24
"23","e2558w",224.151153865374,278.91
"24","gt112",228.607704369322,205.78
"25","h99",242.316605520954,226.55
"26","i137tn",219.570859959801,245.05
"27","i205",238.568482573506,161.84
"28","ia2132",212.550824810664,206.59
"29","ids69",222.864021965768,217.99
"30","il14h",209.876036119359,184.48
"31","ki43",220.030752020717,171.01
"32","ki44",218.023990337511,203.63
"33","mo46",246.738040322294,214.11
"34","mo47",247.386286326807,226.22
"35","n192",274.514145797247,238.16
"36","n28ht",240.424131416575,293.82
"37","n6",232.469456895403,254.01
"38","nc260",234.910140249805,242.49
"39","nc320",232.108399181061,295.34
"40","nc340",198.594552580738,222.14
"41","nc350",196.372422168001,198.01
"42","nc354",206.247712438792,200.62
"43","nc368",244.573343587218,220.3
"44","oh43",260.990799046486,295.22
"45","p39",200.119351422681,206.5
"46","pa875",236.744953392801,272.13
"47","r109b",232.658186204004,206.06
"48","tzi10",217.633752680103,220.11
"49","tzi16",232.399420853875,244.4
"50","tzi18",218.053321526465,199.39
"51","tzi9",219.937924448753,304.03
"52","va102",291.731350508314,257.88
"53","va22",241.151726202211,309.06
"54","va59",252.580951194516,234.24
"55","va99",248.692338110326,244.5
"56","vaw6",239.099943276434,242.91
