"","taxa","s1","upperleafangle_BLUP.Hung_2012_1"
"1","a239",54.9252862446271,59.39
"2","a556",60.1186653574818,50.39
"3","a632",39.0276304204749,28.44
"4","a659",56.789462498451,49.05
"5","a661",53.7907814904958,55.34
"6","a682",55.391309215904,23.48
"7","ab28a",63.8806832815376,72.4
"8","b109",75.9674739253219,67.14
"9","b64",48.8161980584995,14.81
"10","b77",59.8033232133449,56.48
"11","b84",66.3930621837223,64.73
"12","ci66",62.0605068590629,74.96
"13","cm37",42.8044649936292,50.06
"14","cml311",66.4149194638302,67.16
"15","cml341",69.3474734100322,72.01
"16","co255",50.8474885750618,40.64
"17","e2558w",57.8327872601398,63.17
"18","f44",65.1310127708393,66.56
"19","gt112",70.0455441843941,48.77
"20","h95",56.9059293237659,59.27
"21","hp301",52.7518062697406,43.07
"22","i137tn",61.660621595047,78.35
"23","i205",55.3805566973456,57.84
"24","i29",54.7487668372299,37.71
"25","ids28",56.4669053710654,52.27
"26","ids91",57.866715275751,41.95
"27","ki14",66.7046260247774,56.48
"28","m37w",70.992096628307,47.37
"29","mef156552",53.076650320332,42.69
"30","mo18w",53.7806968517723,67.44
"31","mt42",53.6432527157799,40.86
"32","n28ht",58.9443777219355,65.65
"33","n7a",62.4963638592072,57.55
"34","nc304",69.2396857210102,79.92
"35","nc306",73.6321000813791,73.72
"36","nc326",78.0914962776812,77.64
"37","nc328",76.2502667692147,78.76
"38","nc338",70.2807888510815,71.23
"39","nc346",70.9102590342741,68.36
"40","nc352",71.688819183226,72.57
"41","nc364",65.3318159741632,63.67
"42","oh43",58.1010552260985,49.8
"43","oh603",59.3863134654165,64.35
"44","p39",40.6396285779118,29.7
"45","r4",54.3226854238205,65.54
"46","sc213r",68.7825631328092,72.25
"47","sd40",60.9908622268623,64.97
"48","t234",59.0919766567776,65.6
"49","tzi10",67.700163376749,61.44
"50","tzi8",67.7892409511175,71.62
"51","va14",59.4883684660242,62.52
"52","va26",58.0033293726454,73.06
"53","va35",67.2270857453855,72.45
"54","va85",54.0711925996424,56.09
"55","w22",47.5294470626059,46.3
"56","wd",52.3342670728236,17.08
