"","taxa","s1","upperleafangle_BLUP.Hung_2012_1"
"1","4722",57.0292213503924,66.08
"2","a239",53.6343913954708,59.39
"3","b10",55.833400607999,40.21
"4","b115",56.7843331281141,38.63
"5","b76",60.7190679640913,48.66
"6","ci91b",56.2843120561766,58.84
"7","cm7",55.6676179337673,26.58
"8","cml10",68.3670992521484,77.51
"9","cml11",68.5451866471459,69.02
"10","cml14",67.7606120141697,61.28
"11","cml228",67.9535474726965,68.84
"12","cml238",69.76024900098,69.62
"13","cml247",67.3942809040863,73.09
"14","cml258",66.8114526462281,66.9
"15","cml281",67.2613404729986,69.68
"16","cml333",66.8832583897036,73.5
"17","cml341",69.0847219221996,72.01
"18","cml91",65.4468297170766,77.19
"19","cmv3",49.1318598469035,30.71
"20","ga209",60.4113317903127,69.11
"21","h91",36.6558668452152,49.72
"22","hp301",53.9714906205964,43.07
"23","i137tn",61.9461010383707,78.35
"24","i205",58.7053437768547,57.84
"25","ids28",57.0770528433053,52.27
"26","il677a",47.5822411789942,36.04
"27","k148",60.8023108857732,74.49
"28","ki14",67.3719962607601,56.48
"29","ki43",68.3578015871369,57.69
"30","ky226",58.5153630103129,54.02
"31","ky228",59.6764271343657,69.07
"32","mo47",63.4795858759758,40.68
"33","mp339",63.3439916756674,71.04
"34","ms71",54.1541793818524,66.76
"35","n192",59.1712905469573,70.36
"36","n6",58.7467652688424,54.9
"37","nc298",70.1461884707745,73.94
"38","nc302",73.7937167180552,71.39
"39","nc328",76.1635926202348,78.76
"40","nc33",62.9218958218774,78.1
"41","nc336",71.3866128083003,71.94
"42","nc342",64.7781407798414,56.12
"43","nc368",69.5666162443986,79.22
"44","pa875",57.7946993428146,39.67
"45","r109b",57.8282541950877,49.01
"46","r168",56.4398615974427,57.39
"47","r177",59.4429868890618,42.69
"48","r229",75.7740510415852,75.09
"49","sg18",57.1935197259683,41.24
"50","t234",60.2987288444123,65.6
"51","tx601",68.2605491129193,59.72
"52","va85",55.4969158535034,56.09
"53","va99",63.5734263034484,67.71
"54","w117ht",55.7621430096954,41.52
"55","w22rrstd",48.9577118981287,43.35
"56","wd",52.3148720943774,17.08
