"","taxa","s1","upperleafangle_BLUP.Hung_2012_1"
"1","3316",59.3205528797445,67.96
"2","a556",59.0205767559456,50.39
"3","a641",36.8908543745916,48.1
"4","a679",74.382890795342,76.76
"5","a682",56.7192104221975,23.48
"6","b103",54.5929981509,59.95
"7","b104",59.5918038208854,61.26
"8","b14a",34.9110718647472,37.47
"9","b164",55.4016753461405,60.68
"10","b76",61.3534789997743,48.66
"11","ch70130",54.8700502370357,48.27
"12","ci21e",55.4400150709665,63.79
"13","ci64",62.7592576877725,63.39
"14","ci7",59.6934542353333,74.04
"15","cml154q",67.9958940103529,61.22
"16","cml220",67.5817379035656,57.3
"17","cml247",68.0926467425815,73.09
"18","cml45",68.0478234360968,66.02
"19","cml91",65.2325861154657,77.19
"20","co125",54.1394210637527,65.61
"21","ep1",53.3169369679793,32.69
"22","f7",50.2039719664886,45.49
"23","h84",61.3186059653564,56.69
"24","i29",53.0962906737785,37.71
"25","il677a",46.99979879551,36.04
"26","ki11",67.6033724399782,68.94
"27","ki2021",67.2681118513517,59.16
"28","ki43",68.0099917182339,57.69
"29","ky21",60.0364915447703,78.79
"30","ky228",58.2903546143321,69.07
"31","mo17",59.8184205257892,58
"32","mo45",58.5960158110161,74.64
"33","mo47",62.4049612686535,40.68
"34","ms153",53.4368450948085,49.59
"35","n28ht",58.239809719159,65.65
"36","nc262",63.7164682305353,56.08
"37","nc264",65.1830303919274,57.29
"38","nc294",72.8388830565099,65.03
"39","nc298",69.8373415152811,73.94
"40","nc33",62.330447575921,78.1
"41","nc340",67.2631785476203,67.07
"42","nc346",70.0992163082394,68.36
"43","oh43",58.4796342305069,49.8
"44","oh43e",57.1471120249743,61.55
"45","r109b",55.9513435438703,49.01
"46","r177",59.9444097313118,42.69
"47","r229",76.5863635261367,75.09
"48","sa24",58.248688684084,59.22
"49","sc55",63.2089914582725,72.32
"50","tzi10",66.5619342878764,61.44
"51","tzi11",67.5363081943022,76.8
"52","tzi8",67.8205083446044,71.62
"53","va102",74.4034639385008,74.08
"54","va26",57.8968649493383,73.06
"55","va35",66.7486192305803,72.45
"56","w22",49.3595080254011,46.3
