"","taxa","s1","upperleafangle_BLUP.Hung_2012_1"
"1","3316",63.9367970612021,67.96
"2","3811",63.7029731008424,63.5
"3","4226",56.3509493553338,37.78
"4","a239",52.3792172554221,59.39
"5","a4415",60.804593793721,54.55
"6","a659",54.7799764485358,49.05
"7","a682",54.3872351247834,23.48
"8","b57",57.6293231214654,53.62
"9","b73htrhm",77.3589740360135,78.25
"10","b97",53.3822697811625,57.56
"11","ci21e",54.8635121635958,63.79
"12","ci31a",55.7440007559762,66.54
"13","ci91b",57.3636644481433,58.84
"14","cm37",40.3460133867296,50.06
"15","cml157q",68.5633843944864,77.52
"16","cml218",68.5402378873197,68.04
"17","cml264",68.602609159136,60.39
"18","cml38",68.981423746926,77.13
"19","cml5",68.1499787784785,64.7
"20","co125",53.7899529591826,65.61
"21","co255",50.3938122851168,40.64
"22","de2",61.9301226959706,62.52
"23","h105w",39.9077186068738,43.88
"24","h49",45.8370761996153,38.37
"25","h91",36.2789804663607,49.72
"26","h95",55.9321862021307,59.27
"27","i29",51.662995944307,37.71
"28","il101",38.638329602621,63.77
"29","ki14",67.0274284066485,56.48
"30","l578",64.0560241430553,79.98
"31","mo44",61.1524704565942,63.98
"32","ms71",54.2898048239894,66.76
"33","n6",57.071211594423,54.9
"34","nc258",61.8731744095646,73.41
"35","nc298",70.1894052319639,73.94
"36","nc300",68.6288016922339,66.21
"37","nc320",64.7098524378536,66.03
"38","nc328",77.6010345227857,78.76
"39","nc33",63.1878105521495,78.1
"40","nc342",62.4436621787759,56.12
"41","nc346",70.5598591064314,68.36
"42","nc350",73.2884507268887,70.67
"43","nc360",65.0791536863016,73.19
"44","nc362",64.5822097862706,63.55
"45","nc366",64.3255861857425,63.07
"46","nd246",53.5357936669705,53.41
"47","oh40b",55.8281664392585,64.13
"48","oh7b",58.8708908221662,75.37
"49","pa875",58.3039174296762,39.67
"50","r4",54.1182267924854,65.54
"51","sg1533",47.1403298809006,63.48
"52","tzi11",68.425626424381,76.8
"53","tzi9",67.8496970125547,64.99
"54","va102",76.470294630715,74.08
"55","va22",62.6252818508658,69.55
"56","va99",58.6703234716818,67.71
