"","taxa","s1","weight20kernels_BLUP.Hung_2012_1"
"1","3316",4.07252190546375,4.58
"2","3811",4.545733064965,3.9
"3","a6",4.44784708627853,4.36
"4","a635",4.58365860047741,4.22
"5","a641",4.38674173786907,4.37
"6","a654",4.24315937455262,4.63
"7","a679",4.19182319748078,3.95
"8","b115",4.51176085531398,5.42
"9","b73htrhm",4.31466916871961,4.1
"10","b84",4.6616595050587,4.82
"11","c49a",4.24936889252844,3.9
"12","ci1872",4.24197826760897,4.29
"13","ci28a",5.0005044861108,4.39
"14","cm105",4.04600737420068,3.92
"15","cml103",4.61574252018675,5.07
"16","cml108",4.52942449624549,4.4
"17","cml11",4.80163505339556,4.58
"18","cml277",4.51066990375035,4.61
"19","cml332",4.21324622500057,5.03
"20","d940y",4.49777602616083,3.73
"21","f2834t",4.46126933021109,5.42
"22","f44",4.46318541836217,3.9
"23","f6",4.39363009719122,4.53
"24","h99",4.41481389387344,4.4
"25","i137tn",4.43421637333122,5.6
"26","i205",4.8466322184192,4.51
"27","il14h",4.06013045817679,4.51
"28","ky21",4.43431696821763,4.96
"29","m14",4.27421645177168,4.03
"30","m37w",4.61955574932851,4.42
"31","mo24w",4.46433706114631,4.06
"32","mog",4.40517772858204,4.97
"33","ms1334",4.42012605458095,4.06
"34","nc264",4.29837855287158,5.15
"35","nc296",4.83446278097762,4.27
"36","nc300",4.42063962994301,6.08
"37","nc310",4.2904378853074,3.57
"38","nc338",4.52754212590694,4.48
"39","nc340",4.42343657048295,5.83
"40","nc344",4.38839531558238,4.02
"41","nc356",4.45334401278775,4.98
"42","nc358",4.46546945998461,4.57
"43","os420",4.45900416415509,4.83
"44","pa875",4.34777546041298,4.01
"45","r109b",4.50830137004376,5.92
"46","sc357",4.3448817728709,3.87
"47","sd44",4.68081234778538,4.25
"48","sg18",2.99686202764358,2.34
"49","tzi18",4.41188419170338,4.44
"50","u267y",4.46906655690717,4.78
"51","va17",4.36704338131152,4.7
"52","w117ht",4.38888280120291,4.49
"53","w153r",4.23345307706272,4.28
"54","wf9",4.37751021401654,3.98
"55","yu796ns",4.42507648052274,5.33
