"","taxa","s1","weight20kernels_BLUP.Hung_2012_1"
"1","a188",4.25021876047835,4.86
"2","a4415",4.51185144893216,5.74
"3","a679",4.31024897957942,3.95
"4","b2",4.5043793323812,6.01
"5","b46",4.305855951736,4.49
"6","b52",4.30696546023343,3.93
"7","b84",4.89477209287212,4.82
"8","b97",4.40653587413448,5.17
"9","c123",4.56388481385682,4.72
"10","ch9",4.24002574633335,5.33
"11","ci28a",4.43929992954213,4.39
"12","ci31a",5.02811347787538,4.5
"13","cml323",4.36468920100289,4.07
"14","cml333",4.52131330474603,4.07
"15","cml38",4.40301735903637,3.39
"16","cml69",4.47924862885311,4.64
"17","cml91",4.56602162753938,4.97
"18","cmv3",3.8411050387343,3.36
"19","de811",4.23092408872897,5.1
"20","e2558w",4.70229640918976,4.29
"21","f6",4.34632173700883,4.53
"22","h95",3.90569790329408,3.38
"23","hi27",4.51547217281527,4.1
"24","hy",4.81904437667164,4.42
"25","i29",3.8915644253615,2.37
"26","ia2132",4.31606241983497,4.42
"27","ki21",4.3191164868869,4.02
"28","ky228",4.44211933650801,4.15
"29","mo17",4.46597139302486,5
"30","mo44",4.16559767348641,4.58
"31","mo46",4.43125098426245,4.9
"32","mo47",4.31464910925366,4.21
"33","nc230",4.60611996998093,4.38
"34","nc236",4.40908207021566,3.87
"35","nc290a",4.26687592978455,4.59
"36","nc298",4.80636366171549,4.33
"37","nc300",5.18208758066309,6.08
"38","nc302",4.48834535964239,5.78
"39","nc306",4.34411433737422,5.13
"40","nc314",3.93193237649817,4.15
"41","nc318",4.66943754294053,4.16
"42","nc336",4.71702798694795,4.43
"43","nc350",4.53150450327164,3.74
"44","nc352",4.6937809889445,4.15
"45","nc366",4.60907539773276,5.99
"46","oh40b",4.65792551370257,5.85
"47","oh603",4.57298058230949,4.44
"48","p39",4.0323826437557,3.2
"49","pa875",4.32311087252114,4.01
"50","tzi16",4.35002002649266,4.25
"51","tzi9",4.47185787308808,4.65
"52","u267y",4.55569732309515,4.78
"53","va102",4.28536816375637,4.07
"54","vaw6",4.48141118744174,3.89
"55","w22rrstd",4.01972196697579,3.65
