"","taxa","s1","cobdiam_BLUP.Hung_2012_1"
"1","4226",24.7046988316498,26.15
"2","a214n",25.7739871210104,23.97
"3","a556",25.3703757807477,21.51
"4","a632",25.0204274223779,23.98
"5","a654",24.5527009077174,24.14
"6","a680",27.5357952866016,27.11
"7","b14a",25.4777976061095,24.26
"8","b37",25.0747837418632,26.23
"9","b46",24.9329510399248,28.1
"10","b52",24.3930045556696,26.98
"11","b77",24.6477191200503,23.37
"12","c103",24.7456950828591,24.99
"13","ci31a",25.9091164476872,24.93
"14","ci66",26.1936042378168,25.97
"15","cm7",24.2890601279992,24.66
"16","cml157q",25.8375785069539,28.06
"17","cml238",25.9508862876752,28.46
"18","cml254",25.7101473283967,22.41
"19","cml258",25.2484408570687,26.67
"20","cml264",25.6351043272616,25.56
"21","cml287",25.7279659126588,28.34
"22","cml332",25.5941986739814,26.25
"23","cml45",25.8146506760016,23.46
"24","cml69",25.5222739690408,26.32
"25","co255",24.1618842210135,27.46
"26","de811",25.4741321640322,26.11
"27","ep1",24.2156365269771,28
"28","f2834t",24.9097611549826,24.66
"29","f7",24.0157209824449,22.05
"30","h105w",24.9840431026174,28.48
"31","ia2132",24.3085251634827,24.54
"32","ki14",26.1032090672141,24.41
"33","l317",25.679131726973,25.08
"34","mo1w",24.9142508632865,25.65
"35","mo45",25.1065094545884,26.09
"36","nc238",25.268265644212,27.47
"37","nc304",24.8161802122564,22.97
"38","nc314",25.2890471843864,24.25
"39","nc318",24.2628367973438,21.68
"40","nc326",27.9651033937931,27.25
"41","nc350",24.2854473276689,23.27
"42","nc354",24.3737644988597,26.19
"43","oh43",26.9721516053282,26.27
"44","r109b",25.2669138490182,22.53
"45","r177",24.5975210759358,23.8
"46","sc357",24.3522266267588,20.59
"47","sc55",25.2300657777263,26.56
"48","sd40",26.4003309975591,25.78
"49","t234",25.499211456023,24.38
"50","tx303",25.5604686794186,26.66
"51","tx601",24.9218079894231,27.48
"52","tzi11",25.5013363061418,24.51
"53","tzi8",25.9929897571414,26.62
"54","w153r",24.4621009816626,21.97
"55","wf9",24.1019690439836,25.96
"56","yu796ns",25.0679971921457,25.16
