"","taxa","s1","cobdiam_BLUP.Hung_2012_1"
"1","4226",24.6522785982268,26.15
"2","a214n",25.6509920474856,23.97
"3","a239",24.9439781563437,24.64
"4","a634",24.9595288250181,24.74
"5","a635",25.3897883180167,22.98
"6","a659",24.5440435762904,25.03
"7","a661",24.6878776890175,26.37
"8","a682",23.4040176582303,21.41
"9","b105",25.6874742011053,24.98
"10","b64",25.0408451663106,27.46
"11","b75",24.9904448616801,24.37
"12","ci3a",24.7646857625604,29.06
"13","cm7",24.2599687323829,24.66
"14","cml10",25.5713388090214,22.73
"15","cml103",25.2816729999734,26.64
"16","cml11",25.6240996985977,22.13
"17","cml158q",25.776572456706,27.62
"18","cml321",25.8549591976245,26.48
"19","cml331",26.0484166173479,25.64
"20","cml341",25.6193995829285,27.46
"21","cml38",26.1189299934956,28.96
"22","cml5",25.727089205127,26.58
"23","cml52",25.6335454406408,23.1
"24","de2",26.7662798413527,30.88
"25","de3",25.7232294324764,27.07
"26","ep1",25.0050248253216,28
"27","f44",24.6416949291155,23.54
"28","f6",24.4985319403052,20.29
"29","h49",24.9540779142978,23.33
"30","i205",25.4115998412285,24.79
"31","ia2132",24.126476660778,24.54
"32","ky228",24.4026184289188,23.22
"33","l317",25.1556751001814,25.08
"34","m37w",24.6334346557456,25.77
"35","mo44",25.3018622038111,24.03
"36","mo46",25.2156420683272,23.76
"37","mog",24.632821499335,28.47
"38","mp339",24.7937579955209,25.44
"39","ms71",25.0787789646611,24.93
"40","nc260",24.9478627047054,22.23
"41","nc296",24.4131755511113,23.94
"42","nc310",27.0038952019265,26.2
"43","nc338",24.5674009740245,22.85
"44","nc340",27.1061665850562,27.59
"45","nc342",26.2346533662887,25.8
"46","nc358",24.4479371570985,23.77
"47","nc360",25.4437570016343,24.75
"48","nc366",25.437216530397,24.61
"49","oh43e",26.6775812706822,24.43
"50","r168",25.029428254367,21.88
"51","r229",27.3754397904104,26.77
"52","sc55",25.1993968092302,26.56
"53","sg1533",22.0592152771743,22.45
"54","va26",25.7591171806487,25.46
"55","va99",24.0171754671037,24.29
"56","wd",23.3038269935365,18.3
