"","taxa","s1","cobdiam_BLUP.Hung_2012_1"
"1","4226",24.6242706112628,26.15
"2","a272",25.2776955468973,20.44
"3","a556",25.2442055215005,21.51
"4","a654",24.9518534874678,24.14
"5","a679",26.0840332853126,26.35
"6","b84",27.2009046459075,28.49
"7","b97",24.0890987708185,25.1
"8","ch9",24.3728239771868,24.27
"9","ci21e",26.6326347082778,27.82
"10","ci28a",27.0445225327726,24.26
"11","ci64",26.5080144931375,28.98
"12","ci66",26.0066889667217,25.97
"13","cm105",25.3766286467759,25.4
"14","cm7",24.3487674379934,24.66
"15","cml103",24.9492805854823,26.64
"16","cml108",25.1235734557237,29.07
"17","cml158q",25.7304724735728,27.62
"18","cml220",25.7258385745244,29.41
"19","cml258",25.1398583165987,26.67
"20","cml332",25.669274175299,26.25
"21","cml341",25.4179659514662,27.46
"22","co106",24.4029565256896,25.01
"23","d940y",25.2310732791501,23.92
"24","f44",24.4147413783678,23.54
"25","f7",24.9004124120068,22.05
"26","ga209",24.9605453944652,23.26
"27","h91",24.8309441936664,25.1
"28","h95",25.3591694683463,26.83
"29","h99",25.0545144836226,25
"30","hi27",25.8656012411609,22.16
"31","i205",25.6879966593361,24.79
"32","il101",23.6915073985062,21.68
"33","il14h",23.794571704993,25.02
"34","ki14",26.2630751710242,24.41
"35","ky21",25.4885910359715,25.74
"36","ky228",24.4463751749098,23.22
"37","l578",24.9394533967109,26.36
"38","mo47",25.0830555876338,24.94
"39","ms153",24.8555352470302,26.82
"40","nc232",25.1862118261649,30.59
"41","nc302",24.3581019018937,24.17
"42","nc324",24.6474670713105,25.3
"43","nc338",24.5003140042093,22.85
"44","nc342",26.1652456369602,25.8
"45","nc350",24.11426781281,23.27
"46","oh40b",25.4240952237778,24.98
"47","oh43",26.522016373191,26.27
"48","pa91",25.1991320598239,25
"49","r177",24.5894099987717,23.8
"50","sa24",22.3434480136778,20.33
"51","sc213r",24.9186268108487,25.47
"52","sd40",26.3176874732636,25.78
"53","t234",25.1976149017314,24.38
"54","tx601",24.6572482155915,27.48
"55","tzi10",25.4102478237777,21.86
"56","tzi18",25.7739014937117,26.98
