"","taxa","s1","cobdiam_BLUP.Hung_2012_1"
"1","4226",24.7294784684683,26.15
"2","4722",21.3483707009302,24.48
"3","a554",23.1417199027405,23.49
"4","ab28a",24.8339955150812,25.02
"5","b104",26.5191143678452,26.5
"6","b105",25.789779034799,24.98
"7","b115",24.8537020789955,22.91
"8","b37",25.5514540998768,26.23
"9","b52",24.5366615560958,26.98
"10","b57",25.0143097891143,30.13
"11","b64",24.6319793605305,27.46
"12","b73",26.7691319780978,29.13
"13","b73htrhm",26.7439769992484,28.55
"14","c49a",24.5516495521532,29.4
"15","ch9",24.2213445081164,24.27
"16","ci31a",25.3790823077559,24.93
"17","cm105",25.5882783038692,25.4
"18","cm37",23.9540349447239,22.41
"19","cml14",25.8460313007714,23.67
"20","cml218",26.0377339997087,26.92
"21","cml281",25.611485908715,25.8
"22","cml321",25.5981375620194,26.48
"23","cml45",25.9028236744572,23.46
"24","cml77",24.9803595530271,29.49
"25","co106",24.4704144435297,25.01
"26","ga209",24.9671533395632,23.26
"27","h105w",24.1894698537881,28.48
"28","i29",24.0215478724282,24.51
"29","ia5125",23.9795907978359,22.8
"30","ids69",20.2973148219433,18.18
"31","il14h",23.3026509310724,25.02
"32","ki21",24.5188129497757,23.55
"33","ki43",25.5840251242136,23.9
"34","m14",24.8136320572468,28.23
"35","ms153",24.8255863642402,26.82
"36","mt42",24.1102560995202,21.17
"37","n6",24.366791008819,25.28
"38","nc236",25.199746588605,23.37
"39","nc260",24.0947054129121,22.23
"40","nc262",27.0070375021283,26.32
"41","nc302",24.1028134869582,24.17
"42","nc306",26.5809757448225,22.97
"43","nc314",25.3240218078738,24.25
"44","nc326",26.8145683962858,27.25
"45","nc33",24.6950244824852,24.17
"46","nc360",25.3491028172095,24.75
"47","nc362",25.3532704314421,23.45
"48","nd246",24.0104009418288,22.88
"49","oh40b",25.6363462494486,24.98
"50","os420",25.3232086447808,26.47
"51","r168",24.9992916771754,21.88
"52","sc357",24.5473673510927,20.59
"53","sd44",24.7031265740188,24.4
"54","tx601",24.7462369741223,27.48
"55","tzi16",25.651520964946,27.36
"56","tzi9",25.9452699263666,26.6
