"","taxa","s1","cobdiam_BLUP.Hung_2012_1"
"1","a188",24.2715139757564,22.86
"2","ab28a",24.8809532364228,25.02
"3","b115",25.0498698219867,22.91
"4","b14a",25.4508743276319,24.26
"5","b164",24.4085102682411,24.16
"6","b68",25.7648343881184,25.79
"7","b73",27.270149388288,29.13
"8","b84",26.9331655128809,28.49
"9","ci3a",24.8114856498102,29.06
"10","ci7",25.4743261532026,25.98
"11","cm174",24.9527684314353,25.91
"12","cm7",24.3930214815767,24.66
"13","cml108",25.3193500697455,29.07
"14","cml277",25.3448395302876,25.15
"15","cml322",25.8270459157856,25.48
"16","cml331",26.1046015920079,25.64
"17","cml38",26.1462450223701,28.96
"18","cml52",25.7331736625864,23.1
"19","cml69",25.6324743170209,26.32
"20","cmv3",24.4841727333799,24.7
"21","de2",26.8977170286094,30.88
"22","e2558w",25.6358795378675,21.26
"23","i205",25.5970246057092,24.79
"24","ia5125",24.1088112717357,22.8
"25","k64",26.8725607843668,27.77
"26","ki11",25.7354119539119,30.54
"27","ki14",25.7166848025424,24.41
"28","ki3",25.4646001193674,26.22
"29","ki44",25.3189872790379,24.67
"30","ky228",24.2764374268173,23.22
"31","l578",25.1115120615542,26.36
"32","mo24w",25.1228282719169,31.98
"33","mo46",25.2394537220239,23.76
"34","mo47",25.3302241553914,24.94
"35","ms153",24.8459199177736,26.82
"36","ms71",23.6429156912349,24.93
"37","n28ht",25.6814580922638,25.92
"38","nc236",24.9477745256783,23.37
"39","nc258",25.1602091949839,26.84
"40","nc310",26.9164819523036,26.2
"41","nc314",25.2916761172923,24.25
"42","nc324",25.2062558115013,25.3
"43","nc344",25.4321274231164,26.12
"44","nc346",24.152600092688,24.7
"45","oh40b",25.4083315171123,24.98
"46","oh43e",26.8867281575698,24.43
"47","pa880",25.5253063529589,26.43
"48","r109b",25.0965223766687,22.53
"49","r4",25.634801665732,25.84
"50","sc357",24.5498095793223,20.59
"51","sd44",25.0395404452761,24.4
"52","tx303",25.5469331793585,26.66
"53","tzi8",25.9324164100051,26.62
"54","w64a",25.2917727713768,23.26
"55","wd",23.1121475116688,18.3
"56","yu796ns",24.8726441140097,25.16
