"","taxa","s1","coblength_BLUP.Hung_2012_1"
"1","a188",121.768474016496,125.4
"2","a4415",124.556260604509,101.46
"3","a679",132.160928346143,147.37
"4","b103",135.809957293041,132.18
"5","b2",128.090116176746,148.93
"6","b46",137.865039828683,129.94
"7","b52",127.643104366482,151.14
"8","b84",130.816501849875,152.6
"9","b97",128.203788335812,128.17
"10","c123",138.482685848761,131.91
"11","ch9",123.639323427714,108.26
"12","ci28a",128.537038084307,131.47
"13","ci31a",123.457367435048,121.93
"14","cml322",126.944383327083,121.4
"15","cml328",125.13016584358,96.5
"16","cml38",127.046153508082,129.71
"17","cml61",126.540699450538,140.39
"18","co106",121.858353356272,107.6
"19","co255",118.507413596448,141.34
"20","d940y",129.187491786268,137.95
"21","de1",136.422836022707,156.72
"22","gt112",127.123001439417,124.36
"23","h105w",127.52515453985,133.22
"24","h84",130.962462229432,118
"25","hi27",126.145393471831,124.47
"26","hp301",121.901922615288,122.89
"27","hy",131.323692557279,117.56
"28","ids28",125.360931775476,110.44
"29","k4",125.83025955503,139.62
"30","l578",125.106585214712,120.28
"31","m37w",124.537208758609,122.8
"32","mo17",140.501069169023,156.82
"33","mo1w",123.937084775901,116.37
"34","mo47",130.148568398193,109.01
"35","n28ht",129.404469340066,131.33
"36","nc232",126.226482747789,133
"37","nc258",130.601093290213,129.1
"38","nc264",120.957537617775,118.34
"39","nc296a",129.774904137778,128.25
"40","nc300",131.476920510815,117.64
"41","nc304",122.639741481174,90.22
"42","nc314",121.436337015745,121.73
"43","nc33",125.050885892743,132.03
"44","nc336",132.690993416758,132.5
"45","nc342",132.040484409384,142.57
"46","nc348",122.457358520284,118.77
"47","os420",129.854114982853,132.01
"48","sg18",121.924905888678,131.06
"49","t232",127.833695989918,118.56
"50","tzi16",130.833301848439,120.82
"51","tzi18",127.079705435246,129.45
"52","tzi8",127.148563626089,118.69
"53","tzi9",125.010691524597,135.96
"54","u267y",124.363197597187,123.11
"55","vaw6",132.003337281696,152.47
"56","w22rrstd",129.600190477951,130.14
