"","taxa","s1","coblength_BLUP.Hung_2012_1"
"1","4226",124.891019508219,123.15
"2","a214n",132.546821063735,134.49
"3","a556",129.389556428925,105.51
"4","a632",131.644430433665,124.01
"5","a654",122.497455879331,119.9
"6","a680",131.080894150652,140.52
"7","b14a",133.144351472367,148.75
"8","b37",125.177198220062,146.1
"9","b46",139.388854547353,129.94
"10","b52",129.724162679418,151.14
"11","b77",126.625383564515,142.01
"12","c103",134.099586457994,178.24
"13","ci31a",125.463075835586,121.93
"14","ci66",121.972958990908,125.17
"15","cm7",121.599352302649,104.9
"16","cml157q",126.732819164415,131.56
"17","cml238",124.662728264622,117.17
"18","cml254",128.368712220536,126.39
"19","cml258",125.242626194914,132.38
"20","cml264",125.786653475505,121.51
"21","cml287",124.093351335782,143.08
"22","cml332",124.331437160388,127.89
"23","cml45",124.916842918308,128.72
"24","cml61",126.064093406801,140.39
"25","co125",122.793559892108,83.27
"26","de3",130.143534623541,126.57
"27","e2558w",123.337056434924,156.91
"28","ep1",124.060439380262,113.31
"29","f6",124.541748235683,119.12
"30","gt112",128.27842817676,124.36
"31","i29",124.195816250298,103.94
"32","ki11",125.85720213987,132.74
"33","ky228",125.095341870022,129.62
"34","mo1w",121.590117651456,116.37
"35","mo45",123.845639221573,148.29
"36","nc238",129.578937583209,124.03
"37","nc304",126.739988288821,90.22
"38","nc314",120.069164249797,121.73
"39","nc318",124.086051854273,118.83
"40","nc326",128.516186563543,116.67
"41","nc350",128.187023246568,106.99
"42","nc354",125.883595375794,118.96
"43","oh43",135.695083746385,143.3
"44","r109b",127.817406283454,108.36
"45","r177",132.192380821683,110.51
"46","sc357",124.318557463054,115.04
"47","sc55",125.235906793094,109.58
"48","sd40",128.682889164488,174.22
"49","t234",125.382672283077,133.11
"50","tx303",125.142749686284,117.34
"51","tx601",124.483717860821,128.18
"52","tzi11",124.785693945931,109.02
"53","tzi8",126.939992267082,118.69
"54","w153r",121.896217007384,107.83
"55","wf9",126.40135332615,130.22
"56","yu796ns",127.475562075484,99.13
