"","taxa","s1","coblength_BLUP.Hung_2012_1"
"1","a239",128.024814253256,121.81
"2","a634",132.568219182872,116.62
"3","a641",127.431061411846,118.61
"4","a659",126.540720260976,103.02
"5","b105",132.254182118419,138.58
"6","b2",129.748049201216,148.93
"7","b57",123.669782348269,126.48
"8","b68",134.114928981313,156.69
"9","b73htrhm",129.79669075434,122.23
"10","b77",126.112243365309,142.01
"11","ch70130",123.276640439355,129.99
"12","cm105",124.911000701853,127.66
"13","cml108",125.56821184301,129.48
"14","cml11",132.89158073775,142.15
"15","cml14",125.861983892489,113.87
"16","cml254",127.819392293637,126.39
"17","cml261",124.589373584378,130.39
"18","cml322",126.054761629345,121.4
"19","cml331",125.710940440658,124.7
"20","cml38",125.955588722117,129.71
"21","cml52",124.455424353456,118.55
"22","cml77",123.09720770978,131.37
"23","cml91",127.707894100111,140.55
"24","de811",132.56746454525,125.97
"25","e2558w",122.049176979308,156.91
"26","f7",124.193612499591,109.21
"27","h49",126.326455370831,124.24
"28","hp301",124.870262691725,122.89
"29","ids91",125.246236149425,120.47
"30","k55",125.183923040998,116.8
"31","ki44",123.333089816599,102.88
"32","ky228",123.493739799556,129.62
"33","l317",125.979265240166,154.25
"34","mp339",119.640347349427,137.16
"35","ms71",124.549579218023,131.43
"36","mt42",118.165119268759,109.36
"37","n192",130.026675112748,130.69
"38","nc222",125.670706034571,107.07
"39","nc250",124.284002850794,127.9
"40","nc260",133.897993828736,140.23
"41","nc262",133.351581049061,124.92
"42","nc290a",133.889196300983,134.14
"43","nc336",131.082837412744,132.5
"44","nc342",132.731831766426,142.57
"45","nc346",126.536381447002,136.71
"46","nc358",120.42349113646,127.51
"47","nc364",132.421069664102,149.57
"48","nd246",121.812167063691,129
"49","oh40b",129.191394552785,163.9
"50","oh43e",137.202093364369,126.04
"51","sc55",123.850462883725,109.58
"52","sd44",127.695945428532,146.78
"53","tzi11",123.698056154897,109.02
"54","tzi16",129.700529258574,120.82
"55","vaw6",130.447981992107,152.47
"56","w153r",125.2740111069,107.83
