"","taxa","s1","coblength_BLUP.Hung_2012_1"
"1","3316",124.978648608011,132.81
"2","a556",127.175977721859,105.51
"3","a641",125.904471905306,118.61
"4","a679",128.54405816512,147.37
"5","a682",132.827812633169,137.85
"6","b103",137.595774867329,132.18
"7","b104",134.802961325132,128.54
"8","b14a",132.698108654233,148.75
"9","b164",128.564738017952,140.71
"10","b76",131.383934048312,131.82
"11","ch70130",123.52876627419,129.99
"12","ci21e",127.143063355886,143.46
"13","ci64",120.640497973761,136.12
"14","ci7",129.678680048886,117.44
"15","cml154q",125.517815824869,149.54
"16","cml220",124.512685103516,123.1
"17","cml247",125.605832944968,113.43
"18","cml38",126.370443353002,129.71
"19","cml77",124.468171917809,131.37
"20","co106",122.609957699766,107.6
"21","e2558w",121.525465747134,156.91
"22","f6",122.904609540518,119.12
"23","h49",125.952122080128,124.24
"24","i205",135.193737950676,88.45
"25","il14h",116.016447776679,107.78
"26","k64",121.963026322522,132.56
"27","ki14",126.622817026827,126.99
"28","ki3",125.727519325401,107.58
"29","ki44",124.313005383837,102.88
"30","ky226",129.801931398433,114.87
"31","mo17",139.351528272032,156.82
"32","mo45",128.326379329651,148.29
"33","mo47",127.409563339177,109.01
"34","ms153",126.413444394527,123.74
"35","n28ht",131.53044878758,131.33
"36","nc262",136.311854871777,124.92
"37","nc264",121.218193025236,118.34
"38","nc294",127.251346632596,110.56
"39","nc298",124.291561384971,111.15
"40","nc33",125.801159019705,132.03
"41","nc340",121.637806903416,141.71
"42","nc346",127.069481947256,136.71
"43","oh43",137.756713088042,143.3
"44","oh43e",137.406171508543,126.04
"45","r109b",127.610622287113,108.36
"46","r177",134.456765019304,110.51
"47","r229",128.285607276053,121.74
"48","sa24",126.978272560947,158.65
"49","sc55",124.834092958368,109.58
"50","tzi10",124.856526745461,133.95
"51","tzi11",124.536419627125,109.02
"52","tzi8",126.059448566287,118.69
"53","va102",128.094873164984,140
"54","va26",133.822593340849,130.01
"55","va35",139.17476954489,150.08
"56","w22",130.170495368638,128.18
