"","taxa","s1","cobmass_BLUP.Hung_2012_1"
"1","4722",11.616459525476,15.19
"2","a239",14.6818939657418,11.88
"3","b10",17.5490242067133,31.69
"4","b115",14.8036719963991,17
"5","b76",17.3065081782588,17.39
"6","ci91b",15.134417424745,13.2
"7","cm7",13.4762070522956,9.83
"8","cml10",15.1739596441228,15.6
"9","cml11",15.2745275178823,13.33
"10","cml14",15.4389561104501,12.73
"11","cml228",15.1355386197015,12.1
"12","cml238",15.5851252302196,13.72
"13","cml247",14.886791008507,16.14
"14","cml258",15.0874041004845,14.5
"15","cml277",14.7788583265216,15.49
"16","cml332",14.8299796467244,14.95
"17","cml333",15.3889394901584,14.02
"18","cml91",15.9000810156722,18.74
"19","cmv3",13.3214028623025,6.51
"20","ga209",14.4410646691848,9.43
"21","h91",14.2914384082379,16.59
"22","hp301",9.56193251778222,9.14
"23","i137tn",14.5354228559506,11.77
"24","i205",17.3929934864701,9.32
"25","ids28",13.1012615969314,7.54
"26","il677a",11.1656489299741,14.44
"27","k148",15.3538453995861,16.66
"28","ki14",15.0453864096443,13.4
"29","ki43",15.1547574388959,12.68
"30","ky226",15.6318620887198,15.57
"31","ky228",14.8990331286699,13.5
"32","mog",15.0897950854887,20.45
"33","ms1334",14.6720912400758,15.95
"34","mt42",13.9332125646465,9.71
"35","n28ht",15.660190652882,17.09
"36","n7a",15.7425038244326,13.21
"37","nc300",15.1101148434661,15.77
"38","nc304",13.7610805776063,7.66
"39","nc33",15.0187289313812,18.77
"40","nc336",11.2808176748572,8.18
"41","nc338",12.9167239315138,9.94
"42","nc344",16.6215634696423,16.65
"43","nc368",16.2056308207221,14.51
"44","pa875",15.6669891751928,15.78
"45","r109b",15.4309249536457,10.81
"46","r168",16.8088724162223,11.67
"47","r177",15.8820133722718,12.57
"48","r229",17.2418219675471,15.99
"49","sg18",11.4026165244897,9.84
"50","tx601",14.9706413770234,18.39
"51","va85",16.4723621979668,16.91
"52","va99",15.3323392848127,17.54
"53","w117ht",14.7203394292398,5.93
"54","w22rrstd",13.0602883986537,12.26
"55","w64a",15.9637723750217,14.88
"56","wd",13.3170854853579,5.5
