"","taxa","s1","cobmass_BLUP.Hung_2012_1"
"1","4226",14.7677098239857,15.27
"2","a214n",16.0178657100817,11.48
"3","a556",14.9413096552483,14.93
"4","a654",13.5488583237121,10.34
"5","a680",17.8751600443742,17.29
"6","b14a",15.3947233848778,15.23
"7","b37",15.7212962935493,21.99
"8","b46",18.4997608888849,18.42
"9","b77",14.3846654477165,13.29
"10","ci31a",16.174618985011,13.77
"11","ci66",15.2199148742889,18.15
"12","cm174",13.1831883765008,13.25
"13","cm7",13.3325717012673,9.83
"14","cml157q",15.8811840504038,18.19
"15","cml238",15.5991119456228,13.72
"16","cml254",15.9490990235458,10.73
"17","cml258",14.9524982442931,14.5
"18","cml287",14.9605699596443,16.99
"19","cml322",15.2395441681341,14.95
"20","cml332",14.7054072912612,14.95
"21","cml341",15.6925587029839,16.74
"22","cml45",16.0049235433341,12.67
"23","cml69",15.0035530967799,15.98
"24","ep1",12.5365928207857,10.76
"25","f2834t",14.5396649323909,12.26
"26","f7",12.90658132193,7.68
"27","ga209",14.3504270170658,9.43
"28","gt112",17.1022476890682,16.18
"29","h95",14.4021637560558,15.41
"30","ia5125",12.2445611755733,6.41
"31","ids91",8.75721536968266,8.99
"32","il677a",11.1865224663234,14.44
"33","k4",15.2494474964167,15.01
"34","ky21",15.3153404310973,19.9
"35","l317",16.6237084748319,17.32
"36","mo18w",13.9100310846845,12.02
"37","mo44",16.2977600961295,18.67
"38","nc222",14.4534252920139,14.18
"39","nc238",16.5176757346151,19.78
"40","nc250",14.2781075333327,18.5
"41","nc260",15.8478981565332,16.1
"42","nc296a",11.272571922961,9.49
"43","nc304",13.3648098718825,7.66
"44","nc362",16.3936813255834,12.4
"45","nd246",13.4434977090718,14.16
"46","pa762",16.2272079649641,14.14
"47","pa880",15.248681099422,20.02
"48","r168",16.8937091640168,11.67
"49","r4",16.3696225466199,13.81
"50","sa24",11.7001448640419,13.13
"51","sc357",14.1299227185426,14.35
"52","t232",15.2433056852513,12.13
"53","tzi11",15.2504047448618,10.22
"54","w153r",14.1265147242419,8.74
"55","wf9",13.9640988045895,19.78
"56","yu796ns",15.6260162375454,12.04
