"","taxa","s1","cobmass_BLUP.Hung_2012_1"
"1","4722",11.319097481588,15.19
"2","a554",13.4241706299455,12.19
"3","a556",14.0554578533131,14.93
"4","a619",15.0487504601157,18.65
"5","b105",16.9019962448663,13.62
"6","b64",14.8022006850426,15.2
"7","b84",19.0985564429697,19.66
"8","c103",14.6668262938004,20.62
"9","ci28a",21.7111215015057,17.62
"10","cm105",12.8534065312151,14.94
"11","cm174",12.4918691009205,13.25
"12","cml108",15.2365642251097,18.36
"13","cml228",15.0174984596245,12.1
"14","cml254",15.9002019593944,10.73
"15","cml287",14.9619295740435,16.99
"16","cml314",15.5003065458021,18.14
"17","co255",12.3566316039002,13.17
"18","de1",14.8857679424024,23.66
"19","de2",14.9955871986191,24.38
"20","ep1",12.3982070499678,10.76
"21","ids28",12.6734469293098,7.54
"22","il677a",10.6945822633973,14.44
"23","ki3",13.8449120213044,13.34
"24","ki44",15.300849723764,12.32
"25","m37w",15.0977298194929,13.96
"26","mp339",14.2234946904975,13.17
"27","ms71",13.7479214273092,17.94
"28","nc222",14.3433540524458,14.18
"29","nc230",15.1687703037059,17.78
"30","nc258",14.5550113226889,19.13
"31","nc260",16.6917091057515,16.1
"32","nc294",17.8017784466352,13.27
"33","nc300",15.0796988958024,15.77
"34","nc304",13.4759842639681,7.66
"35","nc306",17.2018763449037,11.61
"36","nc310",17.4125357781425,19.57
"37","nc336",11.2043261794279,8.18
"38","nc338",12.9566990240023,9.94
"39","nc344",14.7152016759029,16.65
"40","nc356",14.0025783132282,10.77
"41","nc360",13.9974421714867,17.68
"42","nc364",13.338275468457,18
"43","nc368",18.0735357270504,14.51
"44","os420",16.1889093758273,17.37
"45","pa875",15.7718605191518,15.78
"46","sc213r",16.7101729616637,18.16
"47","sd40",14.5867505197792,26.3
"48","t232",15.4076744786351,12.13
"49","u267y",14.4740576223158,18.85
"50","va102",18.2497225861017,17
"51","va17",15.546954086212,15.72
"52","vaw6",15.1716596379525,14.41
"53","w182b",12.7519564940568,11.27
"54","wd",13.8015103139877,5.5
"55","wf9",13.9608323530525,19.78
"56","yu796ns",14.8234828899274,12.04
