"","taxa","s1","cobmass_BLUP.Hung_2012_1"
"1","3316",15.2239530513299,16
"2","a556",15.5177808744008,14.93
"3","a641",14.2512837105925,11.81
"4","a679",17.2164206647077,19.19
"5","a682",14.4644622230739,11.74
"6","b103",17.6818316773729,13.58
"7","b104",17.8828200877711,18.44
"8","b14a",15.5600665999279,15.23
"9","b164",15.6481662169303,12.89
"10","ch70130",14.2253246304184,12.2
"11","ci21e",17.2728744864409,19.58
"12","ci64",16.5089817212687,18.97
"13","ci7",15.6805931773105,12.83
"14","cml154q",15.1126628266169,31.58
"15","cml220",15.141507059581,14.89
"16","cml261",14.7600804597862,16.72
"17","cml341",15.0191636476151,16.74
"18","cml38",15.5006590632258,19.09
"19","co106",14.0359020098224,11.46
"20","de2",20.5359942614753,24.38
"21","ep1",12.9297114088615,10.76
"22","f7",13.0731213911094,7.68
"23","i29",12.530208539905,10.61
"24","ki21",14.8777948263571,9.79
"25","ki44",14.6955475498501,12.32
"26","ky21",14.9058255528511,19.9
"27","m37w",14.9992081954372,13.96
"28","mo18w",14.2959042227905,12.02
"29","mo1w",16.2198983165458,12.73
"30","mo46",15.7996596140919,12.84
"31","n192",16.3327908304839,13.74
"32","n6",13.9435143392567,15.77
"33","nc222",14.153166563804,14.18
"34","nc230",15.1245868568557,17.78
"35","nc232",15.8422984457235,21.07
"36","nc250",15.6721014831164,18.5
"37","nc262",15.8180032401035,12.52
"38","nc290a",16.4025096304205,15.2
"39","nc326",18.3376607830842,16.13
"40","nc338",12.4850386579203,9.94
"41","nc344",17.3289695185167,16.65
"42","oh40b",15.6013261232716,19.82
"43","oh43",15.942434858019,15.35
"44","oh603",16.3071296603647,6.97
"45","pa91",16.785439447632,16.26
"46","r168",16.7125512601504,11.67
"47","sa24",11.7809029099612,13.13
"48","t8",15.0710107514106,15.97
"49","tx601",14.6193997303878,18.39
"50","tzi10",15.235498363061,11.27
"51","tzi16",16.230697256068,14.73
"52","tzi8",15.2737281806341,12.58
"53","va35",15.6582905881353,16.15
"54","va59",16.2414706643576,12.17
"55","w117ht",14.6090965817506,5.93
"56","w22",13.2330258317561,10.75
