"","taxa","s1","ear_height_BLUP.Peiffer_2014"
"1","a239",65.5309424080882,59.421
"2","a6",90.1307556544178,116.416
"3","a619",63.6477784997716,56.27
"4","a634",72.8235712163955,72.218
"5","a661",66.3045059657848,71.051
"6","ab28a",84.6516599058,80.35
"7","b52",73.7932251253773,84.64
"8","b57",76.0795703714581,58.889
"9","b64",80.2144638653824,59.784
"10","ch70130",72.1198099667705,78.315
"11","ch9",66.6277920158329,47.956
"12","cml10",106.579702187738,116.862
"13","cml254",99.35158701118,117.797
"14","cml264",99.6736849046431,67.506
"15","cml277",98.3049527572531,99.797
"16","cml281",97.040607992956,100.664
"17","cml321",95.0268410833084,110.534
"18","cml38",97.6342667195709,94.155
"19","cml45",99.6665935865826,114.317
"20","cml61",100.263832634702,102.791
"21","cml92",90.7614238840153,92.737
"22","d940y",80.2082422838991,91.74
"23","f7",66.6903131083361,44.654
"24","h105w",78.7422378741528,73.061
"25","h91",73.6100386471732,83.76
"26","h99",70.0741849842985,41.01
"27","hp301",75.8707586823068,86.784
"28","ia2132",58.1043672400531,50.634
"29","ids28",72.7069885935317,94.555
"30","ids91",65.9028568884141,56.414
"31","k4",75.9682546365934,91.028
"32","ki14",93.8367017519758,108.244
"33","ky226",79.9619943951891,85.249
"34","m37w",81.0128124715094,75.786
"35","mo47",80.3269121387362,50.466
"36","n192",76.7591092040594,65.291
"37","nc262",70.2942424567101,45.1
"38","nc290a",68.6190617248048,56.08
"39","nc296",75.1672734145563,86.893
"40","nc304",76.5164318661258,40.577
"41","nc314",72.6369820214323,66.04
"42","nc318",88.9117613496204,87.802
"43","nc324",71.8633612659335,64.494
"44","nc338",82.871574493333,97.99
"45","nc342",72.0636145070154,84.393
"46","nc346",74.5808299375102,86.212
"47","nc352",75.4654833312518,77.848
"48","nc362",75.0912373183567,67.442
"49","nc366",88.0547318040692,81.2
"50","oh43e",62.0788866178386,47.636
"51","oh603",75.2560819056536,57.354
"52","pa91",70.6879156966854,78.08
"53","r4",70.1456767797062,70.728
"54","sd40",71.3838616828297,86.679
"55","t232",84.5193419023424,100.343
"56","w22",60.2693564710975,64.623
"57","w22rrstd",59.0079549575934,61.743
