"","taxa","s1","ear_height_BLUP.Peiffer_2014"
"1","a188",70.9333540736595,45.442
"2","a4415",79.8379092937884,63.112
"3","a679",75.0152116661085,74.95
"4","b103",70.7143208409287,59.409
"5","b2",74.492919831743,89.264
"6","b46",69.4695669646353,60.34
"7","b52",72.3679094417594,84.64
"8","b84",77.1534750010405,81.188
"9","b97",69.6190318926997,83.785
"10","c123",66.9199645544574,61.586
"11","ch9",68.2896595942741,47.956
"12","ci28a",81.3045298065698,84.648
"13","ci31a",71.1280448334035,81.45
"14","cml322",96.765326389779,87.098
"15","cml328",90.4102438036738,112.074
"16","cml38",97.356252827741,94.155
"17","cml61",98.1883073304734,102.791
"18","co106",72.2060556613527,48.132
"19","co255",63.2163146069886,60.388
"20","d940y",77.4843827071386,91.74
"21","de1",71.7198550327229,77.472
"22","gt112",77.2453759304372,91.634
"23","h105w",79.5516551813313,73.061
"24","h84",77.3006140955583,57.706
"25","hi27",89.8351096125132,111.217
"26","hp301",77.5811534447554,86.784
"27","ids28",72.5401293402143,94.555
"28","ids69",65.7338908178239,54.9
"29","il677a",58.9741405090906,58.089
"30","k55",68.9196763392134,62.404
"31","ky226",79.6974038257471,85.249
"32","m14",70.039520728691,58.113
"33","mef156552",59.6970080225477,67.118
"34","mo46",79.1243169389329,62.334
"35","mo47",82.8066466444414,50.466
"36","mt42",67.4017369277981,51.204
"37","nc250",70.3422043750072,60.694
"38","nc264",85.401627621394,79.287
"39","nc296",75.5772106595821,86.893
"40","nc298",82.2090800141482,83.683
"41","nc300",88.2854864325016,82.71
"42","nc304",78.2510818790038,40.577
"43","nc328",81.2423331030723,84.076
"44","nc33",81.1279880860352,112.044
"45","nc346",75.9737050563774,86.212
"46","nc348",82.4571028948049,80.001
"47","nc364",69.5511122779288,74.068
"48","nd246",64.3147182867375,60.324
"49","os420",67.5864927915837,74.147
"50","pa880",77.4735863039071,81.284
"51","tx601",90.7313832030335,117.134
"52","tzi10",92.8987280392987,104.863
"53","tzi16",91.5315039584643,107.021
"54","tzi9",93.3364450370552,101.324
"55","u267y",81.9063876107214,65.973
"56","va22",68.4537341540743,74.413
"57","vaw6",80.3716126439271,48.153
