"","taxa","s1","ear_height_BLUP.Peiffer_2014"
"1","4226",72.2299328144117,89.529
"2","a214n",77.4102419401577,103.286
"3","a556",72.0659346630571,52.426
"4","a632",68.644206821588,83.075
"5","a654",61.4539922986292,48.17
"6","a680",81.6589244997745,86.572
"7","b14a",66.3467321069982,73.804
"8","b37",62.0088159062719,75.966
"9","b46",68.7859275669158,60.34
"10","b52",71.8501880936194,84.64
"11","b77",77.7503148784254,66.267
"12","c103",65.9437611656372,61.395
"13","ch70130",69.2758267616117,78.315
"14","ci31a",74.1713502165741,81.45
"15","ci66",73.2273842100593,58.794
"16","cm7",67.0319897277305,38.651
"17","cml157q",94.6097789728269,125.408
"18","cml238",95.0727087240652,80.111
"19","cml254",98.6987441787579,117.797
"20","cml258",100.330162138371,116.134
"21","cml264",98.2438518848224,67.506
"22","cml287",95.3476833322119,117.657
"23","cml322",94.1741588607333,87.098
"24","cml341",99.1328834553803,107.732
"25","cml45",98.7596064941993,114.317
"26","cml61",97.3168296262182,102.791
"27","cml91",92.7047188147053,92.071
"28","ep1",68.0908766636033,51.372
"29","f2834t",84.1263023745924,66.969
"30","f6",81.2771239188881,106.275
"31","h91",69.5603764252744,83.76
"32","ia2132",54.4920974591779,50.634
"33","ids28",71.8119908113457,94.555
"34","il14h",47.7226338011991,64.009
"35","k64",82.241524464779,91.896
"36","ki2021",96.3538593372162,120.152
"37","ki3",98.3655370762502,79.09
"38","mef156552",57.9148806569561,67.118
"39","nc232",78.2722060030007,67.639
"40","nc264",85.2209432484919,79.287
"41","nc300",87.9289709881213,82.71
"42","nc314",68.646484905629,66.04
"43","nc326",82.6782060125704,85.584
"44","nc33",78.7536186768154,112.044
"45","oh40b",62.1564965109213,69.162
"46","pa762",62.8275260128679,62.994
"47","r109b",71.7567245848441,70.688
"48","sc357",81.0905033902287,70.031
"49","sd40",69.2715900655085,86.679
"50","sg1533",92.5042245681022,94.602
"51","tx601",91.1298584032124,117.134
"52","tzi18",94.7619699890928,100.547
"53","tzi9",93.0643577431572,101.324
"54","va22",73.1669208086787,74.413
"55","w153r",68.2419203535503,49.881
"56","w22",62.4991917272211,64.623
"57","wf9",62.6181120480829,75.022
