"","taxa","s1","ear_height_BLUP.Peiffer_2014"
"1","3316",85.771470370413,82.83
"2","a632",72.0816231412137,83.075
"3","a641",65.7649705012668,58.157
"4","b105",74.4047767307587,66.74
"5","b109",80.3466601866148,84.723
"6","b164",69.0107927135532,74.138
"7","b46",70.4702924666973,60.34
"8","b57",75.7015265937114,58.889
"9","b75",74.2634799620802,71.066
"10","b84",77.1274960251228,81.188
"11","ci28a",87.2678608713508,84.648
"12","cm174",59.429229884983,55.326
"13","cm7",67.3385681556939,38.651
"14","cml103",91.635051204545,112.703
"15","cml11",109.392156930757,115.798
"16","cml14",96.8042295362184,93.067
"17","cml154q",96.5058581900028,85.582
"18","cml218",91.5621256518873,90.608
"19","cml254",99.3286959335916,117.797
"20","cml311",92.6017982850668,93.454
"21","cml328",89.7076971832208,112.074
"22","cml331",88.3281151261443,111.731
"23","cml91",91.2166620186358,92.071
"24","ep1",69.4780728089003,51.372
"25","h99",70.9399011133658,41.01
"26","hp301",77.6270557212748,86.784
"27","i137tn",82.3035098815436,76.725
"28","ia2132",58.5311741618952,50.634
"29","ids69",65.8092571644293,54.9
"30","k4",75.6815895609959,91.028
"31","k64",82.2745603416201,91.896
"32","ki43",95.2207250740387,71.374
"33","mef156552",60.6026885228243,67.118
"34","mo18w",88.7332372274177,89.682
"35","mo1w",74.7726053778871,64.683
"36","mo24w",77.4975912334267,105.028
"37","mo44",71.6957837733279,65.034
"38","mo46",72.7845699686398,62.334
"39","ms153",70.1987820585258,74.821
"40","nc236",79.4160571939768,76.76
"41","nc250",71.5575794053807,60.694
"42","nc296a",83.535131545303,74.104
"43","nc338",84.9430960385971,97.99
"44","nc344",69.7122106175448,77.708
"45","nc360",79.6517548243788,73.518
"46","nc364",70.7653606218876,74.068
"47","nc368",78.284600816103,76.379
"48","oh43e",59.2761795987756,47.636
"49","pa880",76.7660444308207,81.284
"50","r109b",70.6986903199532,70.688
"51","r229",85.4904462612037,83.373
"52","sd40",71.502989778792,86.679
"53","t234",77.5918647148216,73.206
"54","va35",81.9509930577371,66.107
"55","va85",66.9076509300859,75.071
"56","w182b",57.7303106795733,49.271
"57","w22",63.5971713835652,64.623
