"","taxa","s1","ear_height_BLUP.Peiffer_2014"
"1","3811",78.4190701319301,104.189
"2","a554",67.7366832651334,54.048
"3","a661",67.1685844780483,71.051
"4","a682",65.4376638286596,64.128
"5","ab28a",75.4701792201494,80.35
"6","b164",67.8021644982001,74.138
"7","b2",74.6579068281782,89.264
"8","b46",68.8946389978742,60.34
"9","b73htrhm",85.8309059597538,83.888
"10","b77",78.4658770682035,66.267
"11","b84",75.7827836225409,81.188
"12","ci28a",82.8905193855451,84.648
"13","cm174",58.2262871108769,55.326
"14","cm7",67.5252324952863,38.651
"15","cml154q",97.1535667286002,85.582
"16","cml228",92.7305766269194,106.461
"17","cml238",97.1312915514467,80.111
"18","cml247",99.5648566997712,89.752
"19","cml277",101.930355830471,99.797
"20","cml341",101.218059024131,107.732
"21","cml91",94.3749619339058,92.071
"22","cml92",93.2674929820471,92.737
"23","e2558w",81.5154432806658,75.859
"24","f2834t",84.9720698153787,66.969
"25","f44",83.5837945889646,110.957
"26","h49",68.6554089492774,77.191
"27","h99",70.235071841718,41.01
"28","hi27",90.2944534744838,111.217
"29","i137tn",85.7697139196033,76.725
"30","ki14",94.0691020806204,108.244
"31","mef156552",60.2908867523743,67.118
"32","mp339",84.8389439980858,90.395
"33","mt42",67.2132354767648,51.204
"34","nc222",76.6648801555592,89.136
"35","nc230",71.3001622270714,71.035
"36","nc232",81.1604798947784,67.639
"37","nc290a",59.5659240778763,56.08
"38","nc294",75.780707544981,83.583
"39","nc296",82.3778240878064,86.893
"40","nc296a",82.0095826661758,74.104
"41","nc300",88.7712300709228,82.71
"42","nc304",76.4628714231056,40.577
"43","nc310",82.7829526811141,83.777
"44","nc318",85.6866142578148,87.802
"45","nc320",84.9026897545185,95.113
"46","nc326",83.8162626998112,85.584
"47","nc33",80.8837870519392,112.044
"48","nc356",82.9167228175658,82.258
"49","sa24",74.9919151279477,78.615
"50","sd40",68.2089264703196,86.679
"51","sg18",90.2041841221444,103.899
"52","va17",73.7313324931339,65.691
"53","va22",72.5025374542492,74.413
"54","va35",80.8324544346549,66.107
"55","va99",79.1567377619027,61.204
"56","w117ht",70.4099755160925,48.839
"57","w22rrstd",63.2796621617328,61.743
