"","taxa","s1","earmass_BLUP.Hung_2012_1"
"1","3316",60.6595487504599,81.74
"2","3811",66.6576800600952,68.65
"3","4226",62.6462256587302,72.06
"4","a239",64.4876807346794,70.33
"5","a4415",63.494674912098,65.13
"6","a659",66.0858373689263,51.67
"7","a682",67.0695485584461,52.73
"8","b57",63.9654212036228,91.43
"9","b73htrhm",79.5849728829896,97.93
"10","b97",64.3138006518149,72.99
"11","ci21e",69.5558093358932,83.27
"12","ci31a",64.4964887031525,62.01
"13","ci91b",63.7596534425641,67
"14","cm37",51.6930925285829,40.67
"15","cml157q",64.284278322395,78.56
"16","cml218",62.3890040596163,68.67
"17","cml264",64.0607228591116,62.22
"18","cml5",63.9392185317648,68.86
"19","cml61",65.0356136161585,76.19
"20","d940y",61.4883897963055,53.78
"21","de1",75.7128866284125,95.31
"22","de811",66.3983379052326,74.14
"23","h84",72.6260429252503,68.36
"24","h91",63.8703151459087,71.48
"25","h99",66.2642691616609,68.61
"26","hi27",63.8866716238212,68.33
"27","ia5125",57.6389699824868,37.29
"28","il677a",52.8094943350121,61.49
"29","ki2021",61.7118173295494,72.11
"30","m14",63.167081062588,71.46
"31","m162w",72.8967945925747,67.89
"32","n192",74.032678377334,59.6
"33","n28ht",68.8712242513808,76.47
"34","nc258",70.550277101112,77.9
"35","nc318",68.7910276342458,60.79
"36","nc326",79.6115551993308,73.23
"37","nc328",78.7450442595954,70.06
"38","nc336",57.7361777570766,61.81
"39","nc344",72.4321835688571,73.42
"40","nc358",60.9003783627872,63.06
"41","nc364",71.4489969466684,80.01
"42","nc368",71.3412823761185,62.84
"43","nd246",59.4743122452639,47.27
"44","oh40b",71.1554514448821,69.33
"45","oh43e",74.3592181472577,71.24
"46","os420",65.7635634620984,62.94
"47","p39",47.5496425440555,44.8
"48","pa91",75.165887660142,76.95
"49","r168",63.9390870053759,48.28
"50","sc55",63.067536726426,63.1
"51","tx303",64.2440563235822,61.77
"52","tzi16",66.0266055763177,67.29
"53","tzi8",64.3711295381668,45.88
"54","va102",77.2092225688208,77.21
"55","va17",72.011128943434,66.52
"56","w22",63.9645470377602,51.99
