"","taxa","s1","earrowno_BLUP.Hung_2012_1"
"1","3316",13.3222227946282,16.08
"2","3811",13.9529259171766,15.24
"3","a6",13.4235297395735,14.11
"4","a635",13.8444645414921,13.47
"5","a641",13.6427504599793,14.04
"6","a654",13.6189290960735,11.52
"7","b115",13.5391042902992,13.35
"8","b46",13.6756233580737,15.48
"9","b73",16.1623495207431,16.57
"10","b73htrhm",16.1337510799493,17.87
"11","b84",14.6386509202879,15.23
"12","ci1872",13.962922510547,12.14
"13","ci28a",14.5978371654788,12.79
"14","ci3a",13.7798302035628,16.75
"15","cm105",14.4071737000669,13.98
"16","cml108",13.2819380576674,15.13
"17","cml11",12.9554976925717,11.61
"18","cml14",13.3520934676292,13.79
"19","cml228",13.253373594539,12.87
"20","cml321",13.5351840735061,14.04
"21","cml332",13.5000686057854,14.54
"22","cml52",13.3624959473239,11.49
"23","cml77",13.3139019492816,15.15
"24","cml92",13.7985420168822,14.45
"25","co106",13.4066903055799,13.9
"26","de1",13.7520113610781,15.08
"27","de2",13.7525294034083,15.66
"28","de3",13.8263455515145,14.25
"29","de811",13.9494946469719,15.41
"30","h105w",13.5426418599027,15.43
"31","h91",13.8722041969259,14.64
"32","h95",14.1631971192614,15.82
"33","h99",13.8464958756297,12.38
"34","hp301",13.4501878671744,13.28
"35","i205",13.9826043177571,13.45
"36","k55",14.2623467558394,14.22
"37","ky21",13.6944166615799,12.51
"38","m162w",13.8640794384538,14.03
"39","nc264",13.5240914755972,13.03
"40","nc294",15.1541364422659,15.69
"41","nc304",12.9397293318156,11.43
"42","nc318",13.5623093989223,13.63
"43","nc338",12.8421365821094,13.58
"44","nc340",13.0006783177933,13.52
"45","nc362",14.0061349388069,13.62
"46","nc364",13.8773169820029,14.21
"47","pa875",13.8553742466715,13.25
"48","r109b",13.6478531622456,12.65
"49","r229",15.6422642934308,14.17
"50","sa24",12.7223799698121,13.27
"51","t232",13.735329059221,12.21
"52","tzi25",14.5587146366678,13.65
"53","va14",13.6952642671114,15.76
"54","va59",12.7304241261238,11.82
"55","w117ht",13.4967275718141,13.07
"56","w64a",14.3273752006119,13.16
