"","taxa","s1","earrowno_BLUP.Hung_2012_1"
"1","3316",13.9291127245296,16.08
"2","a556",13.8273713947672,12.37
"3","a641",13.7490977749809,14.04
"4","a679",15.285801786024,17.18
"5","a682",12.3544017074726,10.44
"6","b103",14.0306104322882,14.3
"7","b104",15.2479107417193,13.5
"8","b14a",14.5117443872158,13.37
"9","b164",14.2729220587231,14.96
"10","b76",14.2699376147015,13.59
"11","ch70130",13.5422652769629,12.03
"12","ci21e",14.7791727013603,14.31
"13","ci64",13.7306645150522,16.59
"14","ci7",13.9530881564352,13.37
"15","cml154q",13.1354791192752,14.58
"16","cml220",13.309887211991,14.25
"17","cml247",13.5497811375019,14.29
"18","cml38",13.425801922004,15.04
"19","cml77",13.2592519287858,15.15
"20","co106",13.5000053628383,13.9
"21","e2558w",13.6002295379715,12.26
"22","f6",13.5905273163869,10.15
"23","h49",14.2529720131426,14.89
"24","i205",14.3141769003345,13.45
"25","il14h",13.0443559409924,13.07
"26","k64",13.9169939036183,13.3
"27","ki14",13.9166865824941,12.27
"28","ki3",13.7334385822847,13.08
"29","ki44",13.2028557935555,12.04
"30","ky226",13.8022153253899,13.26
"31","mef156552",13.3100925980805,11.8
"32","mo44",13.5798445482674,14.97
"33","mo46",13.8970034433017,12.69
"34","ms1334",13.5224651309687,13.01
"35","n192",16.0506479069868,14.5
"36","nc260",13.2857810614311,13.09
"37","nc262",13.4145167445134,15.11
"38","nc290a",13.4330146266972,15.94
"39","nc296a",12.7973962785262,13.5
"40","nc328",16.6334790137256,16.47
"41","nc338",12.7084250959371,13.58
"42","nc344",13.4115948764431,14.49
"43","oh40b",13.8160465002456,12.69
"44","oh43",14.206519399622,14.13
"45","pa91",14.6025205049398,15.23
"46","r168",13.5285151666323,14.56
"47","r177",13.8208047291911,12.9
"48","r4",14.0785413853861,14.64
"49","sc357",13.4017484333084,13.52
"50","tx601",13.0592801294845,13.94
"51","tzi10",13.4135797342937,13.14
"52","tzi25",14.6792789234318,13.65
"53","u267y",13.5926193856153,12.95
"54","va22",13.128460141657,12.99
"55","va26",13.9627128737766,12.93
"56","w182b",13.3390888316879,12.17
