"","taxa","s1","earrowno_BLUP.Hung_2012_1"
"1","4722",13.2324621439511,12.41
"2","a239",13.8417284606313,13.53
"3","b10",14.6463011605005,13.87
"4","b115",13.6327148810073,13.35
"5","b76",14.1204167563045,13.59
"6","ci91b",13.5069646668102,13.89
"7","cm7",13.5878150430273,13.37
"8","cml10",13.3526658334098,12.31
"9","cml11",13.4457041722159,11.61
"10","cml14",13.4400177075903,13.79
"11","cml228",13.3338805524617,12.87
"12","cml238",13.5376323018006,14.33
"13","cml247",13.5694649347215,14.29
"14","cml258",13.4848888274913,13.61
"15","cml277",13.3273594241337,10.68
"16","cml332",13.581182283278,14.54
"17","cml333",13.6875127119805,12.29
"18","cml77",13.3400193634611,15.15
"19","cml92",13.7890773415692,14.45
"20","f7",13.3851525073622,12.29
"21","h84",14.1381286598399,15.06
"22","hi27",13.5554455506821,15.23
"23","hy",14.2825670730633,15.51
"24","i137tn",13.33560776382,11.08
"25","ia5125",13.4571185192324,13.41
"26","il14h",12.8765968181571,13.07
"27","il677a",13.2062460267101,13.89
"28","ki11",13.5964063840156,12.93
"29","ki3",13.4119684524965,13.08
"30","ky21",13.8018358751196,12.51
"31","ky226",13.8216299140046,13.26
"32","mo46",13.8360439017641,12.69
"33","mog",13.5921958317237,16.86
"34","ms153",13.5369243513415,13.62
"35","mt42",13.3212011257034,14.23
"36","n28ht",14.4836591684031,16.72
"37","nc296a",12.7761688439991,13.5
"38","nc300",13.4244736548433,12.58
"39","nc326",15.9867739949025,16.34
"40","nc328",16.0119244152792,16.47
"41","nc33",13.6692063600154,12.62
"42","nc340",13.399145341473,13.52
"43","nc366",13.5288696792927,11.74
"44","pa762",13.7572495236816,13.88
"45","pa91",14.3391782730548,15.23
"46","r109b",13.7087028506481,12.65
"47","r168",13.5355240068827,14.56
"48","r177",13.7739360360564,12.9
"49","sg1533",14.3663599801202,13.89
"50","t232",13.8888908054742,12.21
"51","tx303",13.6788046603788,13.04
"52","va59",12.946888847999,11.82
"53","va85",13.8463521509805,12.14
"54","vaw6",13.8523766970071,14.57
"55","w22",13.8971975977412,12.81
"56","w64a",14.1262819392039,13.16
