"","taxa","s1","GDD_ASI_BLUP.Peiffer_2014"
"1","a239",25.2806545306085,11.846
"2","a634",26.4381158322485,18.322
"3","a641",23.9984307707625,10.32
"4","a659",23.4008022636433,19.874
"5","b10",27.6286470853065,49.876
"6","b104",25.2604384768567,35.718
"7","b105",22.9162335157483,22.977
"8","b2",24.4741508347266,18.134
"9","b57",23.2614982445337,32.08
"10","b68",22.9225034668453,43.906
"11","b73htrhm",16.0976141971641,14.862
"12","ch70130",23.443568708943,42.747
"13","ci7",24.4541205934961,17.736
"14","ci90c",23.8131061953178,31.753
"15","cm105",23.8277850961823,21.004
"16","cm37",19.4768452947278,11.81
"17","cml108",22.475361108743,6.117
"18","cml11",35.870229557844,36.296
"19","cml261",25.5234846659253,56.51
"20","cml314",23.7107640166629,40.486
"21","cml45",25.9498834455576,23.138
"22","cml5",28.0654405004361,33.314
"23","cml52",24.8960123570455,34.104
"24","cml69",24.5886587794384,12.507
"25","co125",21.2370680383186,11.077
"26","de1",26.3872269056238,20.405
"27","ep1",20.3319992180021,28.085
"28","f2834t",23.2760939126061,29.532
"29","h91",27.0391450205595,19.307
"30","il677a",23.4634577301228,45.341
"31","ky228",23.6036542571084,43.208
"32","mo46",24.1334542069257,55.254
"33","ms153",21.5874735610139,28.908
"34","n6",24.1631641483154,26.049
"35","n7a",25.2875203891898,13.383
"36","nc222",23.9484764194975,16.641
"37","nc260",32.6913465170266,34.848
"38","nc264",17.8633132708354,31.684
"39","nc304",16.7095795556007,21.937
"40","nc328",17.4545931229491,13.493
"41","nc352",17.3576481258866,37.042
"42","nc354",20.4913318134037,-1.923
"43","oh40b",21.3564070504508,48.703
"44","pa91",25.1009927025676,42.351
"45","r109b",24.123190703786,21.816
"46","r168",26.9833031515606,-0.999
"47","r229",18.7269424707702,28.264
"48","sa24",26.6463647622919,30.558
"49","t8",19.0880361606089,6.833
"50","tx601",21.3026214624067,42.605
"51","tzi25",22.1638636169723,23.488
"52","tzi9",25.3159318215018,6.711
"53","va99",22.9558178512956,38.797
"54","w117ht",21.9975091495158,10.796
"55","w22rrstd",23.0770163749994,30.631
"56","wf9",29.0405118090194,16.314
