"","taxa","s1","GDD_DTA_BLUP.Peiffer_2014"
"1","4226",855.753567081201,805.712
"2","a214n",895.384154520535,1036.566
"3","a239",834.461715117688,814.5
"4","a634",834.826230504555,801.161
"5","a635",845.634250122456,829.729
"6","a659",841.465310044236,734.269
"7","a661",823.038858400216,724.82
"8","a682",824.261716965232,769.626
"9","b105",857.157172649645,898.722
"10","b57",887.38649114916,844.088
"11","b64",879.080298033697,708.103
"12","b75",880.671644901416,827.124
"13","ci3a",875.567103340327,909.184
"14","cm7",841.062773406695,717.984
"15","cml10",1039.02775327971,1010.98
"16","cml103",991.688710362023,970.057
"17","cml11",1036.16158875533,1069.769
"18","cml228",1038.11082433854,1084.046
"19","cml311",1006.85575352416,1104.246
"20","cml322",973.703820488216,972.846
"21","cml323",961.57926126827,972.697
"22","cml333",1003.60253384675,1000.515
"23","cml5",1036.095875434,1111.122
"24","cml77",981.341679550388,997.94
"25","cml91",990.472720752924,998.111
"26","co255",798.231282217174,687.597
"27","de1",865.990410710353,904.642
"28","de811",881.878956751682,934
"29","h91",852.35113337589,868.145
"30","i137tn",943.657742404001,951.772
"31","ids28",858.969330705331,848.46
"32","k55",920.419802258106,882.94
"33","ki3",1059.18789262267,1000.371
"34","ky228",900.345450266453,937.13
"35","mef156552",803.21966346336,750.997
"36","mo24w",898.041087605335,907.983
"37","mo44",867.315184862416,835.098
"38","mo45",875.055503401858,876.4
"39","ms153",850.474173304921,800.249
"40","mt42",827.501337914811,700.97
"41","n192",825.315372855849,771.939
"42","nc236",901.355226353954,981.402
"43","nc264",933.079265354083,891.602
"44","nc290a",844.704700534107,895.454
"45","nc314",897.013842197179,875.254
"46","nc33",911.355653287084,986.355
"47","nc336",978.225109972409,998.919
"48","nc362",895.318346590156,897.506
"49","r229",890.294382514479,876.903
"50","sd40",849.598424977084,860.275
"51","tzi16",970.91469980177,972.022
"52","va102",820.649720100313,812.147
"53","va17",869.497638979097,884.698
"54","va99",896.388123429842,852.229
"55","w22",829.134076280901,844.94
"56","wd",772.637230194738,702.768
