"","taxa","s1","GDD_DTS_BLUP.Peiffer_2014"
"1","4722",894.648658034761,958.091
"2","a188",868.15779178793,737.854
"3","a679",826.310781569784,806.035
"4","ab28a",949.433214956933,1026.691
"5","b115",890.07648458956,936.216
"6","b14a",834.976970769694,892.743
"7","b68",882.242671539322,949.673
"8","b73",876.176229455975,872.341
"9","b84",894.152265094774,902.409
"10","ci3a",884.169262554563,950.213
"11","ci7",915.452263191594,955.44
"12","cm174",762.64685785698,754.755
"13","cm7",856.344795670148,724.544
"14","cml108",1021.94065246231,1013.284
"15","cml38",1055.73783943658,1051.265
"16","cml69",1044.63014743769,1067.936
"17","cml92",1001.44322534274,983.394
"18","d940y",948.814332413821,1062.952
"19","ep1",858.989648560881,732.504
"20","ga209",937.611980073607,1075.561
"21","h99",898.692513776649,831.291
"22","hi27",1000.7681935477,1063.474
"23","hy",891.829199194531,898.357
"24","i205",861.511320640504,880.103
"25","k148",900.712203643083,945.607
"26","k4",901.359801476548,983.005
"27","k55",946.002298359043,907.847
"28","ki3",1079.30474864515,1027.345
"29","ki44",1024.92016308569,1035.258
"30","ky228",911.98980417353,989.802
"31","mo44",900.073690407233,884.165
"32","ms71",813.66857189389,832.853
"33","mt42",843.056573651752,715.959
"34","n28ht",906.303370244723,878.657
"35","nc250",914.818562203932,878.166
"36","nc258",912.743203111527,946.724
"37","nc290a",872.156101152533,930.652
"38","nc296",988.877706490746,977.76
"39","nc296a",990.74232037563,989.929
"40","nc306",903.043924237124,911.786
"41","nc320",960.429143730878,958.149
"42","nc356",990.867301963551,947.043
"43","nc366",990.896701224614,1009.123
"44","oh43",832.376060386513,809.775
"45","oh603",921.739625915456,997.077
"46","sc213r",1022.52563660321,1059.095
"47","sd40",877.639433503757,890.128
"48","sg1533",922.661795557026,915.273
"49","t8",918.322496000175,902.446
"50","tzi16",1006.68500649317,977.729
"51","tzi18",1048.08937627623,1014.377
"52","tzi9",1036.12033084869,991.801
"53","va14",912.283929374572,923.857
"54","va22",904.522032916439,906.426
"55","w153r",849.480064691425,826.563
