"","taxa","s1","GDD_DTS_BLUP.Peiffer_2014"
"1","4722",895.617664505264,958.091
"2","a272",964.871183999501,871.287
"3","a554",821.537350970263,725.876
"4","a556",862.586380601079,773.175
"5","a619",831.151865018511,818.545
"6","b64",911.569231649796,717.521
"7","b84",899.738581245463,902.409
"8","c103",872.455217516699,898.948
"9","ci7",922.228729507726,955.44
"10","cm105",803.963121424869,749.61
"11","cm174",795.195094647871,754.755
"12","cml108",1014.24888128924,1013.284
"13","cml228",1050.60701703113,1039.303
"14","cml247",1062.79311708626,1115.544
"15","cml321",1035.25416861178,1117.022
"16","cml38",1049.17749835715,1051.265
"17","cml91",1010.430711282,1034.831
"18","e2558w",955.39150525533,971.794
"19","gt112",1036.58796625806,1071.946
"20","k148",903.888941951094,945.607
"21","k64",914.357127638631,971.641
"22","ky226",946.318258180411,945.5
"23","m14",910.246933849201,835.461
"24","mo1w",920.727509884215,910.127
"25","mo24w",916.008476511593,969.516
"26","mo46",896.810053392518,937.712
"27","mp339",980.680733832393,1002.695
"28","mt42",845.196727728441,715.959
"29","nc232",934.926724306281,954.24
"30","nc262",915.754702031769,838.685
"31","nc264",951.546138321821,921.324
"32","nc294",885.363889994258,913.763
"33","nc304",995.069625753296,979.507
"34","nc310",888.417782427422,889.441
"35","nc320",964.396755952897,958.149
"36","nc328",871.642512615714,881.608
"37","nc33",931.508201521747,1024.043
"38","nc346",982.493125922304,986.305
"39","nc352",987.4714657276,1031.981
"40","nc368",917.681466414581,920.49
"41","pa875",927.214099752172,897.293
"42","r229",902.750650755985,910.958
"43","sd40",887.58212658772,890.128
"44","sd44",875.118528813811,786.463
"45","tzi11",1017.52477952627,1014.151
"46","tzi18",1042.85940894168,1014.377
"47","tzi25",980.831910491673,994.043
"48","u267y",949.359560646209,1045.477
"49","va102",826.301304444538,814.934
"50","va17",889.355841312679,918.864
"51","va85",874.688355126312,903.251
"52","w182b",801.499866841746,706.005
"53","w22",862.649135543635,865.172
"54","wf9",864.177555384522,847.578
"55","yu796ns",892.824227904917,861.022
