"","taxa","s1","GDD_DTA_BLUP.Peiffer_2014"
"1","3811",876.426081926423,948.126
"2","a554",804.06985430426,721.559
"3","a661",830.822035789402,724.82
"4","a682",823.852033492816,769.626
"5","ab28a",903.77308897324,1003.205
"6","b164",857.525840037698,819.736
"7","b2",870.276336217269,851.134
"8","b46",855.501256691424,853.171
"9","b73htrhm",862.652809699476,858.58
"10","b77",896.253830274066,869.27
"11","b84",869.412599438133,890.098
"12","ci28a",904.584455345669,921.102
"13","cm174",745.29216272434,727.226
"14","cm7",841.16018077282,717.984
"15","cml11",1024.9477316766,1069.769
"16","cml154q",1019.41323716965,973.558
"17","cml228",1037.36180960696,1084.046
"18","cml238",1026.02659632529,1054.396
"19","cml247",1034.64360078629,1100.915
"20","cml311",1001.22663788983,1104.246
"21","co106",855.846168039349,701.935
"22","co125",838.437200689906,704.885
"23","h99",871.202173147057,814.755
"24","i137tn",941.976720054553,951.772
"25","il677a",800.829140229786,860.736
"26","ki3",1059.00331517789,1000.371
"27","ky21",889.880900557255,943.384
"28","mo46",860.933391997483,873.007
"29","mog",878.25434897339,909.232
"30","ms71",803.463116831972,816.791
"31","n6",869.762333866438,839.302
"32","nc222",901.969846856264,980.327
"33","nc230",905.08953941022,923.441
"34","nc232",911.107130717275,928.201
"35","nc260",848.766991452563,874.537
"36","nc262",889.175409566448,801.817
"37","nc294",876.136390181263,880.712
"38","nc302",980.181824754853,920.878
"39","nc304",992.632073379813,949.502
"40","nc314",889.360506824459,875.254
"41","nc326",867.034648921324,880.216
"42","nc338",980.435587966121,976.033
"43","nc348",982.4150938832,941.746
"44","nc360",943.159645772865,970.508
"45","oh7b",845.597830035233,962.799
"46","os420",852.809243264698,805.887
"47","pa762",827.43163752856,873.272
"48","pa880",888.11709932582,868.77
"49","sc213r",1003.56488927264,1049.279
"50","tx601",991.424691055731,1050.011
"51","tzi11",999.834702361001,966.284
"52","va17",866.218297172092,884.698
"53","va22",877.651758924804,887.505
"54","va35",869.6978188663,858.887
"55","w153r",830.461575850499,811.107
"56","w22rrstd",834.965503815861,832.251
