"","taxa","s1","GDD_ASI_BLUP.Peiffer_2014"
"1","4722",24.5146360486768,30.48
"2","a239",24.6361472072257,11.846
"3","b10",26.6682248012136,49.876
"4","b115",24.3303892852735,34.265
"5","b76",34.7746878114337,13.888
"6","ci91b",27.6500252670388,27.435
"7","cm7",21.2106285547277,5.808
"8","cml10",24.3411134428079,53.128
"9","cml11",25.1531698199956,36.296
"10","cml14",24.8857746021132,44.116
"11","cml228",23.0147605901659,27.963
"12","cml238",23.8161131401773,28.127
"13","cml247",26.3743903565736,12.906
"14","cml258",25.9405007831564,50.437
"15","cml277",24.339834696899,28.877
"16","cml333",24.6276983339623,29.15
"17","cml341",23.4727289337326,36.435
"18","cml92",22.3329009887774,22.105
"19","co106",21.1386079828279,21.99
"20","de3",27.0242219591883,23.513
"21","f7",20.4901016952198,5.483
"22","gt112",22.0024083990695,10.128
"23","h99",24.5910127126934,14.404
"24","hp301",29.82984314443,23.598
"25","hy",21.3498343481349,30.361
"26","i205",24.0068493803176,24.279
"27","il677a",22.6798122395109,45.341
"28","k148",21.9860447721347,42.341
"29","ki2021",21.9410391318755,41.314
"30","ki44",22.7793971864731,34.145
"31","l317",23.7646392021989,50.753
"32","l578",20.4071447858035,14.029
"33","mo1w",23.5983257723825,39.468
"34","mo47",27.725078346927,16.861
"35","mp339",25.5898145401623,29.495
"36","mt42",19.6186673693749,21.096
"37","nc222",23.0005839636437,16.641
"38","nc250",31.1563846272633,24.33
"39","nc304",17.0848809628665,21.937
"40","nc328",18.2643379323053,13.493
"41","nc336",22.0776467880644,21.165
"42","nc342",24.8809049727803,8.736
"43","nc344",21.5358433463486,11.748
"44","nc348",18.3714497661526,8.81
"45","nc366",23.7537578970626,11.675
"46","p39",21.9079920489394,38.744
"47","pa880",21.6072963129227,32.862
"48","r109b",23.4203523470153,21.816
"49","r229",17.8986964097251,28.264
"50","sa24",25.4528913860363,30.558
"51","sd44",23.5442911016608,22.411
"52","u267y",23.3719146116446,34.515
"53","va85",23.6925327245824,29.245
"54","w22rrstd",22.4279502693199,30.631
"55","w64a",24.1203495052562,37.282
"56","wd",15.7626389378618,-5.165
