"","taxa","s1","kernelnoperrow_BLUP.Hung_2012_1"
"1","4226",21.6378804374737,23.63
"2","a4415",21.8069759780319,18.58
"3","a554",22.5687325590876,20.11
"4","a632",21.3303049041186,21.5
"5","a659",21.8929777825335,18.09
"6","b105",22.3983540963098,24.69
"7","b57",21.6452494114935,23.76
"8","b64",20.8379192889783,23.63
"9","b68",21.1249902774095,24.69
"10","b77",21.7684308571515,21.02
"11","c123",23.9873528081003,24.3
"12","ci21e",21.8521755543537,24.67
"13","ci7",23.7706115054189,20.51
"14","ci90c",22.351708301336,21.92
"15","cm105",21.0955781007107,20.75
"16","cml254",21.3177451652034,23.95
"17","cml258",20.9402387435451,20.29
"18","cml287",20.6529621324759,25.36
"19","cml331",21.2246165898415,23.18
"20","cml341",20.7791405947789,19.62
"21","co125",21.8741376170184,16.33
"22","co255",21.1873503248822,22.47
"23","d940y",21.737097657541,23.42
"24","f7",20.9593859803284,23.23
"25","i205",22.6222916006441,15.92
"26","ia2132",20.7031627758481,20.99
"27","k148",22.3358147749005,21.3
"28","k64",22.3040952566791,24.38
"29","ki21",22.4065355601751,20.39
"30","ki43",21.1955352994357,17.95
"31","ki44",20.8548888144794,20.13
"32","m14",22.7576921433684,23.78
"33","mo45",21.2979761437888,24.49
"34","n6",22.7494173680433,23.96
"35","nc258",23.5250497506527,23.69
"36","nc264",21.192767192889,20.82
"37","nc304",20.0099322386482,16.67
"38","nc320",21.6503958149007,23.86
"39","nc328",24.2267059070041,24.14
"40","nc340",20.0087789851931,20.97
"41","nc356",20.2588477370505,22.03
"42","nc358",20.6580871069111,22.22
"43","nc364",23.9793450940148,28.57
"44","nc368",22.3468803623137,18.92
"45","nd246",21.4531620328229,23.02
"46","oh40b",23.6256223441899,23.42
"47","oh7b",21.4587859056887,24.01
"48","pa880",22.4170506244372,21.42
"49","pa91",23.5615523808489,27.93
"50","sc213r",20.4618150545541,20.33
"51","sc357",20.9062097063406,21.42
"52","u267y",21.6612595622572,19.01
"53","va17",24.5384022049462,19.94
"54","vaw6",22.3403619919675,21.8
"55","w22rrstd",22.05807253989,21.66
"56","yu796ns",22.5308725380468,20.16
