"","taxa","s1","kernelnoperrow_BLUP.Hung_2012_1"
"1","4722",22.0836901673111,22.53
"2","a634",22.0727223084494,18.23
"3","b10",22.0219654943686,23.07
"4","b115",22.0583842428672,21.54
"5","b76",21.8585099690011,20.66
"6","b79",22.3242671443585,19.38
"7","ci91b",22.5230966363178,24.9
"8","cm7",21.5853763464594,18.9
"9","cml10",20.9651977196119,23.8
"10","cml154q",20.4327082398919,22.52
"11","cml228",20.6884349311117,19.96
"12","cml254",21.0511553014565,23.95
"13","cml261",20.4564084645509,22.35
"14","cml281",20.4918833296437,24.03
"15","cml322",21.1919322439326,23.26
"16","cml38",20.8640415377914,21.72
"17","co106",21.694479182106,21.42
"18","co125",21.9340703903587,16.33
"19","de1",22.1757650384987,24.9
"20","h99",22.3075669095831,24.15
"21","hi27",21.0886010365713,22.09
"22","ids91",22.5751881641253,21.25
"23","k148",22.0054645725218,21.3
"24","k4",22.0565299417853,29.12
"25","ki3",20.8294973771854,17.48
"26","ki44",20.7998793157926,20.13
"27","m162w",24.1497541751795,19.74
"28","m37w",21.7558691176431,19.97
"29","mo24w",21.767327049979,30.18
"30","mo45",21.3674268142296,24.49
"31","mt42",21.3794569239934,19.88
"32","n28ht",22.322602902224,23.05
"33","n7a",22.2247555171088,21.37
"34","nc264",21.2116552415667,20.82
"35","nc310",23.7357618782952,23.96
"36","nc320",21.3523727654798,23.86
"37","nc326",24.5144359504418,24.19
"38","nc328",24.1131449379811,24.14
"39","nc336",20.3991437600297,22.73
"40","nc354",20.1436010343709,20.16
"41","oh43",24.24160004497,26.59
"42","oh43e",24.0473842028651,22.92
"43","os420",21.992236932841,20.62
"44","p39",19.9774036888119,21.63
"45","sa24",22.3377802186878,27.42
"46","sc213r",20.542675041661,20.33
"47","sc55",21.5638780097042,20.25
"48","sg1533",23.6215655215953,23.66
"49","tzi11",20.7967447862079,19.02
"50","tzi16",21.8566448278346,21.16
"51","tzi9",20.8479551937571,25.82
"52","va14",22.9273036682469,22.05
"53","va59",24.7658079917126,25.59
"54","vaw6",22.2735000135286,21.8
"55","w22",21.6319700281461,22.33
"56","w64a",23.4051116189977,20.52
