"","taxa","s1","kernelnoperrow_BLUP.Hung_2012_1"
"1","a239",21.5288558448126,21.43
"2","a556",22.3999202809735,19.8
"3","a632",21.3216495189982,21.5
"4","a659",21.8586012462984,18.09
"5","a661",21.6392715636416,19.79
"6","a680",24.4980020127946,27.55
"7","a682",24.0670796090408,22.18
"8","ab28a",22.8589619486912,20.97
"9","b109",23.6004164035264,25.15
"10","b14a",21.6484486031427,20.42
"11","b64",21.5370448164,23.63
"12","b77",22.1222842696743,21.02
"13","b84",23.6139730156898,22.66
"14","ci66",22.7961511195715,20.11
"15","cm37",20.6642050219117,19.89
"16","cml277",21.1461212309087,15.33
"17","cml311",21.0218216312776,22.53
"18","cml45",21.5949856003492,23.58
"19","cml5",21.3360893840468,19.1
"20","de3",22.5339530514318,20.7
"21","f44",22.0451336514026,15.36
"22","f7",21.3597677409618,23.23
"23","gt112",21.7822956329545,18.37
"24","h105w",21.8017433170732,24.28
"25","hi27",21.2559009995776,22.09
"26","ia2132",20.4844821704226,20.99
"27","ids28",22.3768501558067,22.99
"28","k148",22.3310929135195,21.3
"29","k55",23.3821755221315,19.94
"30","k64",22.4719695203985,24.38
"31","ki11",21.1444546718723,20.2
"32","mo18w",21.161815869996,18.77
"33","mo1w",22.142696490734,23.17
"34","mo46",22.6172542295547,18.47
"35","n192",23.3697448412942,22.62
"36","nc250",20.3154020587048,21.83
"37","nc314",20.1083675087264,22.14
"38","nc318",22.2506513167355,22.03
"39","nc328",24.0311334181788,24.14
"40","nc340",20.0966462804144,20.97
"41","nc344",24.1387382466899,24.29
"42","nc358",20.9715215028963,22.22
"43","nc366",21.5692706616287,18.35
"44","p39",19.8066670635677,21.63
"45","pa875",22.184186912152,24.78
"46","r109b",22.1212548342973,19.88
"47","r4",22.0813234098431,23.62
"48","sc55",21.9653135060241,20.25
"49","sd44",22.0187412848563,25.88
"50","t234",22.0133327736168,22.04
"51","u267y",21.5601671546836,19.01
"52","va102",25.2616690476012,23.41
"53","va26",23.8609276848997,21.95
"54","va59",25.0264890933985,25.59
"55","w182b",21.6418821089897,23.7
"56","w22",21.5651249895906,22.33
