"","taxa","s1","kernelnoperrow_BLUP.Hung_2012_1"
"1","4722",23.5799016014993,22.53
"2","a188",21.9252664864079,21.38
"3","a679",24.2428119501161,27.77
"4","ab28a",22.5262934867829,20.97
"5","b115",22.5050113815478,21.54
"6","b14a",21.2029469515456,20.42
"7","b68",21.471247032452,24.69
"8","b73",24.8040174122275,24.77
"9","b84",23.4814631253358,22.66
"10","ci3a",21.8685200148244,21.9
"11","ci7",23.7958296035312,20.51
"12","cm174",20.2327042313687,22.17
"13","cm7",21.73477367596,18.9
"14","cml108",21.6956657812859,18.9
"15","cml333",21.4529990805379,18.55
"16","cml5",21.2880652574044,19.1
"17","cml69",21.4574513204781,16.79
"18","co106",21.6747461207892,21.42
"19","de3",22.2923059476846,20.7
"20","f6",21.5052379391328,23.89
"21","h91",21.0842105936296,22.51
"22","h95",22.6949961989764,23.94
"23","hi27",21.3490015301927,22.09
"24","hy",22.9469309272736,21.22
"25","il101",21.5666328175697,17.11
"26","il14h",21.5915116753978,18.74
"27","il677a",21.4339521863936,21.41
"28","k148",22.3430298954267,21.3
"29","ki14",20.6048032802746,21.47
"30","ki21",22.4007755054869,20.39
"31","ki44",20.9653597982608,20.13
"32","mo1w",21.9799186734192,23.17
"33","ms1334",21.9931949740056,19.69
"34","ms153",21.8442548970894,21.39
"35","mt42",21.4408292502751,19.88
"36","nc236",22.354935239811,22.86
"37","nc238",21.0209970929912,22
"38","nc262",24.4056125321933,23.73
"39","nc290a",24.5585533581634,25.34
"40","nc294",22.5742158589121,20.93
"41","nc302",20.1236519028681,18.47
"42","nc314",20.2568496335022,22.14
"43","nc352",20.5009204462751,22.03
"44","nc362",25.1792112462417,25.49
"45","nd246",21.5623685275977,23.02
"46","oh43",23.8178721962478,26.59
"47","r4",22.0184681476811,23.62
"48","sc357",20.8167877712048,21.42
"49","sd40",21.543130995414,28.5
"50","t234",22.0526495669703,22.04
"51","tzi11",21.023193393182,19.02
"52","tzi16",22.2463783468958,21.16
"53","tzi8",21.5673593422735,20.14
"54","va102",24.2379458993115,23.41
"55","va17",24.4372951674536,19.94
"56","w117ht",21.8650591695666,18.75
