"","taxa","s1","kernelnoperrow_BLUP.Hung_2012_1"
"1","4722",23.4451759358833,22.53
"2","a272",21.407519291437,19.31
"3","a554",22.1973172888647,20.11
"4","a556",22.4187203683725,19.8
"5","a619",23.0326387659758,26.32
"6","b64",21.501604465656,23.63
"7","c103",24.8365571453362,27.04
"8","ci28a",23.6275846015917,21.61
"9","ci7",23.8590178289192,20.51
"10","cm105",21.1479298332398,20.75
"11","cml108",21.478951375906,18.9
"12","cml238",21.065799276237,19.4
"13","cml254",21.5028786051022,23.95
"14","cml258",21.0440727752032,20.29
"15","cml311",20.9260213598452,22.53
"16","cml322",21.7235536278837,23.26
"17","cml61",21.2006900817144,21.45
"18","de2",23.4532274584021,22.06
"19","de811",22.6958921408804,23.74
"20","h99",22.3803952856363,24.15
"21","hy",23.0643838679827,21.22
"22","ia5125",21.9315584254524,18.87
"23","il101",21.6462627871168,17.11
"24","il14h",21.7811172193341,18.74
"25","k64",22.4379191450818,24.38
"26","ki43",21.2300685254153,17.95
"27","ky228",21.8588503685766,23.33
"28","mo18w",21.5272064844201,18.77
"29","mo44",21.8331634805079,21.06
"30","mo46",22.7010800919044,18.47
"31","mog",22.7794221510771,20.01
"32","nc258",23.5805329190192,23.69
"33","nc264",21.5273841990627,20.82
"34","nc300",21.1095285174196,18.66
"35","nc304",20.178766193995,16.67
"36","nc314",22.1879069085699,22.14
"37","nc320",21.7775219772939,23.86
"38","nc324",21.9549921878539,17.29
"39","nc338",21.05433132357,17.71
"40","nc360",23.1705780131949,24.91
"41","nc366",21.4933369400521,18.35
"42","oh43",23.2033755222141,26.59
"43","oh7b",21.594332251413,24.01
"44","os420",22.4705092141098,20.62
"45","pa875",22.2333017419675,24.78
"46","sc213r",20.7703573000202,20.33
"47","sc55",21.9174796506254,20.25
"48","tzi10",21.0809572026948,22.45
"49","tzi11",21.0389950888366,19.02
"50","tzi9",21.1216025782234,25.82
"51","u267y",21.4698434157835,19.01
"52","va102",25.6834864057083,23.41
"53","va99",23.7909604611434,22.1
"54","w64a",23.4999869623639,20.52
"55","wf9",22.7927876362329,25.77
"56","yu796ns",22.6934540819217,20.16
