"","taxa","s1","kernelnoperrow_BLUP.Hung_2012_1"
"1","4226",21.8228258257577,23.63
"2","a272",21.4514034987839,19.31
"3","a556",22.4721752412542,19.8
"4","a654",22.2016533818491,19.06
"5","a679",24.1941797513751,27.77
"6","b84",23.5247032581604,22.66
"7","b97",22.3267933200067,21.88
"8","ch9",22.3705454824038,19.53
"9","ci21e",22.0229353993505,24.67
"10","ci28a",23.2804033725924,21.61
"11","ci64",23.5581969904921,23.14
"12","ci66",21.8049053965353,20.11
"13","cm105",21.2801870486558,20.75
"14","cm7",21.7022278479011,18.9
"15","cml103",21.712501517184,23.1
"16","cml228",20.5945895037438,19.96
"17","cml264",21.1924561595203,21.05
"18","cml341",20.8339548934516,19.62
"19","cml45",21.1324218931947,23.58
"20","f2834t",21.7637101985639,21.46
"21","h105w",21.8162449925877,24.28
"22","h99",22.7000082648111,24.15
"23","hi27",21.3042173269255,22.09
"24","ia5125",21.6391499239448,18.87
"25","il101",20.9928978167833,17.11
"26","il677a",20.9531701409416,21.41
"27","k148",22.4348250401415,21.3
"28","ki21",22.5103342533124,20.39
"29","ky228",22.0162638105832,23.33
"30","m162w",24.4588671461601,19.74
"31","mo47",22.3028837897297,21.52
"32","ms71",21.3869339551144,20.79
"33","nc262",25.0068430354947,23.73
"34","nc294",23.358204213697,20.93
"35","nc296",21.1707933455808,20.23
"36","nc296a",21.2934592209173,17.69
"37","nc306",23.2191603217511,18.99
"38","nc324",22.527083314122,17.29
"39","nc33",22.0536798374163,19.54
"40","nc338",21.0408841802263,17.71
"41","nc342",24.4533582082298,23.13
"42","nc350",19.8064451740034,18.7
"43","nc352",20.9783106389253,22.03
"44","nc356",20.9732422231953,22.03
"45","oh40b",23.9835322981815,23.42
"46","oh43",24.2461655486838,26.59
"47","oh43e",24.0698676378539,22.92
"48","oh603",22.5999091614982,16.64
"49","pa880",22.7404658761836,21.42
"50","r229",24.6899505181151,21.56
"51","sc357",21.0697364242359,21.42
"52","sc55",21.9744698070459,20.25
"53","t234",21.9248278934135,22.04
"54","tx303",21.7612341775079,20.7
"55","tzi16",22.1680970260812,21.16
"56","tzi8",21.5201777504489,20.14
