"","taxa","s1","leafwidth_BLUP.Hung_2012_1"
"1","a632",79.8230856668332,73.7
"2","a635",80.7144579091702,65.73
"3","a679",86.0723042616041,82.62
"4","a682",82.3473666385362,75.51
"5","b105",83.4737609472068,85.06
"6","b68",76.8570066097962,77.85
"7","b73htrhm",87.2457939912754,82.85
"8","b76",81.3577497753802,84.1
"9","b79",83.160584076049,97.63
"10","c49a",77.7355720871778,62.72
"11","cm37",64.1760154535445,52.91
"12","cml11",86.277548413435,91.5
"13","cml218",91.132648233143,106.57
"14","cml247",92.1240261140932,89.57
"15","cml254",94.7685949328122,86.14
"16","cml314",93.8374379017386,92.61
"17","cml322",90.1369005230805,93.18
"18","cml323",89.8407725358579,83.48
"19","cml77",88.9538048286253,93.51
"20","cml92",90.942422442525,86.91
"21","f6",86.3697783002121,96.95
"22","ia2132",71.8413121461892,79.95
"23","ids28",82.1617427471372,57.36
"24","k148",84.1947059795379,71.54
"25","ky21",82.7411625566043,96.23
"26","ky226",88.2741644377993,77.63
"27","ky228",85.1440364084518,90.58
"28","l578",91.6919244256794,88.01
"29","mo18w",94.5203620522116,90.39
"30","mo46",85.4117973144364,70.4
"31","ms153",80.7852973054705,80.39
"32","ms71",73.8355714272704,72.76
"33","nc230",84.4870915245156,109.05
"34","nc238",100.967523333482,101.08
"35","nc250",76.1665268112422,73.7
"36","nc300",84.1939468792192,74.21
"37","nc304",81.8102894405958,50.94
"38","nc310",86.3887201045425,85.37
"39","nc318",90.5487991445764,83.97
"40","nc328",87.6459496446153,81.99
"41","nc342",85.0088119223863,91.62
"42","nc346",85.2810387523542,87.64
"43","nc360",84.947031197588,84.56
"44","nc368",85.4872251335515,95.42
"45","pa91",94.8176782486059,90.85
"46","r168",79.7419439017481,64.73
"47","r177",83.5771613126717,78.68
"48","r4",84.6064804439402,87.5
"49","sc357",89.6492747433293,76.84
"50","sc55",88.5879586627581,96.15
"51","t8",89.5146591070716,89.95
"52","tzi9",91.5630183851961,86.26
"53","va14",93.8804594298009,92.31
"54","va22",91.5512378447244,104.33
"55","va35",89.2522383199406,86.99
"56","w117ht",82.2175388023563,59.31
"57","w64a",92.2440068917002,91.18
