"","taxa","s1","leaflength_BLUP.Hung_2012_1"
"1","3316",782.249644024051,695.39
"2","a632",766.603945395712,700.95
"3","a641",692.627174122311,622.67
"4","b105",726.668892152158,720.48
"5","b109",724.820241650661,697.33
"6","b164",697.827304580714,726.89
"7","b46",703.534143449771,726.86
"8","b57",700.805784737551,748.02
"9","b75",698.757851657114,697.75
"10","b84",762.375213636761,774.65
"11","ci28a",790.785056396783,751.44
"12","cm174",677.93674447347,628.77
"13","cm7",669.138182007839,525.62
"14","cml103",816.968788141186,767.43
"15","cml11",866.709594356338,862.2
"16","cml14",852.742850999703,840.95
"17","cml154q",826.220059739793,828.24
"18","cml218",813.279080310915,926.78
"19","cml254",857.007731035229,927.71
"20","cml311",819.524572526792,821.33
"21","cml328",786.549790925169,706.06
"22","cml331",815.299140930533,897.16
"23","cml91",816.100238222103,772.12
"24","ep1",674.832766847613,512.86
"25","h99",689.563577625087,624.87
"26","hp301",733.578525313661,764.45
"27","i137tn",762.931191173879,775.53
"28","ia2132",651.882032374161,602.71
"29","ids69",711.692641235881,607.28
"30","k4",702.195213007098,734.23
"31","k64",713.656329768879,795.46
"32","ki43",820.862110389388,921.37
"33","mef156552",656.006350737431,611.57
"34","mo18w",802.274642130337,900.32
"35","mo1w",737.997014593523,680.41
"36","mo24w",717.718051639472,893.24
"37","mo44",700.278142131751,773.41
"38","mo46",742.257820676541,764.74
"39","ms153",681.611709272126,615.07
"40","nc236",723.850669701488,718.86
"41","nc250",653.501928765722,620.77
"42","nc296a",872.978506839722,806.75
"43","nc338",808.632401545577,636.06
"44","nc344",783.151349627353,818.16
"45","nc360",761.714949975456,765.81
"46","nc364",761.245320030765,734.07
"47","nc368",706.277087210553,731.08
"48","oh43e",650.109661975154,651.44
"49","pa880",736.811918369368,756.12
"50","r109b",683.064191741193,692.11
"51","r229",728.228260928665,804.28
"52","sd40",676.945262374433,830.18
"53","t234",723.349962767802,691.1
"54","va35",720.445352282869,624.55
"55","va85",681.998501600555,714.01
"56","w182b",593.133380286883,558.62
"57","w22",642.313940463889,619.48
