"","taxa","s1","leafwidth_BLUP.Hung_2012_1"
"1","4226",81.3904345875288,91.08
"2","a214n",77.7127082745823,81.98
"3","a556",82.2370507334764,82.7
"4","a632",75.3951098795381,73.7
"5","a654",80.4725428283665,72.46
"6","a680",85.3211667974954,82.49
"7","b14a",71.2933492001254,81.99
"8","b37",73.7616965525406,87
"9","b46",84.8939646344613,92.45
"10","b52",85.2603906794569,87.19
"11","b77",85.412108194694,91.09
"12","c103",84.0886729145868,93.52
"13","ch70130",83.3758482297341,95.7
"14","ci31a",88.0442022021208,92.69
"15","ci66",85.9918820660703,86.02
"16","cm7",80.077198234319,63.29
"17","cml157q",92.6238887682256,103.39
"18","cml238",94.6189449705985,97.97
"19","cml254",94.3086316988526,86.14
"20","cml258",91.2119118212665,97.03
"21","cml264",92.651640086855,93.69
"22","cml287",91.3311609668527,92.79
"23","cml322",88.6160929234659,93.18
"24","cml341",92.3742542511044,110.93
"25","cml45",94.8281188634382,106.05
"26","cml61",93.0735111283294,103.92
"27","cml91",92.3176619041705,92.97
"28","ep1",74.7424065713467,88.6
"29","f2834t",89.6494176182924,79.02
"30","f6",86.497105659655,96.95
"31","h91",73.1331346552228,85.59
"32","ia2132",69.8284956877092,79.95
"33","ids28",80.2911225689077,57.36
"34","il14h",62.10602818615,73
"35","k64",87.2530189145808,80.56
"36","ki2021",95.0569107207663,107.5
"37","ki3",94.0950199785411,102.85
"38","mef156552",71.2178309843642,74.98
"39","nc232",89.8145463694124,93.52
"40","nc264",85.7764812279038,90.97
"41","nc300",83.6012738737867,74.21
"42","nc314",68.8252001299046,60.07
"43","nc326",85.7308540680449,90.31
"44","nc33",87.3622150818722,86.99
"45","oh40b",85.906240400005,87.64
"46","pa762",88.0169996148119,92.62
"47","r109b",83.7178973023174,64.01
"48","sc357",88.863586927241,76.84
"49","sd40",82.1477473184837,98.81
"50","sg1533",80.7447482587242,86.48
"51","tx601",91.236917314193,82.62
"52","tzi18",92.7375554437161,95.41
"53","tzi9",91.7227643213455,86.26
"54","va22",89.7459738252309,104.33
"55","w153r",80.8186690329412,75.51
"56","w22",83.4571451200027,91
"57","wf9",91.6824613319126,104.64
