"","taxa","s1","leaflength_BLUP.Hung_2012_1"
"1","4722",710.68684862344,766.51
"2","a188",694.191238565586,617.03
"3","a6",821.410946575108,852.8
"4","a641",700.277924550362,622.67
"5","b109",745.966981726331,697.33
"6","b14a",763.304691164213,801.41
"7","b37",630.456416101383,665.9
"8","b64",784.828588301983,657.37
"9","b73htrhm",761.012359257318,699.55
"10","c49a",644.294488405528,507.4
"11","ch9",671.319580664723,626.92
"12","ci64",784.244535621141,751.44
"13","ci66",728.710195281619,683.43
"14","cm105",656.410658291755,669.52
"15","cml103",815.157965344767,767.43
"16","cml154q",829.783256006401,828.24
"17","cml238",836.179000993603,778.79
"18","cml261",845.155989366337,872.84
"19","cml321",832.374964145639,1001.5
"20","cml69",830.140437583202,941.61
"21","cmv3",598.296435600922,511.75
"22","co125",662.709273613598,541.57
"23","co255",631.500709439047,568.24
"24","d940y",765.162847816582,888.74
"25","de2",725.393342910935,680.97
"26","de811",755.814526686452,733.29
"27","h49",702.305009588548,762.49
"28","hp301",696.015532249788,764.45
"29","i137tn",766.968813029727,775.53
"30","i29",710.175217684595,672.15
"31","ia2132",654.271465598833,602.71
"32","ki2021",826.406735016903,839.47
"33","ki44",820.060257792037,728.29
"34","mo18w",780.732642845257,900.32
"35","mo24w",729.469456236057,893.24
"36","mo44",676.668031278735,773.41
"37","mo47",769.87172115507,787.08
"38","mp339",769.638976088978,677.7
"39","ms71",648.704065024997,741.93
"40","mt42",659.211333766991,537.1
"41","nc230",712.563987607922,640.62
"42","nc290a",716.561899406965,702.44
"43","nc300",804.125921662852,754.84
"44","nc310",744.899726411401,713.15
"45","nc358",802.047458145455,615.76
"46","nc362",738.964548761989,755.4
"47","oh43e",650.950229439719,651.44
"48","os420",688.242034121607,713.07
"49","pa91",733.257866073528,885.36
"50","r168",661.874538850052,694.84
"51","sc357",771.139417032766,798.48
"52","tzi8",846.121335374519,794.28
"53","va26",701.694820140285,676.41
"54","va35",717.999763710355,624.55
"55","va85",690.152312846885,714.01
"56","vaw6",732.486102306676,766.39
"57","w153r",675.409290062836,500.9
