"","taxa","s1","nodenumberbelowear_BLUP.Hung_2012_1"
"1","a239",7.21165316044353,6.86
"2","a556",7.59589335281777,7.05
"3","a632",8.33400691187918,8.26
"4","a661",6.89586438786431,7.33
"5","a680",8.38323301617716,8.27
"6","a682",7.1065906011273,5.19
"7","ab28a",7.6278179153732,9.6
"8","b109",8.63533703167458,8.56
"9","b14a",8.31944753438303,6.34
"10","b64",8.60246822967873,7.24
"11","b77",7.86126524844863,8.48
"12","b84",8.30351375231889,9.38
"13","ci66",8.55633892661699,9.05
"14","cml52",9.61279568991898,11.45
"15","cml69",9.44768604499674,9.42
"16","f44",8.49671562159024,9.26
"17","f7",7.00019763472654,4.81
"18","ga209",8.18458352613011,10.04
"19","h49",7.57593655265915,8.62
"20","h95",7.64951506867844,6.07
"21","h99",7.86799856104727,5.32
"22","hy",8.2330349668074,7.92
"23","ids91",7.5281016625828,7.58
"24","il14h",6.12201795028347,6.35
"25","ki11",9.22006636859197,10.35
"26","ki21",8.63478092208427,8.71
"27","ki3",9.90428100126869,10.35
"28","ky21",7.70130942126387,9.74
"29","l317",8.20574020343988,8.95
"30","ms1334",7.7946959139824,5.38
"31","nc222",8.03983458054911,8.83
"32","nc238",8.44127255237718,11.4
"33","nc258",7.9575213916734,8.37
"34","nc290a",7.21795262929437,8.39
"35","nc296a",8.78746062849654,8.29
"36","nc298",9.07055175542473,9.3
"37","nc304",8.90220499138881,4.91
"38","nc314",8.49920544867823,8.49
"39","nc318",8.62432284429968,9.46
"40","nc320",8.64016863881735,9.86
"41","nc338",8.96390254267044,8.52
"42","nc342",7.57413514842613,8.37
"43","nc362",8.25303853216199,6.54
"44","oh43e",6.29435193416627,5.61
"45","pa875",8.12615892141551,8.11
"46","pa880",8.03091379252273,7.98
"47","r168",7.19664069633078,7.57
"48","sa24",8.07873386822244,9.4
"49","sc213r",8.51708116485183,7.78
"50","tzi10",9.49149136740285,11
"51","va14",7.67290607487443,7.97
"52","va26",7.09259146551368,6.63
"53","va35",8.0422993424782,8.07
"54","w64a",7.38379795450929,6.99
