"","taxa","s1","nodenumberaboveear_BLUP.Hung_2012_1"
"1","a634",5.63767117490413,5.41
"2","a641",5.39042304839251,6.25
"3","a680",5.49716439436647,5.94
"4","ab28a",5.77361003643195,5.1
"5","b73",5.61527359742837,5.75
"6","b75",5.28699667618502,4.81
"7","b77",5.53048683701477,6.79
"8","ch70130",5.3930789245676,4.78
"9","ci66",5.63961861792005,5.88
"10","cml14",6.22911620718276,5.91
"11","cml220",6.03396718864071,5.96
"12","cml311",5.91117943071708,5.87
"13","cml332",5.98829167526346,5.64
"14","cml341",6.19532173928607,5.89
"15","cml38",6.14481845074007,5.53
"16","cml69",6.02795188359294,6.08
"17","de1",5.0393046386181,4.6
"18","h99",5.25033542294934,5.52
"19","i137tn",5.6688164947197,4.69
"20","i205",5.37030819362749,4.19
"21","ia2132",5.14829331585327,5.37
"22","k64",5.06114603139994,5.42
"23","ki21",5.56636827612414,4.54
"24","ki3",5.60356399695928,5.3
"25","ki43",5.77545557102141,5.13
"26","m37w",5.84415065487448,6.25
"27","mo18w",6.35685653672593,5.89
"28","mo44",5.47699642517889,5.92
"29","ms1334",5.29490185076801,4.82
"30","ms71",4.84962844157582,5.15
"31","mt42",5.11646049396444,4.27
"32","nc232",5.65995579416918,5.69
"33","nc236",5.39322663427424,5.13
"34","nc294",6.04448252802526,6.55
"35","nc298",5.96992082817577,5.66
"36","nc304",6.30884349927855,5.24
"37","nc306",6.19472246792573,6.57
"38","nc340",6.31382819801623,7.38
"39","nc344",5.59017861125762,5.55
"40","nc350",6.20348528492697,6.64
"41","oh43e",5.44910064734029,5.69
"42","pa762",5.24579763529824,5.35
"43","pa875",5.50832858016564,5.97
"44","pa880",5.48733327678407,6.52
"45","pa91",5.48321781640838,4.8
"46","r177",5.48519048041712,6.23
"47","r229",5.76987825409358,5.17
"48","sa24",4.71934937284205,5.35
"49","sd44",5.4765374560753,5.31
"50","t232",5.50693284275295,5.17
"51","tx303",5.83354731870497,5.24
"52","u267y",5.80715037069292,5.48
"53","va35",5.58495379699364,5.41
"54","w22",4.83696926128021,4.26
"55","wf9",6.01550770980723,6.8
