"","taxa","s1","nodenumberbelowear_BLUP.Hung_2012_1"
"1","a188",7.56665468084056,6.85
"2","a239",7.21393417337724,6.86
"3","a6",9.54767638712555,9.39
"4","a619",5.92399400523785,5.21
"5","a634",7.26592194568362,7.88
"6","a661",7.05079164646695,7.33
"7","ab28a",7.95370490555428,9.6
"8","b57",8.06488563759091,7.48
"9","b64",8.27924528107216,7.24
"10","b75",7.52754242002975,6.15
"11","ch70130",7.49957683032787,7.29
"12","ch9",7.41432132808292,7.24
"13","cm37",5.92761305898155,4.64
"14","cml10",10.9513271843256,11.86
"15","cml314",9.83244838301333,9.23
"16","cml331",9.39571245519762,8.78
"17","co125",7.20288097674726,4.28
"18","de2",7.81706977680824,6.96
"19","de3",7.82009892151779,7.67
"20","h91",7.4198445776568,8.89
"21","i205",7.61198328266138,7.23
"22","ids69",8.35311000797035,6.83
"23","ids91",8.50209131934761,7.58
"24","k148",7.90999638748021,8.3
"25","k64",8.97343576965789,9.81
"26","ki44",9.44597301476102,8.93
"27","ky226",8.43985974793729,9.52
"28","m162w",8.63064410340704,10.34
"29","mo1w",8.04101433863145,7.94
"30","mo24w",8.1671874320375,8.48
"31","mo45",7.53765355128853,8.02
"32","mog",8.22475088156123,9.62
"33","n28ht",8.04054880369259,8.88
"34","nc260",7.21759098387332,6.71
"35","nc294",8.67035805389209,10.93
"36","nc300",9.6296223085394,10.94
"37","nc302",8.53738704496908,9.46
"38","nc304",8.77212626352179,4.91
"39","nc324",8.5195960999784,8.15
"40","nc328",8.77547175477387,9.84
"41","nc342",7.87633249560152,8.37
"42","nc344",7.92814178376608,8.28
"43","nc360",8.87033202098716,9.44
"44","nc368",9.31789419408075,9.77
"45","oh43",5.46440127452816,6.84
"46","pa762",6.13553984995572,6.87
"47","r109b",7.79322663504198,7.52
"48","r177",7.54398164993069,6.58
"49","sd40",7.94934680716715,8.13
"50","t232",8.53012744105407,7.57
"51","tzi11",9.50050932323688,8.63
"52","tzi16",9.38667039898586,9.18
"53","va14",7.83050275871863,7.97
"54","vaw6",7.85324707269052,6.69
