"","taxa","s1","nodenumberaboveear_BLUP.Hung_2012_1"
"1","a188",5.20705180145007,5.32
"2","a239",5.24242802287598,4.76
"3","a619",5.42724880227118,5.66
"4","a632",5.65158726072786,5.64
"5","a635",5.86444850954757,5.64
"6","a679",5.69525382772544,5.11
"7","b10",6.1532672039639,4.74
"8","b64",5.79744306931953,4.51
"9","b68",5.79261976847117,5.99
"10","b76",5.88658865151197,5.42
"11","ch9",5.68115631360559,5.64
"12","ci1872",5.6633764903871,5.38
"13","cm7",5.20712311006173,4.21
"14","cml103",5.86894466610686,4.48
"15","cml281",5.91285952702141,7.38
"16","cml323",5.86310969375284,5.94
"17","cml333",5.8249569284819,6
"18","cml38",6.01131327689004,5.53
"19","cml92",5.87837357533573,7.07
"20","co255",4.70067236426002,4.53
"21","e2558w",5.63770086112279,6.53
"22","f44",5.67158233954422,6.44
"23","h49",6.34347392949835,6.2
"24","ia5125",5.13172502276187,5.34
"25","il14h",4.99954387409099,5.59
"26","k4",5.63996274406715,5.39
"27","k55",5.6184455812473,5.97
"28","k64",5.08272243528263,5.42
"29","mo17",4.88976790394659,4.92
"30","mo44",5.38322725035402,5.92
"31","mo46",5.674934287931,5.63
"32","mo47",5.57740538047989,5.68
"33","ms153",5.21235761245644,4.57
"34","nc260",5.38223518827836,5.66
"35","nc290a",5.77489724464708,6.23
"36","nc296",5.74670008266014,5.68
"37","nc296a",5.79128473799496,5.38
"38","nc304",6.33645707536722,5.24
"39","nc306",6.37761535767489,6.57
"40","nc310",5.9160127526625,5.71
"41","nc33",5.56261139383262,6.28
"42","nc336",5.75735694621695,5.89
"43","nc346",5.71922038067073,5.11
"44","nc348",5.88162077639916,5.99
"45","nd246",5.10298414364124,4.23
"46","oh40b",5.15007362995167,4.53
"47","p39",4.81496083615093,4.95
"48","r168",5.24090273149347,4.82
"49","sd44",5.60151343854379,5.31
"50","tzi8",5.96255856641546,6.39
"51","va102",5.72007208456898,5.08
"52","va14",6.08978935262925,6.24
"53","va17",6.14973767570587,5.98
"54","va85",5.24096161724598,5.12
"55","w64a",5.8310874068925,4.55
