"","taxa","s1","nodenumberbelowear_BLUP.Hung_2012_1"
"1","4226",7.68545242256998,8.09
"2","a214n",8.55729407886954,10.83
"3","a556",7.40103900307311,7.05
"4","a680",8.43224255840952,8.27
"5","b14a",7.90063562653535,6.34
"6","b37",8.12736265711553,8.05
"7","b46",7.59053743189128,7.94
"8","b52",7.47767398872023,8.84
"9","b77",7.86804659757,8.48
"10","ci31a",7.90708774424877,9.24
"11","ci66",8.3847873576495,9.05
"12","cm105",7.19327313850453,6.23
"13","cm174",7.1150190132122,6.05
"14","cm7",7.11466100107015,4.45
"15","cml157q",9.75729809945362,10.47
"16","cml238",9.78850229172399,9.26
"17","cml254",10.0271896567915,8.2
"18","cml277",9.91840832254969,8.98
"19","cml311",9.41677038887253,7.93
"20","cml322",9.09311474846106,10.25
"21","cml332",9.14070527463867,9.06
"22","cml5",9.72054443886253,10.89
"23","cml91",9.66666912645679,8.62
"24","co106",7.50380192626566,6.03
"25","d940y",7.92250243931913,9.54
"26","de811",8.32225801362478,8.46
"27","h105w",7.71566439056946,8.46
"28","h49",7.26862899669961,8.62
"29","h91",8.09662474248363,8.89
"30","hi27",9.0635378113355,11.04
"31","i205",7.50860469991432,7.23
"32","il677a",6.67817404989796,7.42
"33","k4",8.07338390109849,9.44
"34","ki44",9.32759941340823,8.93
"35","ky228",8.16421137014188,9.09
"36","mo46",7.53812192372013,6.79
"37","mog",8.12612997883245,9.62
"38","nc258",8.14146057292679,8.37
"39","nc260",7.23476974614281,6.71
"40","nc264",9.10431448841645,8.45
"41","nc296a",8.80696447744175,8.29
"42","nc364",7.46848069974114,8.44
"43","oh43e",6.16999345330969,5.61
"44","oh7b",7.3750160486051,7.81
"45","os420",7.43350947752649,7.03
"46","pa762",6.6523929359133,6.87
"47","sc213r",9.4957306820305,7.78
"48","sc55",8.66130621991313,10.79
"49","tx303",8.94296766164592,8.19
"50","tx601",9.27420465514661,11.64
"51","u267y",8.1288626679084,7.34
"52","va17",7.86896808124393,6.78
"53","wf9",6.82961675640242,7.6
"54","yu796ns",7.61580926564444,8.05
