"","taxa","s1","nodenumberaboveear_BLUP.Hung_2012_1"
"1","4722",5.06604922198393,5.1
"2","a272",5.62848200633157,5.4
"3","a556",5.38181489997826,4.68
"4","a6",6.00620654642868,6.74
"5","a632",5.54759167507655,5.64
"6","c123",5.16383791676332,5.1
"7","ci90c",5.46425477516393,5.09
"8","cm174",5.40494344763489,4.81
"9","cm37",5.04103834492285,4.86
"10","cml11",5.98297022094448,6.26
"11","cml247",6.14522249814351,6.22
"12","cml281",5.95315628574142,7.38
"13","cml332",5.97044840113241,5.64
"14","cml52",6.03936391362823,6.85
"15","d940y",5.74381613994725,5.97
"16","f7",5.13900638359942,3.64
"17","h49",5.76261251607325,6.2
"18","h91",5.82197457328384,5.97
"19","i29",5.27463243099104,3.62
"20","ids91",4.50097866121585,4.25
"21","ki11",5.79571814228173,5.38
"22","ki43",5.70675956264277,5.13
"23","l578",5.86830824522774,5.53
"24","m14",5.34684810093048,5.07
"25","mef156552",5.23812379636039,3.96
"26","mo17",4.9128136290388,4.92
"27","ms153",5.3043953979264,4.57
"28","n6",5.51548131819133,5.7
"29","nc258",5.55722246684776,5.43
"30","nc260",5.64501281477979,5.66
"31","nc262",5.58429112965873,5.9
"32","nc290a",5.61345402775197,6.23
"33","nc296",5.52141423272494,5.68
"34","nc296a",5.58851723943682,5.38
"35","nc298",5.96398916154154,5.66
"36","nc302",5.67357800763162,6.79
"37","nc326",5.87085741652672,5.73
"38","nc336",5.72568883283022,5.89
"39","nc338",5.71889780585928,4.5
"40","nc364",6.11914613957189,6.56
"41","nd246",5.19654411598419,4.23
"42","oh40b",5.30795964636606,4.53
"43","oh43",5.47332681395085,5.36
"44","r229",5.78625073525854,5.17
"45","sd40",5.28452437230748,5.66
"46","sg1533",5.36931637262932,5.03
"47","t8",5.75524510199569,5.91
"48","tx303",5.78834017548387,5.24
"49","tzi11",5.96360611737568,6.23
"50","tzi8",5.97807569430003,6.39
"51","va14",5.85940608672775,6.24
"52","w182b",4.80056399307785,5.35
"53","w22",4.90751356295238,4.26
"54","wf9",5.81744781839145,6.8
"55","yu796ns",5.44309932810397,5.34
