"","taxa","s1","nodenumberbelowear_BLUP.Hung_2012_1"
"1","3811",7.96351087221909,7.62
"2","a554",7.07609978354177,5.85
"3","a661",6.81744301969117,7.33
"4","a682",7.09088370070725,5.19
"5","b10",7.96912483481285,8.88
"6","b164",7.51356770398872,7.53
"7","b2",7.94223166658058,8.54
"8","b46",7.26324568678618,7.94
"9","b77",7.91629239829302,8.48
"10","b84",8.31097546656508,9.38
"11","ci1872",8.28423011795407,9.88
"12","ci28a",8.45946876016943,8.71
"13","cm174",6.50080075192388,6.05
"14","cml154q",9.91412961150224,8.85
"15","cml314",9.76740432826024,9.23
"16","cml331",9.28262709139134,8.78
"17","cml52",9.6044481015822,11.45
"18","cml92",9.19023315878905,8.1
"19","co106",7.58645394497593,6.03
"20","d940y",8.04305474889486,9.54
"21","de811",8.58785238871799,8.46
"22","ga209",8.19200478500219,10.04
"23","h49",7.49505085794137,8.62
"24","hy",8.07665937350519,7.92
"25","i137tn",8.58542123597482,9.08
"26","i29",7.69079269675226,7.08
"27","ids91",7.61158059908866,7.58
"28","il14h",6.11685576068984,6.35
"29","k64",9.00832282785124,9.81
"30","l317",8.14272779081838,8.95
"31","m14",7.88176978652304,7.52
"32","mo44",7.63566880100926,6.75
"33","mp339",8.42957912236109,8.8
"34","ms153",7.47626578421422,7.31
"35","nc258",7.96928000900744,8.37
"36","nc260",7.78802906356681,6.71
"37","nc262",7.81999457215568,6.78
"38","nc264",9.16613781955102,8.45
"39","nc290a",7.65711352881164,8.39
"40","nc296",8.52009320492393,8.9
"41","nc302",7.78218087863398,9.46
"42","nc306",8.98743078814247,9.85
"43","nc314",8.76416607361891,8.49
"44","nc324",8.78010558308085,8.15
"45","nc326",8.53074860241086,8.94
"46","nc340",10.3614978210209,10.05
"47","nc344",7.8606547660887,8.28
"48","oh43",5.53808276245073,6.84
"49","oh603",7.77017940567413,6.9
"50","r168",7.43913548595152,7.57
"51","sd40",7.93023038779188,8.13
"52","va22",7.7637935954804,8.36
"53","w153r",7.1894772586889,6.12
"54","yu796ns",7.71735783383654,8.05
