"","taxa","s1","nodenumberaboveear_BLUP.Hung_2012_1"
"1","a239",5.19786666822681,4.76
"2","a6",6.11089697401208,6.74
"3","a634",5.59849435969808,5.41
"4","a679",5.21741140170968,5.11
"5","a682",4.99535999408896,5.12
"6","ab28a",5.82369273815257,5.1
"7","b10",6.12870692437237,4.74
"8","b115",5.47693293026635,5.69
"9","b164",5.336685366879,5.95
"10","b68",5.60905251600307,5.99
"11","b79",5.32142174345553,5.12
"12","b97",5.02233095334573,5.6
"13","ci7",5.77431354327323,5.43
"14","cml77",5.94537065468004,5.46
"15","cml91",5.66407041450657,6.21
"16","f7",4.95330834925513,3.64
"17","h105w",5.59658256510042,5.31
"18","h49",6.25857253816617,6.2
"19","h91",5.91232888843944,5.97
"20","hi27",5.94070780340398,5.11
"21","hp301",4.63776577288356,4.62
"22","i205",5.42754566286059,4.19
"23","il14h",4.99604251895036,5.59
"24","k148",5.39946553147156,6.23
"25","ki2021",5.4683868703147,5.24
"26","ki43",5.70828162540948,5.13
"27","ki44",5.7484143768888,5.96
"28","ky228",5.34174342893596,6.51
"29","m14",5.26036088596919,5.07
"30","ms153",5.18843804663971,4.57
"31","nc230",5.73242678957717,5.41
"32","nc250",6.23999795397144,6.27
"33","nc260",5.70917035308013,5.66
"34","nc294",6.01570694733598,6.55
"35","nc298",5.95694308517545,5.66
"36","nc300",6.65147958763803,6.56
"37","nc306",6.1573918403332,6.57
"38","nc318",5.32229302116162,5.13
"39","nc320",5.27313387723182,5.43
"40","nc324",6.57321587410293,7.05
"41","nc338",5.81453202212208,4.5
"42","nc342",5.78109401637171,5.62
"43","nc360",6.05492610240819,6.25
"44","oh43",5.26509944927283,5.36
"45","pa762",5.24912098156409,5.35
"46","pa875",5.64503329456618,5.97
"47","r109b",5.34199657412571,6.2
"48","r168",5.24536960449131,4.82
"49","r4",5.32354982742237,6.25
"50","sa24",4.72881071971127,5.35
"51","tzi10",5.91393116709637,5.99
"52","va14",6.03900727054702,6.24
"53","va26",5.26998455804236,5.67
"54","va35",5.56603312433076,5.41
"55","w64a",5.76323237569405,4.55
