"","taxa","s1","nodenumberaboveear_BLUP.Hung_2012_1"
"1","4722",4.74243968261961,5.1
"2","a6",6.05294016747334,6.74
"3","a635",5.621523183688,5.64
"4","b14a",5.47071039045607,6.21
"5","b77",5.5068185428985,6.79
"6","b84",5.86846918433893,5.07
"7","ci3a",5.27659979242032,5.47
"8","cm105",5.06888904373869,5.39
"9","cml103",5.97347835930941,4.48
"10","cml14",6.24287335037855,5.91
"11","cml154q",6.14023970328346,5.98
"12","cml158q",6.01701650037907,6.75
"13","cml228",5.64315950013419,5.34
"14","cml277",6.13556993780986,6.15
"15","cml311",5.93722552307683,5.87
"16","cml322",6.10516931747026,5.77
"17","cml332",6.03694519458,5.64
"18","cml333",5.91873376682866,6
"19","cml69",5.97883694545009,6.08
"20","co125",5.19845251823605,4.21
"21","ep1",5.0771018179455,4.25
"22","f6",5.58613915728818,5.85
"23","h91",5.60410503960173,5.97
"24","h95",5.30096590515356,5.07
"25","hi27",5.90652453737503,5.11
"26","i29",5.20896190912217,3.62
"27","il101",4.84255861337687,5.36
"28","il14h",4.84792086550344,5.59
"29","k55",5.71104849242,5.97
"30","ki44",5.78361670450445,5.96
"31","ky21",5.52291716760398,5.27
"32","mo44",5.54968395697087,5.92
"33","ms1334",5.37163905051823,4.82
"34","mt42",5.20852353856058,4.27
"35","nc230",5.63884412211841,5.41
"36","nc296a",5.56393798565893,5.38
"37","nc314",6.7220794724095,6.82
"38","nc320",5.23355735940727,5.43
"39","nc350",5.83689966959094,6.64
"40","nc366",5.99655654165186,5.99
"41","nc368",6.22729748999397,6.81
"42","nd246",5.14781849583074,4.23
"43","oh40b",5.19954839541891,4.53
"44","oh43e",5.43480224031177,5.69
"45","r229",5.77993328950488,5.17
"46","sa24",4.62556178484067,5.35
"47","sc357",5.8930277118557,6.21
"48","t232",5.53921732545226,5.17
"49","tx303",5.82848654328281,5.24
"50","u267y",5.86005046632511,5.48
"51","va102",5.29393567953259,5.08
"52","va85",5.20191749217045,5.12
"53","w117ht",5.36234242137447,4.25
"54","w182b",4.71654635794302,5.35
"55","w22rrstd",4.74883465717973,4.49
