"","taxa","s1","numbraceroots_BLUP.Hung_2012_1"
"1","4226",1.51287382835901,1.15
"2","a214n",1.62189839717335,1.39
"3","a239",1.50031391490005,1.91
"4","a634",1.5174311125786,1.71
"5","a635",1.52180741501752,1.22
"6","a659",1.51604188658222,1.5
"7","a661",1.48195056583612,1.25
"8","a682",1.46657381341521,1.26
"9","b105",1.62537522235943,2.26
"10","b57",1.50988503103746,1.38
"11","b64",1.56858325179519,1.68
"12","b75",1.55406906661725,1.4
"13","ci3a",1.49666814128508,1.64
"14","cm7",1.43244698093747,1.14
"15","cml10",1.74864048809763,1.65
"16","cml103",1.70436352334309,1.27
"17","cml11",1.75482036900751,1.42
"18","cml158q",1.73932611307679,1.29
"19","cml228",1.80838351264589,1.9
"20","cml281",1.81974681837572,2.72
"21","cml322",1.6239001222985,1.9
"22","cml332",1.57715498444146,1.67
"23","cml45",1.77802419992588,1.26
"24","cml5",1.75406309727938,1.98
"25","co106",1.49513577470113,0.94
"26","de811",1.62247997368262,1.68
"27","f44",1.63005408643821,1.72
"28","h105w",1.54294899686114,1.65
"29","i29",1.44563573330149,1.2
"30","m37w",1.76920817756413,1.82
"31","mo1w",1.45967371421048,1.13
"32","mo24w",1.53361749221888,1.66
"33","mog",1.47316311428493,1.97
"34","ms71",1.35908275709535,1.42
"35","mt42",1.46536051439707,1.2
"36","n6",1.51544660052316,1.44
"37","nc258",1.57979801673778,1.53
"38","nc262",1.59723193088484,1.24
"39","nc290a",1.62793972710813,1.44
"40","nc296a",1.81560312482844,2.34
"41","nc306",1.94242086127675,1.91
"42","nc324",2.01283280091315,1.58
"43","nc326",1.96496996077102,2.13
"44","nc350",1.72274563937847,2.06
"45","nc354",1.8231398897417,2.21
"46","nc364",1.68755360941174,1.7
"47","os420",1.47450233066713,1.22
"48","pa91",1.49395905020627,1.39
"49","sc213r",1.51824008572093,1.92
"50","tx601",1.67559326960534,2.35
"51","tzi9",1.74180697004631,1.37
"52","va17",1.39054863912561,1.23
"53","va99",1.50582729532473,1.16
"54","w153r",1.51705063453852,0.98
"55","w64a",1.51536791146305,1.65
