"","taxa","s1","numbraceroots_BLUP.Hung_2012_1"
"1","a239",1.45131435672376,1.91
"2","a634",1.48879850076702,1.71
"3","a641",1.38216091517813,1.2
"4","a659",1.45596804344174,1.5
"5","b10",1.65711996578122,1.43
"6","b104",1.73916138528243,1.41
"7","b105",1.64716234943281,2.26
"8","b2",1.46531443405296,1.87
"9","b68",1.53266891734601,1.71
"10","b73htrhm",2.08063824319353,1.69
"11","ch70130",1.48324203187365,1.47
"12","ci7",1.45251088745937,1.91
"13","ci90c",1.51903886151075,1.84
"14","cm105",1.35846490754683,1.26
"15","cm37",1.29490699765661,1.03
"16","cml108",1.70925717359517,1.34
"17","cml11",1.72464394114143,1.42
"18","cml261",1.77768879353497,1.84
"19","cml5",1.76238067963595,1.98
"20","cml52",1.77842128386816,1.93
"21","cml69",1.76955718256935,1.79
"22","cmv3",1.36589945458691,1.19
"23","co106",1.44396068999035,0.94
"24","co255",1.38366524670439,0.93
"25","de811",1.54777273957464,1.68
"26","h105w",1.51833846019377,1.65
"27","ia2132",1.2600079409643,1.47
"28","il677a",1.31881320925056,1.33
"29","ki2021",1.83852271075747,1.44
"30","ki21",1.69917080534607,1.7
"31","mef156552",1.31940806204281,1.17
"32","mo45",1.5816327218017,1.26
"33","mo46",1.55195832066355,1.95
"34","ms153",1.47767260554772,1.45
"35","n7a",1.5550732966132,1.65
"36","nc260",1.34181025052315,1.42
"37","nc262",1.53124156547669,1.24
"38","nc294",1.98204507858533,1.65
"39","nc318",1.63070040990976,1.71
"40","nc324",2.04047810808503,1.58
"41","nc348",1.85775545178559,1.34
"42","nc362",1.6696202163849,1.64
"43","nc368",1.90098814359041,2.03
"44","pa875",1.46574896790192,1.21
"45","pa880",1.46316157324119,2.4
"46","pa91",1.39458518490724,1.39
"47","r168",1.40709067866282,1.18
"48","sa24",1.37780749391388,1.65
"49","t232",1.50746849775863,1.46
"50","t8",1.39569146717416,1.5
"51","tzi18",1.76074303905952,2.18
"52","u267y",1.57286137260214,1.72
"53","va102",1.85261662559493,1.73
"54","vaw6",1.59255779842326,1.44
"55","w22",1.5412027241696,1.98
