"","taxa","s1","numbraceroots_BLUP.Hung_2012_1"
"1","3316",1.54526830709469,1.4
"2","a556",1.54327004387064,1.41
"3","a641",1.4043373355586,1.2
"4","a679",1.80045339873964,1.69
"5","a682",1.43999598390622,1.26
"6","ab28a",1.57425597366808,1.16
"7","b104",1.73931383744303,1.41
"8","b14a",1.57652021827615,1.71
"9","b164",1.52661376108705,1.65
"10","b76",1.66192292265869,2.12
"11","ch70130",1.51679033841781,1.47
"12","ci21e",1.52017262365369,1.83
"13","ci64",1.43588397041932,1.22
"14","ci7",1.52589753354813,1.91
"15","cml154q",1.75488939224897,1.66
"16","cml220",1.77020004657343,1.69
"17","cml247",1.81216771505228,2.04
"18","cml261",1.76872950339441,1.84
"19","cml5",1.75026424346077,1.98
"20","cmv3",1.32087915857214,1.19
"21","d940y",1.54740042287864,1.9
"22","f44",1.62689450418272,1.72
"23","h91",1.57190051337779,1.2
"24","hi27",1.80731083518976,1.61
"25","ki11",1.77276109515067,1.86
"26","ki3",1.92852248299437,1.47
"27","m14",1.53403314150008,1.43
"28","m37w",1.61361743638653,1.82
"29","mef156552",1.32729603004669,1.17
"30","mo18w",1.58934451778722,1.48
"31","mo46",1.50950232481783,1.95
"32","mt42",1.44509586782032,1.2
"33","n28ht",1.68705788774615,2.33
"34","n6",1.52541850442105,1.44
"35","n7a",1.55101624209584,1.65
"36","nc222",1.53250478235181,1.38
"37","nc232",1.55928693094216,1.47
"38","nc250",1.72097351881719,1.47
"39","nc328",1.87392053001913,2.37
"40","nc338",1.81822367388595,2.19
"41","nd246",1.44464344845598,1.14
"42","oh43e",1.48195962813988,1.69
"43","os420",1.52367104835265,1.22
"44","pa875",1.55215950218042,1.21
"45","pa91",1.4888789233372,1.39
"46","r4",1.53248796923612,1.37
"47","sg18",1.34918069255461,1.28
"48","t232",1.50580414481542,1.46
"49","t234",1.54217319711472,1.28
"50","tx303",1.63077204957403,1.43
"51","tzi9",1.76100497320735,1.37
"52","va22",1.39181015100932,1.47
"53","va99",1.4990368231898,1.16
"54","w117ht",1.4628478217475,1.84
"55","w182b",1.43054998948479,1.01
