"","taxa","s1","oil_kernel_BLUP.Cook_2012"
"1","4226",4.30215872611148,4.513
"2","a214n",4.01391362190769,3.667
"3","a6",4.58669166149032,4.855
"4","a682",4.09048900666972,3.99
"5","b164",4.23153554698162,4.905
"6","b46",3.83869307189073,4.11
"7","b52",4.33438147355874,4.503
"8","b79",4.13831682447263,3.638
"9","ci64",4.36557853258023,3.828
"10","ci90c",4.69559414342433,4.518
"11","cm7",4.52728202974685,3.764
"12","cml10",4.70122619629376,4.703
"13","cml108",4.51650462833322,4.845
"14","cml220",4.63445344068853,3.866
"15","cml258",4.61278833545114,3.769
"16","cml264",4.54386418474796,4.252
"17","cml287",4.592271368266,3.653
"18","cml321",4.55443157296097,5.383
"19","cml38",4.55610814925283,5.368
"20","cml52",4.63516112788723,4.435
"21","co125",4.36969412789306,4.761
"22","co255",4.49117120391461,4.409
"23","f2834t",4.36637774092516,4.191
"24","ga209",4.5309188381525,4.123
"25","h91",3.98002229930955,4
"26","hy",3.92946670347747,3.649
"27","ia2132",5.42477896138714,5.142
"28","il14h",5.25919930938447,6.35
"29","ki43",4.63494121186529,5.223
"30","ky228",4.43816508555163,3.786
"31","mo44",4.61673498121304,4.135
"32","mo45",4.36628274077429,3.827
"33","mog",4.4357835098114,5.526
"34","nc236",4.45018777717811,4.628
"35","nc262",4.48303080412732,4.528
"36","nc264",4.88935512043466,4.962
"37","nc294",3.87944657864615,4.16
"38","nc296a",4.14868887234614,3.645
"39","nc362",4.12209335310482,4.28
"40","oh603",4.38416176605667,3.845
"41","r168",4.46705872932645,5.134
"42","r177",4.27130645317795,4.52
"43","r4",4.08006193733072,4.108
"44","sd40",4.15231544154163,4.754
"45","sd44",4.30497316685487,3.282
"46","sg18",4.23114398913821,3.863
"47","tx303",4.43665320800376,3.93
"48","tzi11",4.48218823578037,4.551
"49","tzi16",4.24587168834775,4.891
"50","tzi18",4.56037816797588,4.57
"51","tzi25",4.28143880825546,4.364
"52","va85",4.27294407139643,4.621
"53","w117ht",4.45043034259419,4.26
"54","w22rrstd",3.97767429870207,4.442
"55","wf9",3.9201415510002,3.521
