"","taxa","s1","oil_kernel_BLUP.Cook_2012"
"1","4226",4.33114559354342,4.513
"2","4722",4.29043685007511,4.14
"3","a556",4.35499128865803,3.806
"4","b10",3.78029209026298,3.654
"5","b105",3.97369776252911,3.76
"6","b109",3.75492667826665,3.905
"7","b14a",3.89932612550867,4.187
"8","b37",4.04174366175614,3.724
"9","b46",3.9522433581776,4.11
"10","b57",4.37973146571601,3.656
"11","b64",4.05223454032787,3.334
"12","b68",3.88392111027336,3.665
"13","b73htrhm",3.76634905510874,3.613
"14","b75",4.21344971118722,4.346
"15","ch9",4.24550781254625,3.986
"16","ci21e",4.14053462620449,3.729
"17","ci64",4.43939972727611,3.828
"18","cml103",4.57780089025467,4.292
"19","cml158q",4.44923597942036,4.188
"20","cml264",4.52255663901309,4.252
"21","cml314",4.49575027116138,4.878
"22","cml333",4.59661788796637,5.539
"23","d940y",3.9475022324992,4.743
"24","h91",3.89432806812256,4
"25","i205",4.16271717935604,3.885
"26","k64",4.38310359772952,4.382
"27","ki21",4.35860276097532,4.319
"28","ki3",4.75191288162178,4.614
"29","ky226",4.2359788984793,3.298
"30","mo18w",4.47922091964844,4.15
"31","mo45",4.39556468077242,3.827
"32","ms1334",4.48934642129137,4.967
"33","n192",3.82324608208522,4.237
"34","nc232",4.26200567191203,3.45
"35","nc250",4.40747503491504,3.659
"36","nc258",4.53424426942855,5.37
"37","nc294",3.99545621848387,4.16
"38","nc310",3.9741152189502,4.581
"39","nc318",4.86585504059953,4.946
"40","nc324",4.59996028832016,3.953
"41","nc328",3.77125361325918,4.251
"42","nc340",4.31654664261128,3.374
"43","nc354",4.23857083410214,5.16
"44","nc362",4.11240717961846,4.28
"45","nc368",4.14175035760438,3.91
"46","os420",4.27105844138826,3.889
"47","pa875",4.26674544125687,3.845
"48","r168",4.46535526846304,5.134
"49","sc357",4.75852085087006,6.202
"50","sc55",4.59000500870792,5.503
"51","sd40",4.19953439755062,4.754
"52","sg1533",4.08736122736596,4.252
"53","tzi16",4.23221630650139,4.891
"54","tzi25",4.27200109266937,4.364
"55","w64a",3.91387747654493,4.021
