"","taxa","s1","oil_kernel_BLUP.Cook_2012"
"1","a188",4.48112304550344,4.624
"2","a554",4.240806362509,3.972
"3","a680",3.84652815398721,3.633
"4","b37",3.91135415526913,3.724
"5","b52",4.33842321500475,4.503
"6","b57",4.43318474090566,3.656
"7","b97",4.35681785422315,4.033
"8","c103",4.45814364009645,3.97
"9","ch70130",4.40215302809513,4.582
"10","ci21e",4.1642338174463,3.729
"11","ci3a",4.38408483852664,3.7
"12","ci64",4.42013309109476,3.828
"13","cml322",4.70526950987034,5.396
"14","cml331",4.53390130950924,4.217
"15","cml333",4.61351038760957,5.539
"16","cml61",4.39347399388174,4.132
"17","cml69",4.53857902277997,4.633
"18","cml77",4.56041347512023,4.674
"19","cml92",4.48641272363375,4.631
"20","cmv3",4.29331065890655,4.673
"21","de1",4.19487725343303,3.802
"22","de3",4.28371503373996,4.493
"23","h91",3.94968701770199,4
"24","hi27",4.35384783714848,4.357
"25","ia2132",5.54087413366756,5.142
"26","k4",4.39192683971695,5.423
"27","ki21",4.38738837294591,4.319
"28","ki3",4.74368678555089,4.614
"29","ki44",4.5506448741538,4.507
"30","ky226",4.25966914038172,3.298
"31","mo18w",4.39248262527747,4.15
"32","mo1w",3.97827103420295,3.975
"33","mo44",4.64038779918732,4.135
"34","mo45",4.38605604529299,3.827
"35","ms71",4.54066009611271,4.153
"36","nc238",4.82347609418619,4.605
"37","nc294",3.92602837780428,4.16
"38","nc296a",4.11622066738652,3.645
"39","nc300",3.97093043104113,4.042
"40","nc326",3.92132145577558,4.191
"41","nc348",4.28496868428639,4.027
"42","nc350",4.3901217396415,5.309
"43","oh43e",3.69607968895079,4.304
"44","oh603",4.38757556451252,3.845
"45","pa91",4.44226604813867,4.564
"46","sa24",4.27511633027144,4.091
"47","sd40",4.18637670971217,4.754
"48","sd44",4.3140042339098,3.282
"49","t234",4.39826640204988,4.458
"50","tzi18",4.54915275480391,4.57
"51","tzi25",4.30253502946332,4.364
"52","va22",4.41328103343408,5.041
"53","va59",4.54022094762479,4.969
"54","va99",4.59829167599791,4.708
"55","yu796ns",4.45030186370657,3.785
