"","taxa","s1","plant_height_BLUP.Peiffer_2014"
"1","4226",151.782951435962,176.761
"2","a239",145.769244585496,141.403
"3","a272",158.692633508849,154.798
"4","a554",149.063511305232,129.043
"5","a556",151.492368888824,115.693
"6","a6",166.920239067441,186.75
"7","a654",145.836356515929,122.738
"8","a679",163.005796870739,158.43
"9","b164",153.810422216489,165.495
"10","b84",160.997495943076,160.414
"11","b97",154.351446574559,168.721
"12","ch9",147.72660868959,132.823
"13","ci21e",154.193978850699,167.742
"14","ci28a",168.663397230265,153.407
"15","ci64",164.860958822847,164.42
"16","ci66",142.882641153014,135.776
"17","cm7",143.073011052977,108.091
"18","cml108",170.458321878836,160.601
"19","cml158q",169.142518833575,174.917
"20","cml220",168.994630732408,131.644
"21","cml258",177.630416881415,182.432
"22","cml261",176.560529186638,198.808
"23","cml332",186.168201265404,147.338
"24","cml333",172.951962467462,186.702
"25","cml341",175.6751003112,190.175
"26","cml38",173.82552506669,161.86
"27","de2",153.13838400838,147.997
"28","f2834t",161.03174087224,148.678
"29","h84",158.824015423028,142.249
"30","hy",148.195710348631,141.275
"31","i137tn",163.335087401287,151.838
"32","ids28",145.937494576634,161.548
"33","il677a",138.25497228233,131.171
"34","ki11",171.389583041261,152.626
"35","ky21",156.054244249739,164.764
"36","nc232",163.612659843312,139.514
"37","nc236",156.081271092384,144.678
"38","nc260",157.744850251659,168.132
"39","nc298",159.909243042798,162.816
"40","nc300",169.136814540422,174.467
"41","nc310",168.514500558762,169.224
"42","nc344",152.275170430037,172.691
"43","nc352",156.315610835411,168.4
"44","nc360",161.305653233773,127.722
"45","nc364",158.760153771194,163.805
"46","oh43",145.390517972809,144.306
"47","oh603",157.005505745245,125.763
"48","p39",115.939259378853,116.761
"49","pa762",148.195623800488,140.343
"50","r109b",150.423752370835,156.527
"51","r229",173.770635222304,171.597
"52","sc213r",168.81192173009,176.064
"53","sc357",164.123533836949,156.17
"54","sc55",160.634163090148,180.436
"55","sd44",151.880792978537,143.111
"56","tx601",169.17731245452,199.819
"57","tzi9",170.218943599636,199.752
