"","taxa","s1","plant_height_BLUP.Peiffer_2014"
"1","3811",162.593201835595,181.573
"2","a554",149.413305621299,129.043
"3","a661",141.523539477655,147.194
"4","a682",143.666415233743,156.079
"5","ab28a",159.474970269333,172.271
"6","b164",143.341997396249,165.495
"7","b2",154.225613027969,173.657
"8","b46",152.041828230557,162.749
"9","b73htrhm",175.5416718613,174.67
"10","b77",158.898225733707,159.269
"11","b84",157.594381588393,160.414
"12","ci28a",158.166957352728,153.407
"13","cm174",134.937209918582,122.527
"14","cm7",144.646266047639,108.091
"15","cml154q",173.085963507425,152.203
"16","cml228",164.378137344516,172.665
"17","cml238",172.476088522933,151.291
"18","cml247",178.045720854311,155.851
"19","cml277",179.31363523758,184.117
"20","cml341",177.127233192104,190.175
"21","cml91",168.355220552175,172.73
"22","cml92",172.857375328282,187.583
"23","e2558w",153.234842989388,163.583
"24","f2834t",161.182464026681,148.678
"25","f44",160.988635212773,189.54
"26","h49",151.804916656229,156.548
"27","h99",145.80810581614,119.729
"28","hi27",164.723238647891,185.703
"29","i137tn",162.657393385092,151.838
"30","ki14",165.675753247794,185.537
"31","mef156552",139.041428710702,135.849
"32","mp339",160.614227087591,160.921
"33","mt42",141.755550193747,120.286
"34","nc222",156.427231185602,172.755
"35","nc230",146.956239018427,136.009
"36","nc232",163.712843899261,139.514
"37","nc290a",136.901555747476,142.123
"38","nc294",166.524599453899,179.245
"39","nc296",161.653617380595,171.825
"40","nc296a",161.539960613002,148.66
"41","nc300",169.458237562444,174.467
"42","nc304",153.835820995251,108.603
"43","nc310",169.890000867012,169.224
"44","nc318",161.892146774455,169.586
"45","nc320",161.807207227265,167.446
"46","nc326",173.7173390266,172.451
"47","nc33",160.689195718658,204.391
"48","nc356",164.528758116084,158.075
"49","sa24",141.850792884207,152.355
"50","sd40",144.800643825296,178.149
"51","sg18",160.162353632489,176.916
"52","va17",157.519132481012,146.275
"53","va22",155.187834793415,156.506
"54","va35",160.70922248449,141.835
"55","va99",163.679339605982,156.995
"56","w117ht",146.888331296524,109.001
"57","w22rrstd",142.126456702559,142.84
