"","taxa","s1","plant_height_BLUP.Peiffer_2014"
"1","3316",166.917163701278,180.289
"2","a632",150.254216001077,154.346
"3","a641",138.00623538685,127.734
"4","b105",155.015370366202,154.353
"5","b109",169.110659353104,174.313
"6","b164",144.690301048419,165.495
"7","b46",151.109247470678,162.749
"8","b57",153.388031399689,134.997
"9","b75",150.546295778028,152.79
"10","b84",160.711337424824,160.414
"11","ci28a",169.339076693725,153.407
"12","cm174",135.001513545966,122.527
"13","cm7",144.521152781665,108.091
"14","cml103",172.924464031861,169.434
"15","cml11",190.033988039553,187.371
"16","cml14",174.491733798037,162
"17","cml154q",173.577910325162,152.203
"18","cml218",167.777767140878,182.106
"19","cml254",177.471975773189,186.04
"20","cml311",170.472743832284,190.907
"21","cml328",165.820366901016,175.987
"22","cml331",155.731756996408,205.558
"23","cml91",170.093636995042,172.73
"24","ep1",147.359426808865,114.932
"25","h99",147.054118521917,119.729
"26","hp301",143.69701767535,157.156
"27","i137tn",161.606576108589,151.838
"28","ia2132",137.136255793422,122.467
"29","ids69",130.597624030439,105.905
"30","k4",154.561066737601,167.854
"31","k64",156.512690584463,169.24
"32","ki43",168.807375943129,130.508
"33","mef156552",140.75542114961,135.849
"34","mo18w",169.452865225167,164.379
"35","mo1w",157.322576829034,147.462
"36","mo24w",155.847044603896,187.998
"37","mo44",164.511285632027,156.072
"38","mo46",151.086125225874,158.62
"39","ms153",147.042309898186,152.218
"40","nc236",157.148165116181,144.678
"41","nc250",156.494616535436,134.85
"42","nc296a",166.100889270455,148.66
"43","nc338",164.561377517836,161.77
"44","nc344",150.316214745859,172.691
"45","nc360",161.292306659931,127.722
"46","nc364",158.603612466739,163.805
"47","nc368",165.125183306871,170.741
"48","oh43e",146.445516222868,127.531
"49","pa880",155.661991629971,173.886
"50","r109b",149.779961726201,156.527
"51","r229",175.10834663444,171.597
"52","sd40",145.942091787715,178.149
"53","t234",154.584683357807,153.059
"54","va35",161.174700768026,141.835
"55","va85",147.751806143966,161.486
"56","w182b",137.041370333566,127.628
"57","w22",144.573380527184,140.969
