"","taxa","s1","plant_height_BLUP.Peiffer_2014"
"1","4226",151.295716070632,176.761
"2","a214n",163.874912175886,179.823
"3","a239",147.910403998006,141.403
"4","a634",155.953431086954,145.156
"5","a635",155.805285076728,115.589
"6","a654",144.294704756194,122.738
"7","a659",148.411985926014,132.083
"8","a661",142.504422550647,147.194
"9","a682",146.778728538921,156.079
"10","b105",155.544367076704,154.353
"11","b57",152.10202921006,134.997
"12","b64",160.431068484714,123.984
"13","ci3a",156.426809707302,181.757
"14","cm7",143.977600327217,108.091
"15","cml10",172.883568431434,202.36
"16","cml103",168.135421642718,169.434
"17","cml11",172.292262211524,187.371
"18","cml228",163.646453249223,172.665
"19","cml332",185.980195448544,147.338
"20","cml341",174.320865227006,190.175
"21","cml5",173.302960712818,202.041
"22","cml61",176.220843254364,201.11
"23","cml92",169.801719908224,187.583
"24","f44",159.173037151194,189.54
"25","h105w",158.195213877942,146.112
"26","h49",152.009827731159,156.548
"27","hi27",168.909303968814,185.703
"28","i29",148.230256317614,124.193
"29","il101",132.711203864383,127.902
"30","k4",155.511952435215,167.854
"31","mo18w",158.742046158767,164.379
"32","mo24w",153.79805594684,187.998
"33","mo45",151.484459060317,181.797
"34","mo46",152.91307316319,158.62
"35","mo47",158.12035590337,126.663
"36","mog",158.156312269369,189.179
"37","ms1334",148.071657059944,147.621
"38","ms153",147.386454321872,152.218
"39","ms71",154.649643654327,140.875
"40","nc222",157.168126713411,172.755
"41","nc232",162.585539248501,139.514
"42","nc258",149.08364124615,156.059
"43","nc294",163.458390087461,179.245
"44","nc298",160.836248391876,162.816
"45","nc306",167.824118551846,156.933
"46","nc324",154.525532004758,159.125
"47","nc33",157.350253264565,204.391
"48","nc342",140.816366243497,166.561
"49","nc344",146.159834090299,172.691
"50","nc346",160.55865335505,165.449
"51","nc368",166.250514884705,170.741
"52","oh43",139.611640152681,144.306
"53","tx303",165.298261075363,198.113
"54","va22",154.003690384321,156.506
"55","va26",145.754396476406,163.637
"56","w153r",144.275310265863,101.599
"57","w64a",151.677883999468,144.898
