"","taxa","s1","plant_height_BLUP.Peiffer_2014"
"1","4722",138.506533762416,162.867
"2","a554",146.13363695001,129.043
"3","a556",154.397606590731,115.693
"4","a619",142.36056296925,155.824
"5","b105",157.609958190279,154.353
"6","b64",161.230889049431,123.984
"7","b84",162.852959913261,160.414
"8","c103",151.102527128431,145.433
"9","ci28a",168.692714350263,153.407
"10","ci66",142.87381558371,135.776
"11","cm105",137.219158446847,134.851
"12","cm174",136.987638501466,122.527
"13","cml108",171.032087915535,160.601
"14","cml228",165.993076289606,172.665
"15","cml247",177.060517832344,155.851
"16","cml254",178.376285131862,186.04
"17","cml287",169.362504159437,207.616
"18","cml314",173.068579329645,199.596
"19","cml328",166.674682528147,175.987
"20","e2558w",155.559790490184,163.583
"21","h99",148.972067025892,119.729
"22","hp301",134.467903096055,157.156
"23","ia5125",141.626354481576,102.538
"24","il14h",124.448172757125,159.44
"25","k148",154.72704903382,152.749
"26","ki2021",163.365854245464,199.23
"27","ki21",163.005733448585,161.723
"28","ki43",167.405721168513,130.508
"29","m162w",160.942139283168,155.986
"30","ms153",148.883092855608,152.218
"31","mt42",141.662154282821,120.286
"32","n6",152.933644958112,145.954
"33","nc236",156.935136920762,144.678
"34","nc250",159.985748805535,134.85
"35","nc264",160.837501625485,153.034
"36","nc296a",166.41871554552,148.66
"37","nc298",162.963497874306,162.816
"38","nc306",169.444897681578,156.933
"39","nc310",171.812249346195,169.224
"40","nc314",161.739056965236,153.815
"41","nc33",156.46557504003,204.391
"42","nc336",162.488991218231,154.452
"43","nc340",173.876130774056,168.744
"44","nc368",170.932254208502,170.741
"45","oh603",155.871270182058,125.763
"46","r109b",154.110114044923,156.527
"47","sc213r",163.636048765276,176.064
"48","t232",162.15400306322,193.956
"49","t8",151.485032364056,179.722
"50","va102",161.614274138419,160.911
"51","va14",149.697604474948,146.08
"52","va26",145.671191805606,163.637
"53","va85",146.849151880692,161.486
"54","vaw6",155.401835393044,105.409
"55","w182b",138.985696852988,127.628
"56","w22",145.924972971668,140.969
"57","wf9",148.758568274426,167.717
