"","taxa","s1","protein_kernel_BLUP.Cook_2012"
"1","3316",14.0163084686858,13.796
"2","a6",13.8182656857943,14.081
"3","a654",14.2985451904623,15.396
"4","a680",13.8092329823626,13.185
"5","b10",13.8641955268569,13.308
"6","b105",13.8364399127207,14.184
"7","b164",14.0962962092159,13.056
"8","b2",14.1069973819995,17.46
"9","b77",13.9077287530765,13.91
"10","ci1872",14.018590975891,13.639
"11","ci31a",14.0963500213716,14.996
"12","ci7",14.0702018274337,14.36
"13","ci91b",13.7656120272917,12.576
"14","cml247",13.9606331859203,14.616
"15","cml261",13.7188968091327,14.094
"16","cml333",13.8663387596835,13.769
"17","cml52",13.9157769650394,14.176
"18","cml61",13.7377558916975,14.17
"19","d940y",13.8657441397331,14.913
"20","e2558w",13.6775066380218,13.161
"21","f6",13.9484664639929,15.323
"22","h84",13.7929362090045,14.413
"23","h91",14.1415396382835,14.594
"24","hy",13.926985611829,13.417
"25","ki11",13.9787455045615,14.162
"26","ki2021",13.7278415655983,14.909
"27","l317",14.0333999953509,13.553
"28","l578",13.7872714108918,15.854
"29","m37w",13.811970055743,14.447
"30","mo17",13.2133328497833,13.697
"31","mo1w",13.9781611363365,14.393
"32","mo45",13.9469991170592,13.09
"33","ms1334",14.0887617604445,15.022
"34","n6",13.8925193034852,13.374
"35","n7a",13.6604167814122,13.825
"36","nc250",13.7892086615867,13.731
"37","nc264",14.146732102457,13.641
"38","nc326",13.6447183735624,13.668
"39","nc336",13.3689039533917,13.239
"40","nc352",13.3297955353196,12.601
"41","nc364",12.8654227737168,12.672
"42","nc366",13.7099596026287,13.384
"43","oh40b",14.0140309504399,14.425
"44","oh603",13.8255964145754,14.882
"45","oh7b",13.824151360826,14.81
"46","p39",15.2910683074618,17.172
"47","pa875",13.9482149249557,14.335
"48","sd44",14.1974302231387,15.653
"49","sg18",13.7472547271908,13.811
"50","t8",14.1312882314538,14.31
"51","tzi10",13.8148569084188,14.5
"52","tzi8",13.9463921257207,15.334
"53","u267y",13.8731407867298,13.489
"54","va26",14.0041803074573,14.143
"55","va85",14.0040313821129,13.52
