"","taxa","s1","protein_kernel_BLUP.Cook_2012"
"1","4722",13.5475949791385,14.102
"2","a4415",14.0143048387936,14.099
"3","a556",14.0023077968078,12.921
"4","a6",13.9383205709657,14.081
"5","a632",14.1853455386228,13.939
"6","b68",14.1935615141039,14.409
"7","b97",14.2410352381521,12.338
"8","c123",13.617498530788,13.385
"9","ci91b",13.827019199452,12.576
"10","cm7",14.2125999378836,15.167
"11","cml10",13.9073799861651,13.631
"12","cml154q",13.7156421193263,12.498
"13","cml254",13.6582990790646,13.296
"14","cml261",13.7637463187385,14.094
"15","cml264",13.8335810808452,14.778
"16","cml323",13.9947506472179,14.128
"17","cml333",13.8729739996559,13.769
"18","cml341",13.6350278731293,14.685
"19","f6",13.9296341702958,15.323
"20","hp301",13.4865494635208,13.262
"21","k148",14.0213763658391,15.064
"22","k4",14.1361218337605,13.327
"23","ki2021",13.7930850192277,14.909
"24","ky228",14.0084565323923,14.142
"25","l578",13.7780336986363,15.854
"26","m14",13.8798477581249,15.406
"27","mo46",13.9517236159013,14.55
"28","mog",13.9344163498394,14.279
"29","ms1334",14.1115049991183,15.022
"30","mt42",14.1648642601823,14.202
"31","n6",13.9505913487844,13.374
"32","nc250",14.010607643651,13.731
"33","nc264",14.1614601546229,13.641
"34","nc290a",12.7125373158474,12.207
"35","nc294",13.7817042822084,13.089
"36","nc304",13.8536366310084,13.251
"37","nc310",13.57120015838,13.641
"38","nc314",13.839845356306,14.114
"39","nc324",13.8109104785663,12.847
"40","nc326",13.5912457629983,13.668
"41","nc33",14.1122007004104,16.179
"42","nc346",12.8952773612437,13.603
"43","nc348",13.7053651873472,13.698
"44","oh43e",13.8906011192991,14.712
"45","os420",14.0337411770923,15.342
"46","p39",15.1648752281696,17.172
"47","sc357",13.8659594719165,14.551
"48","t232",13.9128194369613,13.399
"49","tzi8",14.0304160130288,15.334
"50","tzi9",13.8463856277481,12.535
"51","va22",14.161030562062,16.211
"52","w153r",13.9564428719159,14.137
"53","w182b",14.1730470326513,14.694
"54","wf9",14.7443575428916,13.685
"55","yu796ns",13.9442331230725,13.19
