"","taxa","s1","protein_kernel_BLUP.Cook_2012"
"1","a239",14.2815028780494,12.853
"2","a6",13.8290420398813,14.081
"3","a634",14.0877445103893,15.48
"4","a661",14.1552763988786,15.502
"5","a679",13.3211090509156,14.462
"6","a682",13.7483825875401,12.463
"7","ab28a",14.2657914865897,15.116
"8","b10",13.9518327147904,13.308
"9","b115",14.1319995668165,14.547
"10","b164",14.1852670976029,13.056
"11","b68",14.1184221256026,14.409
"12","b79",14.2054123960757,13.467
"13","b97",14.4368596370845,12.338
"14","ci90c",14.2266662895593,13.423
"15","cml103",13.865430187799,13.265
"16","cml287",13.8431077934778,14.305
"17","cml321",13.7129335675134,14.056
"18","cml52",13.8538641790491,14.176
"19","cml61",13.7701795257985,14.17
"20","e2558w",13.6724008269918,13.161
"21","f44",13.9793064606838,15.109
"22","f6",14.0178507305124,15.323
"23","ga209",14.2335486838506,14.183
"24","h105w",13.9627038203117,14.059
"25","h84",13.8360139386769,14.413
"26","hi27",13.9384869438332,14.925
"27","hy",14.0840255494844,13.417
"28","i29",14.2242473259615,14.342
"29","ids28",13.9746855788279,15.062
"30","il101",15.1625197447607,14.943
"31","k64",13.5454862536404,12.296
"32","ki14",13.7751359360098,14.149
"33","ki2021",13.6741364122498,14.909
"34","l317",14.2674239639076,13.553
"35","mo45",13.9676883601787,13.09
"36","n192",13.7871066529375,14.928
"37","nc222",14.0257251007404,14.524
"38","nc238",13.4804893606814,12.817
"39","nc258",12.9789100052747,12.637
"40","nc320",13.8741098899228,14.236
"41","nc324",13.8769384632639,12.847
"42","nc340",13.7540402391301,13.662
"43","nc360",13.2949482090992,13.301
"44","nc362",13.0587562930058,12.462
"45","nc364",13.0925964209258,12.672
"46","nc366",13.7452838644505,13.384
"47","oh603",13.9479651050205,14.882
"48","p39",15.2609612592049,17.172
"49","r177",14.2741563726659,13.125
"50","sd44",14.2528683152488,15.653
"51","tzi18",13.6840788310494,14.927
"52","tzi8",13.9105339803792,15.334
"53","va59",13.6661665816752,14.74
"54","w182b",14.27620278812,14.694
"55","yu796ns",13.9787792967475,13.19
