"","taxa","s1","protein_kernel_BLUP.Cook_2012"
"1","a188",14.1968696244525,14.572
"2","a239",14.2940679813239,12.853
"3","a619",14.0101894045434,13.858
"4","a632",14.2888244440319,13.939
"5","a635",14.2278562529017,13.666
"6","a679",13.2919646522943,14.462
"7","b10",13.9018213759975,13.308
"8","b64",14.2783784112743,13.979
"9","b68",14.094139094067,14.409
"10","b76",13.8415268991154,14.091
"11","ci1872",14.0384762155925,13.639
"12","ci21e",13.9290378724031,13.203
"13","cml103",13.8045315694355,13.265
"14","cml11",13.5883315038325,14.026
"15","cml264",13.7594357392239,14.778
"16","cml314",13.7584608661696,15.296
"17","cml328",13.8828577504209,15.169
"18","cml332",13.5906553499487,13.762
"19","cml61",13.7346137861576,14.17
"20","cml92",13.9498870327872,13.386
"21","de1",13.1080601954322,13.514
"22","de811",13.9587885023924,15.733
"23","f6",13.998610822428,15.323
"24","i137tn",13.8969244298473,14.632
"25","ids69",13.6491837141501,12.636
"26","il14h",15.2702585195235,16.264
"27","il677a",14.9931331390572,13.289
"28","k148",14.0860587903588,15.064
"29","m162w",13.3975712484075,12.742
"30","mo18w",13.8935406659054,12.705
"31","mo24w",14.0072494811504,12.602
"32","mo44",14.4791333570145,13.203
"33","mog",13.9136744316442,14.279
"34","nc238",13.5024691400308,12.817
"35","nc260",14.107575338995,14.127
"36","nc264",14.178845287202,13.641
"37","nc290a",12.6679002680075,12.207
"38","nc298",13.4944621318103,14.421
"39","nc300",13.7431308516814,13.962
"40","nc302",13.6454294632254,12.129
"41","nc324",13.8329267175055,12.847
"42","nc326",13.578930912027,13.668
"43","nc340",13.7166839373839,13.662
"44","nc342",12.9024559401829,13.378
"45","nc364",12.8774252347283,12.672
"46","nc366",13.8413017969084,13.384
"47","oh603",13.9351337433434,14.882
"48","pa880",13.8686257857141,14.757
"49","sc55",14.0843088429613,14.149
"50","tzi11",13.8164846128727,12.691
"51","tzi18",13.8028616511287,14.927
"52","tzi9",13.8798214649368,12.535
"53","u267y",13.9323569924489,13.489
"54","va35",14.2365202160388,12.961
"55","w22",13.8465752010737,13.695
