"","taxa","s1","protein_kernel_BLUP.Cook_2012"
"1","4722",13.545082652964,14.102
"2","a188",14.1544711767396,14.572
"3","a619",13.8881799428428,13.858
"4","a634",14.096718587805,15.48
"5","a654",14.3943650837177,15.396
"6","b115",14.0579222888237,14.547
"7","b164",14.2426079471731,13.056
"8","b46",13.5965272832458,14.465
"9","b68",14.0390846189312,14.409
"10","b75",14.0807006180834,15.51
"11","ch9",14.1813846520847,14.071
"12","ci21e",13.9918919807206,13.203
"13","ci28a",15.3062860368246,13.413
"14","ci7",14.0248806403256,14.36
"15","cm7",14.2312737662646,15.167
"16","cml14",13.825270904273,15.41
"17","cml158q",13.5813430042832,12.999
"18","cml258",13.8569130187435,13.146
"19","cml328",13.8899139656105,15.169
"20","cml61",13.8681377611322,14.17
"21","de3",13.8308604764334,12.378
"22","ep1",14.7950041536265,15.634
"23","h49",14.315576659075,14.515
"24","hi27",14.0128679479324,14.925
"25","hp301",13.5037056750724,13.262
"26","i137tn",13.9258309132654,14.632
"27","l578",13.8472877959696,15.854
"28","m162w",13.364669670313,12.742
"29","mo17",12.88090229646,13.697
"30","mo18w",14.0278521382738,12.705
"31","mo47",14.0103629559508,13.256
"32","n192",13.8070409039986,14.928
"33","n7a",13.6644602162714,13.825
"34","nc222",13.999299395744,14.524
"35","nc250",13.8646117574318,13.731
"36","nc260",13.5679942138204,14.127
"37","nc320",13.8699605685402,14.236
"38","nc342",12.8616729889655,13.378
"39","nc346",12.8628307577753,13.603
"40","nc356",13.5196915685565,13.028
"41","nc364",12.7877780956838,12.672
"42","oh43e",13.9393280913327,14.712
"43","oh7b",13.8749447646943,14.81
"44","tx601",13.8609339460557,14.223
"45","tzi10",13.8570146371497,14.5
"46","tzi11",13.8115822858867,12.691
"47","tzi18",13.7474492513863,14.927
"48","tzi25",13.6248486512671,12.746
"49","u267y",13.9511002591849,13.489
"50","va102",14.0437801057208,12.655
"51","va59",13.5870888904499,14.74
"52","va85",14.1732934047707,13.52
"53","vaw6",13.9919635790648,13.185
"54","w117ht",14.1442137202361,13.171
"55","w22",13.703503000789,13.695
