"","taxa","s1","southern_leaf_blight_BLUP.Kump_2011"
"1","3811",6.15944959601075,6.687976667
"2","4226",6.20327230554643,6.296616667
"3","a188",6.23969394564599,4.905416667
"4","a239",6.0617568288212,7.834416667
"5","a4415",6.68553029048147,6.865766667
"6","b52",6.11223804873904,6.975916667
"7","b57",6.42192035455829,6.115266667
"8","b73htrhm",6.18135091148447,6.857066667
"9","b77",6.49014214392643,6.402316667
"10","b97",6.4004714994201,6.248266667
"11","ci21e",6.35618296135588,6.409916667
"12","ci31a",6.57726604269724,6.967766667
"13","cml218",7.22816948231932,7.137716667
"14","cml261",7.30663776537279,7.230566667
"15","cml277",7.33018452724252,7.723016667
"16","cml341",7.36322020455067,6.212716667
"17","cml45",7.34560023146915,7.331816667
"18","cml77",7.10611790420038,6.869416667
"19","cmv3",5.15994349613127,3.445416667
"20","co106",6.35827584240782,5.492916667
"21","de2",6.67105899408634,6.396616667
"22","ep1",6.26918383159752,7.865416667
"23","h84",6.63769951491994,7.149066667
"24","hp301",6.82721246732917,5.406916667
"25","k64",6.68167880696412,7.196516667
"26","ki2021",7.4799473627926,7.685916667
"27","ki43",7.30116707356746,7.358316667
"28","mo18w",6.74294371764508,7.193616667
"29","mo24w",6.63225316425214,6.218966667
"30","mo45",6.60519588200678,6.981416667
"31","mo46",6.55647126557136,4.250916667
"32","mog",6.57014440219714,6.775486667
"33","ms153",6.20169475041636,7.110516667
"34","nc232",6.45603107430765,6.460706667
"35","nc236",6.47102060715444,7.524416667
"36","nc306",6.90751611291868,7.285066667
"37","nc320",7.09641943607574,7.100566667
"38","nc328",6.48664220660006,7.346666667
"39","nc336",7.34410642622901,7.941416667
"40","nc340",7.28914695901828,7.500516667
"41","nc344",7.23360341643379,7.815416667
"42","nc348",7.44800754288885,7.447266667
"43","nd246",5.90748607751205,5.641166667
"44","oh43e",6.9797839479764,7.333066667
"45","oh7b",5.53690818078626,6.087766667
"46","p39",5.53610514646977,5.145416667
"47","r109b",6.23746755758783,5.888766667
"48","r177",6.49659232315815,7.275366667
"49","sc213r",6.64912744027054,6.818466667
"50","sd40",6.86763710417579,7.033666667
"51","sg18",6.49207125550571,6.763851667
"52","tx303",6.80497003122399,6.435066667
"53","tzi8",7.32217146609649,7.259066667
"54","va22",7.00331217590944,6.900316667
"55","w22rrstd",5.75675532770367,6.044666667
"56","w64a",5.81765485132865,5.659666667
"57","wd",6.05774291825204,5.904166667
