"","taxa","s1","southern_leaf_blight_BLUP.Kump_2011"
"1","a239",6.28738836840179,7.834416667
"2","a634",6.01975231339679,4.715416667
"3","a641",6.11184723543372,5.865716667
"4","a659",6.2705986842506,4.410416667
"5","b105",6.14085362018609,4.005916667
"6","b2",6.78183388506941,6.605881667
"7","b57",6.41264535759442,6.115266667
"8","b68",6.24858023041686,7.580816667
"9","b73htrhm",6.29047650825915,6.857066667
"10","b77",6.56635002733916,6.402316667
"11","ch70130",6.30653862619751,7.369866667
"12","ci90c",7.12136766480887,7.473316667
"13","cm105",5.73933214266091,5.164416667
"14","cml108",7.14362249897855,6.767256667
"15","cml11",7.38634126201905,7.503516667
"16","cml14",7.33907262373241,7.309616667
"17","cml254",7.34268713112046,7.220066667
"18","cml261",7.29712058885205,7.230566667
"19","cml322",7.33880691455041,6.918616667
"20","cml331",7.23804382754768,7.374416667
"21","cml45",7.34374411458613,7.331816667
"22","cml91",7.14292075854324,6.601086667
"23","cmv3",5.36569049959857,3.445416667
"24","co255",5.98711619517569,6.203466667
"25","de811",6.50044579747084,7.472866667
"26","e2558w",6.67188595215779,5.107416667
"27","h105w",5.98508301325469,6.346666667
"28","h84",6.54821606579607,7.149066667
"29","hy",6.09032194969108,5.797666667
"30","i205",6.52650195549851,6.285366667
"31","ids28",6.37859563258948,6.098516667
"32","ids91",6.59942696643963,6.852071667
"33","il101",5.51596587425852,6.529616667
"34","k148",6.48117457723399,6.856986667
"35","k4",6.52512225819867,6.146466667
"36","ki44",7.32948116257885,6.983816667
"37","m162w",6.96087792954556,7.422816667
"38","mef156552",5.8533443586349,7.053166667
"39","ms71",6.60258100249917,5.958866667
"40","mt42",6.12927841602839,2.830416667
"41","n192",6.28376341992207,4.877416667
"42","n7a",6.0253942319414,5.150416667
"43","nc230",6.47801278992669,6.519316667
"44","nc238",6.70799586343874,6.829081667
"45","nc260",6.75401988927423,7.377716667
"46","nc290a",7.25802124751551,7.281916667
"47","nc296a",7.41395061518963,7.384866667
"48","nc306",7.03054921022869,7.285066667
"49","nc336",7.34512177390687,7.941416667
"50","nc358",7.18367954461486,7.302066667
"51","oh40b",7.01230756904021,6.308016667
"52","oh43e",6.97989486817275,7.333066667
"53","r177",6.60401500770622,7.275366667
"54","sc213r",6.74916808316,6.818466667
"55","tzi11",6.89423498374786,7.596316667
"56","w117ht",6.34947527031547,5.542416667
"57","wf9",5.69860067955091,5.047916667
