"","taxa","s1","southern_leaf_blight_BLUP.Kump_2011"
"1","a632",5.89407868583684,5.705966667
"2","a635",5.87616164908254,5.968616667
"3","a679",6.98793628483207,7.500966667
"4","a682",6.98811730819079,7.378766667
"5","b105",6.03485292856108,4.005916667
"6","b68",6.3008436895622,7.580816667
"7","b73htrhm",6.15810149651288,6.857066667
"8","b76",6.64337914955165,6.584951667
"9","b79",6.35593800930677,5.088916667
"10","c49a",5.93162350993305,5.345416667
"11","cm37",4.93392872722435,3.155416667
"12","cml11",7.30545139704102,7.503516667
"13","cml218",7.24267186875075,7.137716667
"14","cml247",7.37983999291731,7.805416667
"15","cml254",7.25627971685923,7.220066667
"16","cml314",7.37051499117484,7.396216667
"17","cml322",7.26411892890149,6.918616667
"18","cml323",6.88119269818627,6.969216667
"19","cml77",7.06703653270763,6.869416667
"20","cml92",7.08719308141067,7.615516667
"21","f6",6.71520326911934,6.071966667
"22","ia2132",5.85593405991295,6.821421667
"23","ids28",6.41064575642875,6.098516667
"24","k148",6.40238609844767,6.856986667
"25","ky21",6.37972466636974,6.707866667
"26","ky226",6.6354067726365,6.375566667
"27","ky228",6.41766081043255,6.132716667
"28","l578",6.8704600989325,6.518616667
"29","mo18w",6.79276880713496,7.193616667
"30","mo46",6.5947027415828,4.250916667
"31","ms153",6.24525467311907,7.110516667
"32","ms71",6.43171180932851,5.958866667
"33","nc230",6.45483821000878,6.519316667
"34","nc238",6.6726806051507,6.829081667
"35","nc250",7.0852165778663,8.291916667
"36","nc300",7.43042697108262,7.293916667
"37","nc304",7.47739046976314,7.771416667
"38","nc310",6.20023207337348,7.122866667
"39","nc318",7.02660712653281,6.981766667
"40","nc328",6.24774996264876,7.346666667
"41","nc342",7.27035888060577,7.341966667
"42","nc346",7.36734069216249,7.528866667
"43","nc360",7.44906029885544,7.477566667
"44","nc368",6.84398059438459,6.965016667
"45","pa91",6.24934431959042,6.410866667
"46","r168",6.35051454867352,7.077716667
"47","r177",6.46743198892536,7.275366667
"48","r4",6.3987427112414,6.963216667
"49","sc357",6.68228263237556,7.084766667
"50","sc55",6.76977941152462,7.074516667
"51","t8",7.1670859540688,7.814416667
"52","tzi9",7.1526895352057,7.150216667
"53","va14",6.71296682197994,6.921581667
"54","va22",6.9480278570634,6.900316667
"55","va35",7.24800427342762,7.197816667
"56","w117ht",6.30179435686313,5.542416667
"57","w64a",5.8836381150549,5.659666667
