"","taxa","s1","southern_leaf_blight_BLUP.Kump_2011"
"1","4226",6.2240720286919,6.296616667
"2","a4415",6.77066191106271,6.865766667
"3","a554",5.85602399055732,5.077916667
"4","a632",5.88850496582941,5.705966667
"5","a635",5.88019650670069,5.968616667
"6","a659",6.43724144347743,4.410416667
"7","b105",5.99208936924137,4.005916667
"8","b57",6.44063326792135,6.115266667
"9","b64",6.09513988674674,6.037566667
"10","b68",6.32919181487815,7.580816667
"11","b77",6.41536571029275,6.402316667
"12","b79",6.47447470330372,5.088916667
"13","ci7",6.75334419955384,6.866716667
"14","cm105",5.38098261882601,5.164416667
"15","cm7",6.07748766366898,5.569916667
"16","cml154q",7.2133784766685,7.789166667
"17","cml254",7.25255244357734,7.220066667
"18","cml281",7.2256516839405,7.209966667
"19","cml323",6.79268264362407,6.969216667
"20","cml331",7.02769587897196,7.374416667
"21","cml332",7.06014044304323,7.378516667
"22","cml38",7.32377060252841,6.597896667
"23","cml69",7.23566472586347,7.191966667
"24","co106",6.43814326210532,5.492916667
"25","co125",6.2189414327587,5.051916667
"26","ep1",6.25662870979026,7.865416667
"27","h49",5.6271400569555,5.902516667
"28","il14h",5.75210986018716,6.442616667
"29","ki14",7.41780550073641,7.748916667
"30","m14",6.68643363790717,6.782226667
"31","mef156552",5.8887436262207,7.053166667
"32","mo1w",5.83226951522594,5.665866667
"33","mo24w",6.58391117512545,6.218966667
"34","ms1334",6.46870554981246,4.454416667
"35","nc230",6.48421638077418,6.519316667
"36","nc232",6.48281130132408,6.460706667
"37","nc296a",7.40426189156312,7.384866667
"38","nc306",7.29217781499145,7.285066667
"39","nc310",6.47008840191163,7.122866667
"40","nc326",6.10125081682054,6.114366667
"41","nc338",7.34231706995274,7.206566667
"42","nc352",7.65301135119925,7.192016667
"43","nc364",7.2965908187198,7.522466667
"44","oh43",6.9547986171554,7.491816667
"45","pa880",6.4656381987291,7.119516667
"46","pa91",6.1246530028449,6.410866667
"47","sc213r",6.6619952376568,6.818466667
"48","sg18",5.68696865476433,6.763851667
"49","tx303",6.88551464682914,6.435066667
"50","tx601",7.26906062138114,7.329266667
"51","tzi25",6.96146315710001,7.426566667
"52","tzi8",7.27211237966766,7.259066667
"53","tzi9",7.26423737059919,7.150216667
"54","va17",6.60970467538334,7.284366667
"55","vaw6",6.49012434737774,6.526406667
"56","w182b",5.92148193897369,6.059666667
"57","yu796ns",6.56367275299113,6.966416667
