"","taxa","s1","starch_kernel_BLUP.Cook_2012"
"1","4226",66.5032137295265,67.211
"2","a554",66.4804776068638,61.789
"3","a556",66.665981670365,68.643
"4","a634",66.1782673187321,65.61
"5","a661",66.4097473562473,66.154
"6","b109",68.1003795125863,67.698
"7","b64",65.8818382281364,68.451
"8","b68",65.9227191444788,66.259
"9","b73",68.2705098826911,69.573
"10","b79",66.459482058328,68.423
"11","ch70130",66.2591897445763,66.271
"12","ci31a",65.9404501187841,64.104
"13","ci91b",67.2957211370095,68.211
"14","cm105",67.2549417034761,68.877
"15","cm7",66.3259560247097,67.425
"16","cml261",66.4200027390453,66.683
"17","cml264",66.0769250018306,64.242
"18","cml314",66.2119217452499,66.795
"19","cml332",66.7517966364245,65.069
"20","cml38",66.1362126348203,62.377
"21","d940y",66.8026469879278,62.03
"22","de1",66.7826633824503,66.641
"23","de2",66.8415598259513,67.785
"24","ga209",66.2958731412331,68.4
"25","ia2132",64.3762899221284,60.961
"26","ids69",63.9220731979731,66.5
"27","k64",66.8945972052373,69.145
"28","ki2021",65.3236826653199,64.014
"29","ki44",66.1537492098778,64.509
"30","ky226",66.7894496357944,65.333
"31","ky228",66.4313562321535,66.761
"32","mef156552",65.09697650952,66.161
"33","mo47",65.5673805264626,66.4
"34","nc222",66.4444172297187,63.708
"35","nc262",67.156672754382,67.727
"36","nc294",66.8034702551967,67.711
"37","nc310",67.9514961910743,68.027
"38","nc326",68.1826929448321,67.921
"39","nc336",68.0168718727271,68.531
"40","nc344",66.5945337236339,68.299
"41","nc358",66.7657684569958,67.755
"42","nc360",67.1037778565691,67.9
"43","nc366",66.4296255722378,68.787
"44","oh40b",66.508394669332,68.605
"45","oh43",66.3805976305085,68.73
"46","oh7b",67.390655851727,66.327
"47","r168",66.4531137100188,66.82
"48","sc55",66.1656585357205,67.747
"49","sd40",66.307691529762,66.686
"50","tzi18",66.3126915614172,65.313
"51","va102",68.1143470647931,70.333
"52","va22",66.313920085307,64.48
"53","w117ht",66.303823550772,67.875
"54","w22",67.7535520637088,68.846
"55","yu796ns",66.5325963302142,66.688
