"","taxa","s1","starch_kernel_BLUP.Cook_2012"
"1","4226",66.3706377689164,67.211
"2","a214n",66.2706852735159,66.771
"3","a6",65.7488896833887,64.346
"4","a682",66.9310794139008,66.602
"5","b164",66.4147939949683,68.183
"6","b46",67.1885776318413,66.14
"7","b52",66.2185670480386,66.125
"8","b79",66.5941435053361,68.423
"9","ci64",67.7128920616478,67.141
"10","ci90c",66.8130030446468,67.332
"11","cm7",66.2599278831626,67.425
"12","cml10",66.1666293960729,64.366
"13","cml108",66.33844212038,65.881
"14","cml220",65.759360280304,66.539
"15","cml258",66.2282215104657,67.431
"16","cml264",66.0697280169459,64.242
"17","cml287",65.9841023437656,65.923
"18","cml321",65.981398602939,65.114
"19","cml38",66.0416746592358,62.377
"20","cml52",65.842636296268,67.279
"21","co125",66.1814595283542,66.059
"22","co255",65.2107691387349,63.171
"23","f2834t",66.5006355690975,67.105
"24","ga209",66.2660803112024,68.4
"25","h91",66.5917665763813,66.224
"26","hy",67.2579394814281,66.325
"27","ia2132",64.5222692989674,60.961
"28","il14h",64.9883541308014,63.883
"29","ki43",65.7356028973711,63.84
"30","ky228",66.4488114148918,66.761
"31","mo44",65.6123381445954,67.571
"32","mo45",65.796537879205,63.014
"33","mog",66.4831084872785,65.726
"34","nc236",66.3540247818305,69.384
"35","nc262",67.204689517031,67.727
"36","nc264",66.4777175722197,68.732
"37","nc294",66.9126659844417,67.711
"38","nc296a",68.1962114849896,70.338
"39","nc362",68.041000587724,69.743
"40","oh603",66.517100426412,68.1
"41","r168",66.4223386406917,66.82
"42","r177",66.9748554854917,68.964
"43","r4",66.6460669060438,66.311
"44","sd40",66.3469280185055,66.686
"45","sd44",66.8228571603842,68.342
"46","sg18",64.7482950751215,66.644
"47","tx303",66.2337698859666,67.478
"48","tzi11",66.2109599873033,69.527
"49","tzi16",66.4321908532534,69.865
"50","tzi18",66.1411923735028,65.313
"51","tzi25",66.7578366969265,69.759
"52","va85",66.586634201119,66.552
"53","w117ht",66.2383735530278,67.875
"54","w22rrstd",67.9386037596219,68.825
"55","wf9",66.6617846553453,69.164
