"","taxa","s1","starch_kernel_BLUP.Cook_2012"
"1","4226",66.2781512139269,67.211
"2","a214n",65.5502419629533,66.771
"3","a239",66.5824446560676,68.636
"4","a635",65.8094089897469,68.811
"5","a641",65.8725904295923,69.047
"6","a661",66.3929620785798,66.154
"7","a679",67.7565279252467,68.822
"8","ab28a",65.7609096027876,65.498
"9","b109",68.258722700697,67.698
"10","b64",65.3501450477331,68.451
"11","b68",65.4367512969395,66.259
"12","b76",65.0831065033695,62.712
"13","ci66",66.6252608610124,66.563
"14","cml108",66.3939957820448,65.881
"15","cml11",65.7395592376886,66.518
"16","cml14",66.2096154531734,63.712
"17","cml157q",66.1310083386704,65.574
"18","cml228",65.1261285226853,65.324
"19","cml254",66.3911000066059,68.576
"20","cml314",66.103714693748,66.795
"21","cml328",66.0818754908779,63.998
"22","cml341",66.364893932804,63.286
"23","cml52",65.9808535547609,67.279
"24","cml61",66.0338834323868,64.705
"25","co125",66.3443960518823,66.059
"26","e2558w",66.8050112631061,69.095
"27","f6",66.0331410564208,65.848
"28","gt112",66.6038731016,67.611
"29","i29",65.6368644453086,66.56
"30","m37w",64.6115870243533,67.58
"31","mo1w",67.3807248709398,66.49
"32","mo24w",66.4218103842476,66.614
"33","mog",66.5595393643718,65.726
"34","ms71",66.3117177919712,65.167
"35","mt42",66.1950922450854,65.262
"36","n6",66.7390863194135,66.958
"37","nc258",67.1681133333734,66.197
"38","nc262",67.4760967717698,67.727
"39","nc290a",67.6102886096225,67.322
"40","nc296a",68.4818345374892,70.338
"41","nc304",66.5913746555344,64.943
"42","nc318",66.9889157268777,66.464
"43","nc324",67.156454399175,69.702
"44","nc346",68.5362413936236,67.532
"45","nc348",66.9129294965258,65.229
"46","nc358",66.8653761281592,67.755
"47","oh43e",67.1607583462715,65.064
"48","r229",68.111590657033,68.367
"49","t232",66.3013349203699,67.506
"50","tzi16",66.7291967786988,69.865
"51","va102",67.7169609548366,70.333
"52","va14",67.0122856468809,62.694
"53","va85",66.7100970678934,66.552
"54","w117ht",66.3140612787507,67.875
"55","w22rrstd",67.9267746094448,68.825
