"","taxa","s1","starch_kernel_BLUP.Cook_2012"
"1","4226",66.5382355842871,67.211
"2","4722",66.2226133638715,62.495
"3","a556",66.8101595029181,68.643
"4","b10",67.4074281302663,65.48
"5","b105",67.3113281160204,68.313
"6","b109",68.5829397427669,67.698
"7","b14a",67.2724204373197,64.794
"8","b37",64.8854967274341,63.535
"9","b46",68.0696441832323,66.14
"10","b57",66.413025653368,66.303
"11","b64",66.2566615908907,68.451
"12","b68",66.5356100495164,66.259
"13","b73htrhm",68.8110150655881,67.597
"14","b75",66.905791196995,66.799
"15","ch9",66.9274297717378,62.768
"16","ci21e",66.517515942172,68.918
"17","ci64",66.7414569274815,67.141
"18","cml103",66.299174384051,68.865
"19","cml158q",66.2259422016202,65.594
"20","cml264",65.8556597312816,64.242
"21","cml314",66.0168497283399,66.795
"22","cml333",65.8900426307355,64.789
"23","d940y",66.9041809020512,62.03
"24","h91",67.2613776070726,66.224
"25","i205",66.7789620040238,66.835
"26","k64",66.7955236483482,69.145
"27","ki21",66.0756347981434,68.735
"28","ki3",64.9897806750175,63.891
"29","ky226",66.7566269128753,65.333
"30","mo18w",66.2041305074025,67.605
"31","mo45",65.8510862743317,63.014
"32","ms1334",66.2590399906654,65.078
"33","n192",68.5436703948782,67.715
"34","nc232",66.9768939802008,69.092
"35","nc250",65.0846013332582,65.374
"36","nc258",67.1744296079197,66.197
"37","nc294",67.015350243717,67.711
"38","nc310",68.2875173686174,68.027
"39","nc318",67.0522301816199,66.464
"40","nc324",67.1984861110718,69.702
"41","nc328",68.4563474714801,68.191
"42","nc340",66.0693879300844,63.587
"43","nc354",66.8382120533445,64.508
"44","nc362",68.1128427185928,69.743
"45","nc368",67.0788881700527,66.178
"46","os420",66.2425027205649,63.623
"47","pa875",66.5653989573094,67.128
"48","r168",66.3390814456283,66.82
"49","sc357",66.3740774920129,62.913
"50","sc55",66.20257537148,67.747
"51","sd40",66.3982737152774,66.686
"52","sg1533",65.9354876791284,66.102
"53","tzi16",66.5301126208479,69.865
"54","tzi25",66.7052961058121,69.759
"55","w64a",67.5704640351389,68.477
