"","taxa","s1","starch_kernel_BLUP.Cook_2012"
"1","a619",66.9883251858707,65.947
"2","a632",65.635656853176,66.34
"3","a641",66.641184192835,69.047
"4","a659",67.0883628858517,64.768
"5","b115",66.5257581512805,66.652
"6","b52",66.3001981624246,66.125
"7","ci64",67.7700017777582,67.141
"8","ci7",66.3296959688691,63.617
"9","ci91b",67.2143321374257,68.211
"10","cm105",67.2078428200166,68.877
"11","cml103",66.1466716824277,68.865
"12","cml158q",66.3524162506465,65.594
"13","cml218",66.0928083621532,64.088
"14","cml247",66.0026309298555,63.259
"15","cml261",66.4260541764722,66.683
"16","cml281",66.1864698712039,66.602
"17","cml322",66.003094985873,63.828
"18","cml323",66.215205126571,67.562
"19","cml328",66.163040956562,63.998
"20","cml341",66.3922758512076,63.286
"21","cml91",66.1562697743542,66.994
"22","co125",66.440089279511,66.059
"23","de3",66.2502820118545,67.197
"24","ga209",66.3266151169289,68.4
"25","hy",67.3454977681702,66.325
"26","i205",66.5708686936412,66.835
"27","ki14",65.0510964191779,64.328
"28","ki21",66.0252061843629,68.735
"29","ky21",66.4989767525487,67.25
"30","ky228",66.5399812670947,66.761
"31","mef156552",65.0362249075061,66.161
"32","mo18w",66.0801063891389,67.605
"33","mo44",66.0512817402442,67.571
"34","mo46",65.73375138689,64.751
"35","mt42",66.2252020784685,65.262
"36","n192",67.8740069896511,67.715
"37","n7a",66.8730762425286,68.436
"38","nc290a",67.6387721047956,67.322
"39","nc296a",68.184317595456,70.338
"40","nc298",66.6664361609972,66.156
"41","nc300",65.120644566152,65.779
"42","nc326",68.5078289813458,67.921
"43","nc356",66.6290606957798,67.942
"44","nc366",66.3430608240663,68.787
"45","os420",66.1147559700505,63.623
"46","pa875",66.6098620067157,67.128
"47","pa880",66.7770291440309,64.368
"48","r177",67.0365969139253,68.964
"49","sd40",66.3757674003544,66.686
"50","t232",66.3297660025908,67.506
"51","tzi18",66.3504593561374,65.313
"52","va17",65.9411892515055,67.006
"53","va22",66.1522808707458,64.48
"54","va59",66.9610849602023,67.127
"55","w182b",66.7506440230418,67.575
