"","taxa","s1","tassprimbranchno_BLUP.Hung_2012_1"
"1","4226",11.5195995023452,19.04
"2","a239",9.98128841612026,5.56
"3","a272",12.6226101318095,10.09
"4","a554",9.63460624958584,9.45
"5","a556",9.76301889875818,6.69
"6","a6",14.2748640848108,15.95
"7","a654",9.61580450654821,3.92
"8","a679",6.96835812375071,7.23
"9","b164",10.1245363992641,14.97
"10","b84",9.18920166178573,11.13
"11","b97",10.5572253794735,12.58
"12","ch9",10.5147151601009,2.77
"13","ci21e",10.7278012203345,7.79
"14","ci28a",11.6721318008126,10.64
"15","ci64",11.9084511202418,7.71
"16","ci66",13.4797385613397,6.03
"17","cm7",10.5061399192973,4.68
"18","cml108",12.9341703906129,6.95
"19","cml158q",13.8736541185029,19.43
"20","cml220",13.9219276459915,20.06
"21","cml258",13.4387922240226,17.98
"22","cml261",13.6199513102154,19.56
"23","cml332",12.6823977732226,13.38
"24","cml333",14.0201063611618,24.74
"25","cml341",13.438019094674,6.7
"26","cml38",14.2650219349661,14.73
"27","de2",11.297699798455,11.05
"28","f2834t",12.6635040322144,10.27
"29","h84",8.17267324889517,5.5
"30","hy",10.0879145215026,10.24
"31","i137tn",12.3956184157791,13.07
"32","ids28",12.7348223664248,15.73
"33","il677a",10.8006350949592,15.09
"34","ki11",14.4661064903854,9.94
"35","ky21",12.4618794076446,15.96
"36","nc232",12.2200068830394,14.22
"37","nc236",12.0178740886205,20.81
"38","nc260",7.91226302003021,8.09
"39","nc298",11.6235783005715,11.83
"40","nc300",12.1955830563349,7.39
"41","nc310",6.94743888389736,8.6
"42","nc344",8.63683596983385,9.38
"43","nc352",12.0264268391443,13
"44","nc360",10.5159320689914,6.7
"45","nc364",8.09371592496912,5.83
"46","oh43",8.33225559901534,6.16
"47","oh603",10.7833644272704,8.57
"48","p39",10.4451779443509,10.3
"49","pa762",8.76488591071187,4.98
"50","r109b",10.5933957208757,8.48
"51","r229",7.50551734286135,7
"52","sc213r",13.6882120528655,12.73
"53","sc357",13.0811908708464,18.67
"54","sc55",12.4987035514816,24.3
"55","sd44",9.21326591303805,10.24
"56","tx601",13.3010596754626,15.57
"57","tzi9",13.811755101091,18.89
