"","taxa","s1","tasslength_BLUP.Hung_2012_1"
"1","a188",325.794069285435,321.25
"2","a4415",334.939984868375,251.26
"3","a679",303.138582345989,315.83
"4","b103",333.091276485571,294.94
"5","b2",317.984216614476,375.67
"6","b46",308.35337184797,295.39
"7","b52",305.082959202947,377.77
"8","b84",296.241434800278,293.61
"9","b97",327.135813504406,324.05
"10","c123",342.719863246825,326.86
"11","ch9",326.332097910576,315.99
"12","ci28a",335.729945217968,352.83
"13","ci31a",322.623122149867,373.3
"14","cml322",370.869001566452,331.23
"15","cml328",335.268876390141,328.29
"16","cml38",347.476441958796,347.63
"17","cml61",354.270666549948,387.49
"18","co106",318.007816648744,244.85
"19","co255",297.772432282586,239.04
"20","d940y",358.940205427686,391.04
"21","de1",357.577122727821,345.69
"22","gt112",330.397911567915,258.99
"23","h105w",295.228031220132,303.85
"24","h84",309.634660356076,261.49
"25","hi27",335.776507564016,307.18
"26","hp301",324.991504546405,346.29
"27","ids28",324.270914628814,278.22
"28","ids69",328.775995860525,267.95
"29","il677a",322.216851663457,285.51
"30","k55",306.392918732893,281.74
"31","ky226",327.946674665696,331.27
"32","m14",334.188554605019,337.96
"33","mef156552",316.998337292607,268.24
"34","mo46",318.325531482757,343.74
"35","mo47",330.153468960661,313.53
"36","mt42",301.969090039465,218.21
"37","nc250",296.132018103999,261.28
"38","nc264",321.345465822049,313.19
"39","nc296",350.705211836212,387.14
"40","nc298",350.010613195279,327.18
"41","nc300",324.793089459485,324.19
"42","nc304",351.268555149953,294.44
"43","nc328",291.153338078844,273.05
"44","nc33",335.993182250347,343.19
"45","nc346",350.128464929809,364.45
"46","nc348",353.157164945273,317.76
"47","nc364",359.955134786102,377.89
"48","nd246",308.500833686187,267.77
"49","os420",307.674877235066,358.64
"50","pa880",327.262079261906,329.46
"51","tx601",343.322171319636,356.57
"52","tzi10",343.514250267729,365.9
"53","tzi16",331.86465494063,326.61
"54","tzi9",349.548195644473,326.37
"55","u267y",330.40610829783,298.27
"56","va22",345.350433654846,339.77
"57","vaw6",327.528983953415,301.48
