"","taxa","s1","tassprimbranchno_BLUP.Hung_2012_1"
"1","a188",10.6831398942513,15.08
"2","a4415",12.1910300270895,12.59
"3","a679",6.8941413236446,7.23
"4","b103",9.65875628461115,1.11
"5","b2",10.4850305376947,10.44
"6","b46",10.3612864354221,8.35
"7","b52",9.6869792827217,6.44
"8","b84",9.17915651173,11.13
"9","b97",10.1205490033171,12.58
"10","c123",9.89304264431963,14.05
"11","ch9",10.2619480648194,2.77
"12","ci28a",11.4881409745542,10.64
"13","ci31a",11.2592833598887,14.47
"14","cml322",14.1033964082688,6.14
"15","cml328",14.0182301980092,17.51
"16","cml38",14.9504873271494,14.73
"17","cml61",14.525602526829,16.54
"18","co106",10.5760763079281,9.8
"19","co255",9.79587974661593,4.46
"20","d940y",11.4381699132243,10.53
"21","de1",11.0450158215233,13.68
"22","gt112",14.4640404796784,14.63
"23","h105w",9.04968812906261,7.31
"24","h84",8.52529957796521,5.5
"25","hi27",12.1843408473442,13.17
"26","hp301",17.3676214213988,15.1
"27","ids28",13.0326095221904,15.73
"28","ids69",14.3650950592261,13.83
"29","il677a",10.8998598852648,15.09
"30","k55",9.55477450453703,14.66
"31","ky226",11.9290822956333,12.17
"32","m14",10.569893628698,10.1
"33","mef156552",11.4866589904071,9.18
"34","mo46",9.60526821065835,10.67
"35","mo47",10.4514214296105,13.05
"36","mt42",10.671090014331,8.55
"37","nc250",8.50893640308424,4.32
"38","nc264",17.6438618891771,14.35
"39","nc296",10.0853299912487,10.39
"40","nc298",12.376748318444,11.83
"41","nc300",11.8227875850866,7.39
"42","nc304",12.7466979150656,12.49
"43","nc328",7.60151613431156,6.08
"44","nc33",12.0661660201388,15.05
"45","nc346",10.1519792338834,10.59
"46","nc348",12.3456297498577,10.73
"47","nc364",6.97680751788416,5.83
"48","nd246",10.3913839362087,9.91
"49","os420",10.7170666448618,8.15
"50","pa880",11.1579991565817,13.9
"51","tx601",14.0098724553553,15.57
"52","tzi10",14.0378981963991,19.89
"53","tzi16",13.3607837252266,25.01
"54","tzi9",14.0287422659203,18.89
"55","u267y",12.4577168513954,5.39
"56","va22",9.11638591589042,14.48
"57","vaw6",11.1321934954986,6.19
