"","taxa","s1","tasslength_BLUP.Hung_2012_1"
"1","a239",316.035492325967,319.72
"2","a556",308.425031517462,278.08
"3","a659",302.838823239749,309.23
"4","a661",307.262935273074,287.97
"5","a680",295.743841357174,295.39
"6","a682",320.456236261091,342.22
"7","ab28a",335.786028493923,370.77
"8","b64",310.161676381453,247.56
"9","b77",333.923819283928,367.83
"10","b84",301.324938414934,293.61
"11","ci66",313.677190331572,263.26
"12","cm174",267.113580973018,245.54
"13","cm37",288.760264669892,295.43
"14","cml264",358.802201087563,377.53
"15","cml333",352.68140240883,298.69
"16","cml38",347.550026884408,347.63
"17","cml45",355.390024940955,350.22
"18","cmv3",293.717256249424,305.6
"19","e2558w",326.22303844076,393.78
"20","hi27",344.149751889975,307.18
"21","i205",323.381145597925,304.97
"22","ia5125",323.837064362477,194.51
"23","il101",313.204280738575,365.84
"24","il677a",326.46020698153,285.51
"25","ki21",343.016953011454,366.15
"26","ki3",354.673676400691,284.76
"27","mo17",332.318596764071,357.62
"28","mog",322.620309401516,366.32
"29","ms71",315.451635308217,263.51
"30","n192",277.802789247166,281.85
"31","n6",322.106831889572,300.6
"32","nc230",313.305588215081,332.38
"33","nc304",353.043187987535,294.44
"34","nc310",289.947668789972,273.79
"35","nc314",303.275635641401,323.89
"36","nc318",322.071229927772,323.74
"37","nc326",293.856606902272,302.01
"38","nc336",360.096953345989,346.37
"39","nc344",314.319938582502,290.7
"40","nc358",343.41662930649,241.36
"41","nc368",294.704391129993,238.98
"42","oh43",281.515071322521,321.42
"43","os420",320.247987395065,358.64
"44","p39",308.592142554847,265.45
"45","r109b",318.660328516451,324.48
"46","r177",323.475865128284,307.88
"47","r229",302.026846885874,304.14
"48","sc357",329.434912988145,267.97
"49","sc55",334.620166675931,234.85
"50","t8",354.850190995406,325.82
"51","tx303",339.527406385056,372.78
"52","tzi8",353.450441195799,345.43
"53","va14",340.20326789221,373.9
"54","va22",352.555057037291,339.77
"55","va85",322.385632754393,345.18
"56","w22",304.919085226987,317.95
"57","wd",294.648052269844,285.66
