"","taxa","s1","tasslength_BLUP.Hung_2012_1"
"1","4722",332.481735078155,343.86
"2","a554",309.805807059277,262.16
"3","a556",315.701868266834,278.08
"4","a619",322.703770767701,282.52
"5","b105",307.864699862403,304.25
"6","b64",309.03313263841,247.56
"7","b84",303.20134272488,293.61
"8","c103",337.268091870326,375.04
"9","ci28a",356.911286356906,352.83
"10","ci66",314.760558555892,263.26
"11","cm105",297.457121926589,241.67
"12","cm174",298.250764077698,245.54
"13","cml108",349.269242716075,375.99
"14","cml228",342.920669338457,357.25
"15","cml247",358.997472593068,345.16
"16","cml254",358.726713777746,329.99
"17","cml287",340.240380943674,325.94
"18","cml314",352.72138189794,373.16
"19","cml328",334.152315008119,328.29
"20","e2558w",335.154479093732,393.78
"21","h99",323.163327505703,238.89
"22","hp301",306.800664049561,346.29
"23","ia5125",312.137313365401,194.51
"24","il14h",308.915988448326,363.44
"25","k148",324.98363315749,315.05
"26","ki2021",340.380271111988,346.34
"27","ki21",342.671897531698,366.15
"28","ki43",338.718218709421,356.17
"29","m162w",345.77574337113,323.61
"30","ms153",319.278837688012,322.65
"31","mt42",300.86599385486,218.21
"32","n6",324.773526863936,300.6
"33","nc236",329.591355393349,338.93
"34","nc250",300.889999768805,261.28
"35","nc264",320.300521293213,313.19
"36","nc296a",366.011275580577,358.08
"37","nc298",335.403977398312,327.18
"38","nc306",308.47834410899,287.94
"39","nc310",294.123699422926,273.79
"40","nc314",309.243580509805,323.89
"41","nc33",330.109011391543,343.19
"42","nc336",357.146342049387,346.37
"43","nc340",335.205312381431,308.44
"44","nc368",306.07266781775,238.98
"45","oh603",336.677089835633,340.41
"46","r109b",316.402050638153,324.48
"47","sc213r",304.731566511793,358.96
"48","t232",330.69869658889,310.15
"49","t8",356.307465939833,325.82
"50","va102",307.62111616487,310.46
"51","va14",337.791917480377,373.9
"52","va26",319.887722491552,282.45
"53","va85",324.518490772929,345.18
"54","vaw6",327.731637352646,301.48
"55","w182b",297.678845201031,279.35
"56","w22",305.366106645653,317.95
"57","wf9",319.347237785189,319.46
