"","taxa","s1","tassprimbranchno_BLUP.Hung_2012_1"
"1","4226",11.4959641025983,19.04
"2","4722",12.7098595543973,11.01
"3","a554",9.59570393970863,9.45
"4","ab28a",11.6662604663067,10.55
"5","b104",9.83438725307221,9.21
"6","b115",11.4643787805254,14.46
"7","b37",6.16718710978357,7.36
"8","b52",9.5488115132445,6.44
"9","b57",11.1021076858231,19.16
"10","b64",8.4984328293297,4.77
"11","b73",7.18944253452958,6.71
"12","b73htrhm",7.11697797993944,5.95
"13","c49a",8.97170427931897,7.8
"14","ch70130",10.5188240191974,7.3
"15","ch9",10.2452888323163,2.77
"16","ci31a",10.7241009330645,14.47
"17","cm37",8.33671788674522,13.24
"18","cml14",14.1913983378145,16.13
"19","cml218",14.8398240751895,17.41
"20","cml254",14.3504305813647,11.07
"21","cml281",14.0894573172499,17.67
"22","cml328",14.0271979464816,17.51
"23","cml341",13.8842486378187,6.7
"24","cml69",15.1845408182328,10.54
"25","cml91",12.8935431074056,7.76
"26","de1",10.4911008801091,13.68
"27","f2834t",13.0035577532298,10.27
"28","gt112",14.2500727736828,14.63
"29","h99",10.9377495821624,4.59
"30","ids28",12.2629833927855,15.73
"31","ids69",13.9844782868571,13.83
"32","il101",10.4835569400042,9.15
"33","ki3",15.3462563875517,11.16
"34","ki43",13.6834526961834,7.76
"35","m37w",12.5737526664782,10.91
"36","mef156552",11.2140924886617,9.18
"37","ms1334",11.121595261477,6.62
"38","n7a",8.75217021757384,9.25
"39","nc222",12.0352894847031,14.65
"40","nc258",9.64342403762615,7.47
"41","nc290a",7.2556974531663,5.59
"42","nc296a",11.1147204545653,8.27
"43","nc314",7.45706894111388,7.77
"44","nc33",12.0540832527089,15.05
"45","nc338",12.8125493237414,13.09
"46","nc342",9.35862617081327,8.23
"47","nc354",13.1383423824116,13.71
"48","nc356",13.4623438329673,11.52
"49","oh43",9.52827409071146,6.16
"50","oh43e",9.30826304408918,4.5
"51","pa762",9.55147031768301,4.98
"52","r177",9.62317016218561,7.15
"53","r229",7.66203118364721,7
"54","r4",9.49436048135888,8.07
"55","sa24",13.5372333476503,13.98
"56","sc55",13.2016806033599,24.3
"57","sg18",15.473128880428,22.55
