"","taxa","s1","tasslength_BLUP.Hung_2012_1"
"1","a239",314.996880411357,319.72
"2","a634",293.054166791543,242.88
"3","a641",299.236368673368,266.86
"4","a659",309.627059858837,309.23
"5","b105",308.857063176031,304.25
"6","b2",331.406192499266,375.67
"7","b57",327.212624488426,317.02
"8","b68",289.42898832427,331.17
"9","b73htrhm",292.799155502399,293.01
"10","b77",331.289963163207,367.83
"11","ch70130",319.316294557427,324.87
"12","ci90c",331.966756657588,357.55
"13","cm105",275.416799246915,241.67
"14","cml108",345.09658376161,375.99
"15","cml11",369.535100970044,391.1
"16","cml14",350.859165124774,367.61
"17","cml254",353.798931234846,329.99
"18","cml261",351.510672044031,375.16
"19","cml322",353.438002349755,331.23
"20","cml331",364.400701208748,426.05
"21","cml45",350.003530001031,350.22
"22","cml91",342.911906394591,356.13
"23","cmv3",301.549660175987,305.6
"24","co255",301.138961483012,239.04
"25","de811",306.963189514461,311.5
"26","e2558w",329.877034579132,393.78
"27","h105w",299.529556093182,303.85
"28","h84",304.60098767764,261.49
"29","hy",342.399364639102,284.13
"30","i205",323.693753831263,304.97
"31","ids28",323.157191148984,278.22
"32","ids91",316.182139525064,316.44
"33","il101",300.082861595403,365.84
"34","k148",323.331839766507,315.05
"35","k4",321.490964956895,339.43
"36","ki44",344.845599964428,323.82
"37","m162w",338.627028974101,323.61
"38","mef156552",311.742451938803,268.24
"39","ms71",322.806172368421,263.51
"40","mt42",306.556354604287,218.21
"41","n192",281.054214021447,281.85
"42","n7a",316.821470439486,259.68
"43","nc230",310.381199022841,332.38
"44","nc238",307.630389597352,286.51
"45","nc260",340.781189528298,360.99
"46","nc290a",324.595907666216,339.21
"47","nc296a",362.968119088131,358.08
"48","nc306",288.904314917429,287.94
"49","nc336",355.440958658842,346.37
"50","nc358",342.373094158096,241.36
"51","oh40b",320.043781385101,351.04
"52","oh43e",304.256062879362,309.91
"53","r177",322.163125644419,307.88
"54","sc213r",314.336703014391,358.96
"55","tzi11",334.16009182694,311.65
"56","w117ht",318.104802245074,307.9
"57","wf9",323.751778783032,319.46
