"","taxa","s1","tassprimbranchno_BLUP.Hung_2012_1"
"1","3316",9.95418351057347,16.54
"2","3811",9.72079063805656,11.1
"3","a6",14.8979514578861,15.95
"4","a635",7.68420047221833,7.6
"5","a641",8.76343284008833,5.01
"6","a654",8.97741609187982,3.92
"7","ab28a",11.4417422954268,10.55
"8","b115",11.3014530633947,14.46
"9","b46",9.8356600094204,8.35
"10","b73",6.8853765113433,6.71
"11","b73htrhm",6.83940918860725,5.95
"12","b84",8.71554195080287,11.13
"13","ci1872",10.7295744747239,15.67
"14","ci28a",11.7150847737489,10.64
"15","ci3a",10.6142488117634,15.52
"16","cm37",7.89339002427718,13.24
"17","cm7",10.7061366253968,4.68
"18","cml108",13.166416747345,6.95
"19","cml11",14.7972316784594,16.59
"20","cml264",14.3408628837606,15.83
"21","cml331",12.5207342570243,13.84
"22","cml92",13.2862636446915,14.6
"23","co106",10.4075862759632,9.8
"24","d940y",11.4421153399839,10.53
"25","de1",8.74904552117377,13.68
"26","de2",8.76465092869765,11.05
"27","de3",8.9980478392544,10.94
"28","de811",9.15127527244284,5.57
"29","h95",8.50714008386603,12.2
"30","h99",9.51381861742109,4.59
"31","hy",8.78376591963393,10.24
"32","i205",9.17178758919983,7.38
"33","il677a",10.5009448322518,15.09
"34","ky21",12.1472003604967,15.96
"35","ky226",11.3800256384862,12.17
"36","ky228",11.3001951025224,16.79
"37","m162w",10.8561421167867,8.65
"38","mo24w",11.819843525827,14.48
"39","ms71",8.18828031988379,10.45
"40","nc296a",10.9398391001133,8.27
"41","nc300",12.0318057440291,7.39
"42","nc306",8.1231753821076,11.57
"43","nc318",15.1355472863885,23.99
"44","nc348",11.971116255835,10.73
"45","nc352",12.4189890724712,13
"46","nc364",7.33068012712564,5.83
"47","oh43e",7.54920317273012,4.5
"48","pa880",10.2768391138323,13.9
"49","r109b",10.5348799025455,8.48
"50","r168",9.0361963487181,10.64
"51","r4",9.0521134114473,8.07
"52","sc357",13.2652749889098,18.67
"53","sd40",7.86977684605796,10.95
"54","t232",10.9733890731738,14.84
"55","t234",11.6454504900551,13.93
"56","tx303",14.4353558840312,21.08
"57","tx601",13.2939219392638,15.57
