"","taxa","s1","tassprimbranchno_BLUP.Hung_2012_1"
"1","3811",9.88234451166707,11.1
"2","4226",11.3104402525988,19.04
"3","a188",10.0707514739788,15.08
"4","a239",9.51989812227244,5.56
"5","a4415",12.2174516522989,12.59
"6","b52",9.57699196291918,6.44
"7","b57",10.8226709935689,19.16
"8","b73htrhm",6.74505562055178,5.95
"9","b77",12.1151494722105,10.35
"10","b97",10.4813426533883,12.58
"11","ci21e",10.4587927263822,7.79
"12","ci31a",10.2602981420326,14.47
"13","cml218",14.8173468454104,17.41
"14","cml261",14.1392107632645,19.56
"15","cml277",14.9556244421045,5.7
"16","cml341",15.1328167850348,6.7
"17","cml45",14.8296879768222,11.81
"18","cml77",12.8004849849729,12.65
"19","cmv3",9.83367095181611,6.42
"20","co106",10.1999225109038,9.8
"21","de2",11.5745426762192,11.05
"22","ep1",9.29944910341394,10.93
"23","h84",8.48321718777693,5.5
"24","hp301",14.9515379976209,15.1
"25","k64",8.9783799071711,11.12
"26","ki2021",12.7200762089198,20.29
"27","ki43",13.0450567485564,7.76
"28","mo18w",11.1872573283653,23.41
"29","mo24w",11.9304795356315,14.48
"30","mo45",10.3067088030911,8.48
"31","mo46",10.2100935109571,10.67
"32","mog",11.9091794359648,11.34
"33","ms153",10.3985874826929,9.5
"34","nc232",12.718657999097,14.22
"35","nc236",11.9752959469575,20.81
"36","nc306",8.3767662045298,11.57
"37","nc320",16.3674794740446,19.43
"38","nc328",7.10622363859988,6.08
"39","nc336",12.0038683340281,13.32
"40","nc340",10.7822796186396,9.75
"41","nc344",8.16933935772032,9.38
"42","nc348",12.247192858394,10.73
"43","nd246",9.59161268657252,9.91
"44","oh43e",7.63400985735867,4.5
"45","oh7b",10.4012661066232,7.49
"46","p39",10.5491589037905,10.3
"47","r109b",11.3173076928812,8.48
"48","r177",9.49527876100935,7.15
"49","sc213r",14.0760022683142,12.73
"50","sd40",7.91982063292718,10.95
"51","sg18",15.7435692592695,22.55
"52","tx303",13.7616657856398,21.08
"53","tzi8",15.6650236541336,13.44
"54","va22",9.20223479089501,14.48
"55","w22rrstd",10.1484584461713,9.29
"56","w64a",9.43488136113044,8.91
"57","wd",9.23687367324333,9.86
