"","taxa","s1","tassprimbranchno_BLUP.Hung_2012_1"
"1","3316",11.3088759127168,16.54
"2","a556",9.81650924814521,6.69
"3","a641",8.76564626673182,5.01
"4","a679",6.9546767367599,7.23
"5","a682",7.27653810341191,5.13
"6","b103",9.77799255492912,1.11
"7","b104",10.354164439718,9.21
"8","b14a",6.83734743888237,6.14
"9","b164",10.5902262173822,14.97
"10","b76",8.03780753389365,6.19
"11","ch70130",9.91892027539242,7.3
"12","ci21e",10.6625528346243,7.79
"13","ci64",11.7397447640859,7.71
"14","ci7",11.9327536207278,8.95
"15","cml154q",14.3561966894689,13.29
"16","cml220",14.8897778794938,20.06
"17","cml247",14.8843640408434,11.96
"18","cml38",14.9179695147817,14.73
"19","cml77",13.0202131398586,12.65
"20","cmv3",10.1018140252393,6.42
"21","co106",10.7809343805982,9.8
"22","e2558w",11.040116098204,12.37
"23","f6",13.0033107009011,18.65
"24","h49",10.1290228666066,9.5
"25","i205",9.98903800746498,7.38
"26","il14h",12.2367458234877,11.72
"27","k64",11.102025748093,11.12
"28","ki14",14.6490204755849,14.96
"29","ki3",14.8178440127432,11.16
"30","ki44",13.4318940874353,11.97
"31","ky226",11.565282756536,12.17
"32","mef156552",11.4721542646633,9.18
"33","mo44",10.8199271679682,5.13
"34","mo46",9.93510174310154,10.67
"35","ms1334",11.2112584269192,6.62
"36","n192",5.96834029575112,5.76
"37","nc260",10.5235806615202,8.09
"38","nc262",7.85052609482813,6.07
"39","nc290a",7.58200899392036,5.59
"40","nc296a",10.9945330178239,8.27
"41","nc328",7.13753576612984,6.08
"42","nc338",12.5747878574739,13.09
"43","nc344",8.77851788892979,9.38
"44","oh40b",8.13864146089687,7.8
"45","oh43",6.15637760384897,6.16
"46","pa91",9.40245921465035,10.33
"47","r168",10.6018981513754,10.64
"48","r177",9.92642257898141,7.15
"49","r4",9.89008174893372,8.07
"50","sc357",12.8589110218675,18.67
"51","tx601",13.5733999295391,15.57
"52","tzi10",13.9996951814334,19.89
"53","tzi25",12.3439873461626,20.56
"54","u267y",11.7955253828392,5.39
"55","va22",9.2563519811705,14.48
"56","va26",7.81321549828369,15.21
"57","w182b",9.57746573278773,8.13
