"","taxa","s1","totalkernelweight_BLUP.Hung_2012_1"
"1","3316",45.7963708526678,64.16
"2","3811",51.6030545116462,53.08
"3","4226",48.5299746142102,56.99
"4","a239",49.3577190523915,56.23
"5","a4415",48.5389487739172,51.21
"6","a659",51.2449347335695,37.81
"7","a682",53.2759502326231,40.51
"8","b57",49.0563856091441,67.82
"9","b73htrhm",60.6034673859541,74.89
"10","b97",49.7100136628262,56.06
"11","ci21e",52.2909587080068,63.56
"12","ci31a",49.2747621561473,53.62
"13","ci91b",49.5455872700371,52.23
"14","cm37",41.5911564240208,32.58
"15","cml157q",48.6851427479998,60.55
"16","cml218",47.4487913127989,50.22
"17","cml264",49.2332559031584,47.85
"18","cml38",48.8462268155766,48.74
"19","cml52",47.8326138505047,36.61
"20","co255",47.1309280089825,47.57
"21","d940y",46.8833962883406,39.51
"22","de3",55.9370137920552,55.62
"23","h49",51.8818217299474,68.21
"24","h84",55.2329249702213,53.52
"25","h95",51.0836352697792,47.49
"26","h99",51.3775283380537,49.72
"27","ia2132",42.4588124378679,38.35
"28","il14h",41.456466702943,35.92
"29","ki14",47.40184462528,49.78
"30","l578",48.487690183366,43.95
"31","m14",48.2421288960653,53.91
"32","ms71",46.3848284626479,43.11
"33","mt42",45.7768215565649,29.45
"34","nc238",45.7103421345416,55.45
"35","nc310",58.0382434167605,68.72
"36","nc320",49.7250129009427,63.12
"37","nc324",51.2075191351817,35.55
"38","nc328",59.0148582123684,53.13
"39","nc340",45.963259641745,60.38
"40","nc354",45.5751119984522,43.03
"41","nc360",53.3657421675714,58.54
"42","nc364",56.2639461529963,62.38
"43","nc366",48.8050003338505,48.75
"44","nc368",55.0492747018028,49.37
"45","oh40b",55.7373254611,52.31
"46","oh7b",54.0378349645693,58.37
"47","os420",51.3652578401324,45.07
"48","pa880",52.6065781074827,47.56
"49","r109b",51.3609117867469,47.15
"50","tx303",49.5151552767442,48.14
"51","tzi10",47.98093894505,34.73
"52","tzi16",51.0079144775893,50.52
"53","tzi8",48.7600795054851,33.86
"54","va102",60.2177282285366,60.63
"55","va17",54.2853835819999,49.49
"56","w22",46.283929728546,40.92
