"","taxa","s1","totalkernelno_BLUP.Hung_2012_1"
"1","a188",225.595887600054,222.24
"2","a239",228.462316604192,243.31
"3","a6",216.869457432547,269.12
"4","a619",261.84757567744,264.78
"5","a634",230.0661299586,209.36
"6","a661",221.652026457081,216.62
"7","ab28a",243.418946194274,192.91
"8","b57",227.565186786979,250.88
"9","b64",226.97471832667,246.87
"10","b75",243.808037320077,248.41
"11","ch70130",225.549043349524,256.09
"12","ch9",232.05280147692,219.99
"13","cm37",208.614991727574,201.35
"14","cml10",221.840472201034,239.28
"15","cml11",223.984270550026,198.53
"16","cml254",227.11915911272,249.78
"17","cml277",219.076153435636,175.22
"18","cml281",218.299813598037,264.8
"19","cml322",228.617514108593,272.26
"20","cml52",220.570359661308,207.66
"21","cml61",224.206182103045,237.37
"22","cml92",226.160196076964,280.92
"23","d940y",226.012247877605,221.39
"24","de3",244.977684576497,229.63
"25","f44",225.879612021758,169.7
"26","h105w",230.743304584208,281.35
"27","hp301",240.891194969402,224.49
"28","hy",237.139217813035,256.21
"29","i205",241.476559939279,161.84
"30","ids69",227.200246710038,217.99
"31","il677a",207.848713551079,226.84
"32","ki11",225.782172501398,204.01
"33","m14",241.838575445412,256.28
"34","mo24w",231.258433123172,327.26
"35","mo44",238.991955373444,232.44
"36","nc238",228.038949119543,246.37
"37","nc260",236.55099976314,242.49
"38","nc290a",267.252092607219,311.88
"39","nc296",193.498079033039,203.61
"40","nc298",209.728605078895,211.37
"41","nc300",220.63299901161,173.48
"42","nc320",233.736508140794,295.34
"43","nc324",233.72695006495,198.45
"44","nc328",284.181040480705,246.88
"45","nc364",256.904405076763,301.46
"46","nc366",227.091645824635,193.89
"47","nd246",219.791448648287,209.36
"48","sc357",223.760326996661,230.73
"49","tzi11",223.216691334998,186.69
"50","va26",252.26917844883,262.28
"51","va35",246.081261992248,274.19
"52","va59",248.186887139828,234.24
"53","va85",240.138967395266,199.13
"54","w182b",223.53425817524,188.92
"55","w22",222.930741634037,202.11
"56","wf9",253.215607390955,289.43
