"","taxa","s1","totalkernelweight_BLUP.Hung_2012_1"
"1","4226",48.7685984209106,56.99
"2","4722",42.3954825967846,20.78
"3","a554",48.0603792529994,37.81
"4","ab28a",50.0739352217297,38.66
"5","b104",53.9493656874249,69.34
"6","b105",53.4731018944415,49.43
"7","b2",52.5283476302582,77.97
"8","b37",51.7255787414543,68.88
"9","b52",51.6317713835001,54.21
"10","b57",49.1325414967217,67.82
"11","b64",49.3810640571652,46.64
"12","b73",59.118122993636,70.96
"13","b73htrhm",58.9621976124206,74.89
"14","ci31a",49.8493510536362,53.62
"15","cm105",48.1863644157258,39.3
"16","cm37",41.688110922656,32.58
"17","cml14",47.2819844421459,56.01
"18","cml218",47.1392104117145,50.22
"19","cml254",48.8439890191701,52.16
"20","cml287",46.3569279938108,70.24
"21","cml322",49.2145033413713,49.37
"22","cml331",50.8067524872025,57.29
"23","cml38",48.2533726641722,48.74
"24","cml52",47.2593229972152,36.61
"25","cml91",48.2729204393561,53.43
"26","de2",59.9007889893204,64.89
"27","de3",53.8977611587528,55.62
"28","h49",51.9800483480221,68.21
"29","ids91",36.4448140210879,31.8
"30","k64",55.9220942225775,56.38
"31","ki11",48.4592372793915,47.21
"32","ki3",47.0084609125659,42.51
"33","l317",46.9360356285022,53.65
"34","mo17",49.8552067495441,58.81
"35","mo18w",50.7955692802101,35.79
"36","ms1334",48.7688703295128,41.08
"37","ms71",46.2518833984955,43.11
"38","mt42",45.8931237253278,29.45
"39","n192",55.8987455254363,46.12
"40","n6",50.1061767536154,59.78
"41","nc238",46.7809346780099,55.45
"42","nc262",60.4235597419261,60.9
"43","nc264",51.56596918323,54.33
"44","nc296",41.7493189008234,40.93
"45","nc298",46.1115353466278,43.77
"46","nc310",55.7320871633268,68.72
"47","nc318",53.3912229351735,48.2
"48","nc324",49.1878913807881,35.55
"49","nc346",42.2844134580424,41.9
"50","nc358",47.584091678122,48.24
"51","oh40b",55.8130996478617,52.31
"52","os420",50.0514023954987,45.07
"53","r109b",51.4265281232243,47.15
"54","r229",57.8810784172922,52.91
"55","w153r",48.6849425505224,41.59
"56","w22",46.0947579435538,40.92
