"","taxa","s1","totalkernelweight_BLUP.Hung_2012_1"
"1","4722",42.5869042311146,20.78
"2","b10",54.0521891310144,57.7
"3","b115",51.8572110704116,50.9
"4","b76",56.8041248593963,52.58
"5","b79",52.51215002112,64.42
"6","ci91b",49.1770065179435,52.23
"7","cm7",48.2433157833168,36.38
"8","cml10",48.9655426935764,54.93
"9","cml11",49.3888786933013,34.45
"10","cml220",48.5241326011751,53.27
"11","cml247",49.3221938891369,36.63
"12","cml261",48.3342810843592,63.12
"13","cml321",47.7970752863408,31.8
"14","cml333",50.194235256018,34.15
"15","cml341",48.2899412017764,32.15
"16","co125",49.9406112109056,37.66
"17","f6",48.4278667958072,48.37
"18","h99",50.7055947681917,49.72
"19","hy",55.7491283621057,56.75
"20","i205",54.1352145210158,33.82
"21","ids69",35.8823004960437,31.35
"22","il14h",40.8904338867343,35.92
"23","k148",50.9236786261431,35.88
"24","k4",51.9273611329457,64.01
"25","ki14",48.1288115197903,49.78
"26","ki43",48.5972856007815,35.48
"27","ky228",48.9331636954806,48.54
"28","mog",50.8446697339029,51.67
"29","ms1334",49.847031605709,41.08
"30","ms71",46.8991058518727,43.11
"31","mt42",47.0034642937999,29.45
"32","nc232",52.1849419050098,60.68
"33","nc238",46.6738412980995,55.45
"34","nc258",55.3191609685759,52.39
"35","nc314",47.4586572363459,47.72
"36","nc326",63.8549367018301,57.02
"37","nc33",49.6218039078499,44.37
"38","nc344",56.7507272070419,56.67
"39","nc352",44.3125531972003,55.38
"40","nc368",55.4501262893104,49.37
"41","oh40b",55.8542219138327,52.31
"42","oh43",58.8237911190506,58.84
"43","oh603",53.6919587808841,38.73
"44","pa880",54.1732124776738,47.56
"45","sc55",49.9810976894584,49.62
"46","sg1533",42.1337403821994,49.18
"47","t232",51.8026287538557,46.95
"48","tx601",48.9781439680641,44.07
"49","tzi11",49.0046288001917,36.1
"50","tzi16",52.1749823347937,50.52
"51","tzi9",48.4966136890721,70.35
"52","va14",55.0046598144972,40.25
"53","va59",58.713302475374,56.67
"54","vaw6",52.6071912303424,46.58
"55","w22",49.4282451570302,40.92
"56","w22rrstd",49.3535416953347,42.96
