"","taxa","s1","totalkernelno_BLUP.Hung_2012_1"
"1","4226",228.477880281226,269.8
"2","a4415",229.837130741918,227.61
"3","a554",234.006370741873,230.93
"4","a632",236.057299510499,222.46
"5","a635",228.792139145172,227.56
"6","a659",233.220831317745,176.75
"7","b105",241.40085744441,268.57
"8","b57",228.771860419462,250.88
"9","b64",227.454700908235,246.87
"10","b68",227.540582973005,238.45
"11","b77",232.426576459261,226.82
"12","b79",242.329471230876,258.2
"13","c123",250.903935899834,260.52
"14","ci7",252.539593497635,209.45
"15","ci90c",239.249626620722,247.44
"16","cm105",215.959032733401,198.01
"17","cm7",225.172099874292,179.39
"18","cml154q",220.902595120964,262.04
"19","cml247",223.2724799642,195.16
"20","cml254",226.510560972463,249.78
"21","cml287",221.649122576701,292.93
"22","cml328",225.364569334625,204.23
"23","cml333",228.340303175137,189.89
"24","co255",223.245484447581,255.05
"25","d940y",236.732589328198,221.39
"26","f6",228.120801367128,211.99
"27","gt112",230.619025761538,205.78
"28","i205",239.601910089,161.84
"29","ia2132",214.451974603992,206.59
"30","ia5125",225.774154470129,175.44
"31","k4",233.746010142241,290.85
"32","ki11",226.423482422849,204.01
"33","ki21",232.240760823746,231.09
"34","ki3",221.777177121083,180.41
"35","ki44",222.524396713192,203.63
"36","ky228",228.79535254053,235.24
"37","m37w",229.334566422858,204.87
"38","mo1w",244.536035322391,257.27
"39","ms71",228.930939585001,223.67
"40","n28ht",239.467784028301,293.82
"41","nc262",276.499168979004,289.02
"42","nc320",232.976442906263,295.34
"43","nc326",285.819346145942,300.24
"44","nc336",209.985251146425,222.09
"45","nc354",210.410997493711,200.62
"46","nc358",215.625006110631,220.21
"47","nd246",222.152785056423,209.36
"48","oh603",238.777539694158,180.8
"49","oh7b",233.17127278693,259.19
"50","pa880",248.210607770222,225.27
"51","r4",241.153938294195,268.63
"52","tx303",230.653256858343,213.08
"53","u267y",235.385730026878,196.11
"54","vaw6",239.303788112078,242.91
"55","w117ht",228.173702774965,168.48
"56","w182b",222.097325731454,188.92
