"","taxa","s1","totalkernelweight_BLUP.Hung_2012_1"
"1","4722",41.4729399515193,20.78
"2","a272",47.689111786817,31.03
"3","a554",49.0606000486051,37.81
"4","a556",52.9731836360338,36.04
"5","a619",56.5008313696838,59.94
"6","b64",49.3256427583071,46.64
"7","c103",56.0740358480071,65.51
"8","ci28a",59.3152625229378,54.97
"9","ci7",53.9638737128915,39.1
"10","cm105",46.7061772298086,39.3
"11","cml108",50.0028503799196,41.6
"12","cml228",47.5822761637844,45.39
"13","cml247",49.2191524573519,36.63
"14","cml254",50.1782707960152,52.16
"15","cml311",47.4815246245466,45.95
"16","cml321",47.6840918379535,31.8
"17","cml61",49.453271594053,56.09
"18","de2",60.0221816388028,64.89
"19","de811",52.1863626634642,62.39
"20","h95",52.2353126399668,47.49
"21","hp301",39.0365306068571,29.49
"22","ia2132",42.3777836891236,38.35
"23","ids91",37.7292608259752,31.8
"24","il101",39.8396578647722,28.94
"25","k55",51.2943983548502,51.05
"26","ki3",47.7922582807746,42.51
"27","ky226",51.1926842986989,42.22
"28","mef156552",44.1679144002116,67.15
"29","mo1w",51.0391311173441,56.02
"30","mo44",50.5169860567705,51.61
"31","mo46",52.28298017445,47.84
"32","nc238",46.6318193615596,55.45
"33","nc260",50.5362699287182,51.07
"34","nc296a",44.0154217476586,36.39
"35","nc300",53.2689579542656,43.9
"36","nc306",55.5762501138488,44.48
"37","nc314",48.2545933775251,47.72
"38","nc318",53.3738448314121,48.2
"39","nc336",47.2873805141868,51.66
"40","nc354",46.0735544289014,43.03
"41","nc358",47.7795179207945,48.24
"42","nc364",56.8031525082903,62.38
"43","oh40b",53.5875928312846,52.31
"44","oh603",51.8379168150328,38.73
"45","oh7b",51.1535238701179,58.37
"46","pa91",53.7890747904238,61.75
"47","sa24",41.7969023784142,46.77
"48","sc357",47.0170062327303,43.78
"49","sc55",48.8262006905494,49.62
"50","tzi10",47.9485378807969,34.73
"51","tzi11",49.1133853957712,36.1
"52","tzi9",48.6182433237421,70.35
"53","u267y",50.5570355403962,40.65
"54","va99",52.2077892824065,67.84
"55","wf9",55.8184473501591,59.34
"56","yu796ns",51.0810710985313,54.39
