"","taxa","s1","totalkernelweight_BLUP.Hung_2012_1"
"1","4722",39.3237140607236,20.78
"2","a188",48.7913690493402,52.65
"3","a679",59.5144648643249,65.9
"4","ab28a",50.7813064465611,38.66
"5","b115",53.0605620956629,50.9
"6","b14a",48.104300825066,50.84
"7","b68",48.9168797847862,52.75
"8","b73",64.3980155050205,70.96
"9","b84",60.4348769777981,58.32
"10","b97",50.0736614793094,56.06
"11","ci3a",49.5582261854679,49.42
"12","ci7",54.6352857720359,39.1
"13","cm174",40.9886468536745,47.98
"14","cm7",47.3605456643459,36.38
"15","cml158q",48.7925617273314,37.06
"16","cml323",48.6528015125268,50.26
"17","cml332",51.6507761765142,55.02
"18","cml77",46.1480367289153,57.1
"19","cmv3",41.4594622724808,35.95
"20","de3",57.1274245530669,55.62
"21","f44",49.257331292941,33.39
"22","h105w",49.509779127985,52.82
"23","h84",57.1457555135079,53.52
"24","h91",48.0698095854516,54.77
"25","h99",50.8330486142885,49.72
"26","il677a",39.7343552050034,47.16
"27","k148",50.6083369391456,35.88
"28","ki14",45.775676667817,49.78
"29","ki2021",46.3384016271263,54.23
"30","ky21",52.4075708539571,53.05
"31","m162w",60.8824370089833,55.52
"32","mef156552",43.0232006056202,67.15
"33","mo18w",50.4440008112463,35.79
"34","mo46",52.9501085057672,47.84
"35","ms153",47.2966061489876,49.37
"36","mt42",45.7061241989427,29.45
"37","n28ht",53.0825752250635,59.82
"38","nc238",46.4303518056731,55.45
"39","nc250",51.7108069346836,54.02
"40","nc262",61.7737119782907,60.9
"41","nc324",50.1539391446124,35.55
"42","nc326",64.3302194189593,57.02
"43","nc352",44.4770558017942,55.38
"44","nc356",44.3906706999407,54.35
"45","nc368",55.8801214133661,49.37
"46","oh43",59.4801721377685,58.84
"47","pa875",51.3605058848318,54.52
"48","r109b",51.3632375725117,47.15
"49","sa24",39.3096443102361,46.77
"50","sc55",49.5816263487445,49.62
"51","t232",51.8338094809666,46.95
"52","tx303",51.4841576585733,48.14
"53","tzi16",50.1293557605713,50.52
"54","tzi18",47.4075171353463,42.42
"55","va59",59.5938570472195,56.67
"56","w117ht",48.6748931690733,33.94
