"","taxa","s1","totalkernelweight_BLUP.Hung_2012_1"
"1","4226",49.3961079927863,56.99
"2","a214n",50.3811600794063,42.11
"3","a556",52.303215044536,36.04
"4","a654",48.6843577534092,42.32
"5","a680",62.4760703653916,61.81
"6","b14a",50.7830309682791,50.84
"7","b37",49.2994817326106,68.88
"8","b46",49.2730454569226,55.08
"9","b77",50.0399790870018,53.16
"10","ci31a",52.4700921559269,53.62
"11","ci66",50.5670162346379,43.26
"12","cm174",42.7090113767529,47.98
"13","cm7",47.2876938993846,36.38
"14","cml157q",49.4692556664234,60.55
"15","cml238",48.1008587383707,43.22
"16","cml254",48.3588375291558,52.16
"17","cml261",47.0993175108389,63.12
"18","cml311",46.0853823320359,45.95
"19","cml323",49.4937692128,50.26
"20","cml333",49.8432455089403,34.15
"21","cml38",48.4766836668586,48.74
"22","cml52",47.8348491350969,36.61
"23","cml77",46.9802807460397,57.1
"24","f2834t",48.4721393370407,50.36
"25","f44",49.5564144355199,33.39
"26","ga209",49.9498638351808,34.11
"27","gt112",51.0509527195563,39.06
"28","h105w",49.9556971614422,52.82
"29","h99",51.4299726079652,49.72
"30","ids28",45.1092872490434,40.87
"31","il101",42.1027967934499,28.94
"32","k148",50.2624492114547,35.88
"33","k55",52.5808169359065,51.05
"34","ky226",50.6442611525988,42.22
"35","l578",50.0485522189771,43.95
"36","mo17",49.9915811406118,58.81
"37","mo24w",51.3491847353292,73.57
"38","mo44",51.0532574058165,51.61
"39","mo47",51.4985829714793,46.88
"40","n7a",52.7870536389748,54.05
"41","nc232",51.7424283039184,60.68
"42","nc236",50.8113063390366,46.47
"43","nc250",45.741893640136,54.02
"44","nc300",52.647858920287,43.9
"45","nc356",45.6672880864731,54.35
"46","oh7b",53.8321885524049,58.37
"47","p39",41.1863429829002,34.91
"48","pa880",53.2695381981403,47.56
"49","r168",48.115712216234,35.79
"50","r177",49.9080242346028,51.2
"51","r4",53.1012386847269,49.62
"52","sg1533",42.0945693438349,49.18
"53","tx601",48.1529989774783,44.07
"54","tzi25",52.9686091152165,54.54
"55","w117ht",48.6480781351904,33.94
"56","wf9",56.2778911905451,59.34
