"","taxa","s1","totalkernelweight_BLUP.Hung_2012_1"
"1","a239",49.0281972391348,56.23
"2","a634",49.1703520607763,39.11
"3","a641",47.1687974582779,43.71
"4","a659",50.9805956338756,37.81
"5","b10",52.9682055534873,57.7
"6","b104",54.6792140869052,69.34
"7","b105",53.2401608489112,49.43
"8","b2",53.7475449015056,77.97
"9","b57",49.674683491,67.82
"10","b68",50.3528867706327,52.75
"11","b73htrhm",62.7932231343519,74.89
"12","ch70130",48.6845040804163,55.31
"13","ci7",54.0042569302764,39.1
"14","ci90c",52.1957520168295,35.4
"15","cm105",46.2879787058979,39.3
"16","cm37",40.6837243627133,32.58
"17","cml108",49.612595931563,41.6
"18","cml11",51.3018302178802,34.45
"19","cml264",48.8915819252726,47.85
"20","cml314",49.1498169464015,64.16
"21","cml5",49.2961170013365,50.72
"22","cml52",49.3531766881697,36.61
"23","cml61",49.4802291012325,56.09
"24","cml69",49.5201000368407,35.2
"25","co125",48.6893773288984,37.66
"26","de1",57.9657182214191,71.44
"27","ep1",44.1170143154497,51.49
"28","f2834t",48.9880454643861,50.36
"29","h91",50.1570391686582,54.77
"30","il677a",39.7813852705793,47.16
"31","ky226",52.0714109432336,42.22
"32","mo45",50.579910231115,59.73
"33","ms1334",48.2574423895948,41.08
"34","n28ht",52.2622563854616,59.82
"35","n6",50.0375626600052,59.78
"36","n7a",53.9269019868996,54.05
"37","nc258",54.9732293715653,52.39
"38","nc262",61.7151677286745,60.9
"39","nc300",54.0238522056529,43.9
"40","nc318",54.2897251129132,48.2
"41","nc324",49.6386831194186,35.55
"42","nc350",42.0706518926553,37.23
"43","pa875",51.2661422350794,54.52
"44","pa880",52.8297667562787,47.56
"45","pa91",59.6252415861491,61.75
"46","r168",48.4916454332293,35.79
"47","r229",61.6507603048464,52.91
"48","sa24",33.8255849824124,46.77
"49","t234",51.8038859556109,51.84
"50","tx303",50.1140353401624,48.14
"51","tzi8",49.2577091732406,33.86
"52","u267y",50.4902386381667,40.65
"53","vaw6",53.1586390878407,46.58
"54","w22",45.6869962751789,40.92
"55","wf9",56.6636398601744,59.34
"56","yu796ns",51.1260801063284,54.39
