"","taxa","s1","weight20kernels_BLUP.Hung_2012_1"
"1","3316",4.28530547563892,4.58
"2","a556",4.28886231094962,4
"3","a641",4.27839826095072,4.37
"4","a679",4.29252907211276,3.95
"5","a682",4.34911056120246,4.46
"6","ab28a",4.21030465336161,4.61
"7","b104",4.23729978258376,4.89
"8","b14a",4.33742164871009,4.77
"9","b164",4.28869715834409,4.61
"10","b76",4.98632966104249,6.22
"11","ch70130",4.40166667289622,4.01
"12","ci21e",4.49345331248749,5.43
"13","ci64",5.04490828006747,4.58
"14","ci7",4.2574497923106,3.92
"15","cml154q",4.44628904915099,4.52
"16","cml220",4.46704251542926,5.32
"17","cml247",4.43648022456295,3.98
"18","cml261",4.55395331473028,5.15
"19","cml61",4.54280147626637,5.56
"20","co125",4.21185920851311,3.78
"21","de1",5.16231203778042,5.14
"22","f7",4.10784014555288,3.89
"23","h95",3.99649702781626,3.38
"24","hy",4.2960244186293,4.42
"25","i29",3.91139718741573,2.37
"26","ids69",2.60610266442829,2.27
"27","ki14",4.35957523406756,4.39
"28","ki43",4.48582762271114,4.84
"29","m37w",4.37732852714064,4.42
"30","mo17",4.40091284882252,5
"31","ms71",3.90355466696284,4.45
"32","n6",4.27204694517779,4.22
"33","n7a",4.49903631302197,4.28
"34","nc222",4.4794760653444,5.05
"35","nc250",4.80128746255708,4.95
"36","nc258",4.30111136174937,4.1
"37","nc264",4.34675569629912,5.15
"38","nc33",4.35255203015247,4.61
"39","nc354",4.57779644830012,4.18
"40","nc356",4.54806436734483,4.98
"41","nc362",4.38253517663083,3.99
"42","nd246",4.32557549992884,3.16
"43","oh43e",4.47240129235235,4.39
"44","os420",4.36584967678764,4.83
"45","p39",4.11335800006967,3.2
"46","pa875",4.33958518668141,4.01
"47","pa91",4.51262150628801,5.04
"48","r109b",4.52734332790244,5.92
"49","r229",4.21542628921058,4.81
"50","t232",4.46514241028568,5.94
"51","t234",4.51249628648397,4.99
"52","va102",4.28873105249981,4.07
"53","va99",4.51926633938542,6.09
"54","w117ht",4.43957006304016,4.49
"55","w22",3.96701106326151,3.86
