"","taxa","s1","weight20kernels_BLUP.Hung_2012_1"
"1","3811",4.39348733855983,3.9
"2","a554",4.39056992350486,3.24
"3","a661",4.25471851868082,4.17
"4","b164",4.27752797818915,4.61
"5","b2",4.46276732938076,6.01
"6","b46",4.34273956214672,4.49
"7","b73htrhm",4.26010199875374,4.1
"8","b77",4.41275432812009,5.12
"9","b84",4.81348361112066,4.82
"10","ci1872",4.26718406037959,4.29
"11","ci28a",4.35304505278297,4.39
"12","cm174",4.12920147606918,3.78
"13","cm7",4.34864111881637,4.29
"14","cml154q",4.47715530213675,4.52
"15","cml238",4.51362575710182,3.76
"16","cml247",4.49299005124704,3.98
"17","cml314",4.52517357982379,5.21
"18","cml61",4.54286415802747,5.56
"19","cml69",4.48163380982351,4.64
"20","cmv3",3.95470803807949,3.36
"21","gt112",4.61354287515223,4.63
"22","h105w",4.60042792709186,3.66
"23","h95",4.0378018862135,3.38
"24","h99",4.37982655706589,4.4
"25","hp301",2.72006386768812,2.18
"26","i29",4.02272362333316,2.37
"27","ids28",3.86199528477425,2.65
"28","ki14",4.40583729755403,4.39
"29","l317",4.5445805522294,3.87
"30","m14",4.28723711765311,4.03
"31","mo24w",4.5911951453665,4.06
"32","mo45",4.70962241057944,3.66
"33","mo47",4.56063678534084,4.21
"34","n28ht",4.49738127009075,4.14
"35","nc230",4.57487862011737,4.38
"36","nc238",4.44234459590883,4.12
"37","nc250",4.98095423681187,4.95
"38","nc258",4.49530704513349,4.1
"39","nc260",4.58181510304367,4.01
"40","nc298",4.72544678171295,4.33
"41","nc302",4.25487289692904,5.78
"42","nc314",4.08040107832069,4.15
"43","nc336",4.41682401823485,4.43
"44","nc342",4.38191154569376,4.5
"45","nc344",4.54000333454625,4.02
"46","pa91",4.62140487925923,5.04
"47","r109b",4.5602024082918,5.92
"48","sg18",3.31685573541227,2.34
"49","t234",4.5669778360762,4.99
"50","va17",4.36549368869,4.7
"51","va22",4.63276307017734,4.31
"52","va35",4.91842788115179,5.14
"53","va99",4.57204045087699,6.09
"54","w153r",4.24364757693484,4.28
"55","w22rrstd",4.05248295498888,3.65
