"","taxa","s1","weight20kernels_BLUP.Hung_2012_1"
"1","a188",4.27409601605707,4.86
"2","a4415",4.49751319035131,5.74
"3","a679",4.2695493405135,3.95
"4","b2",4.48895296973761,6.01
"5","b46",4.31234696916963,4.49
"6","b52",4.32394940317658,3.93
"7","b84",4.75288008048418,4.82
"8","b97",4.41424342879274,5.17
"9","c123",4.55194555323137,4.72
"10","ch9",4.25420591866265,5.33
"11","ci28a",4.4411839885815,4.39
"12","ci31a",4.95232792872348,4.5
"13","cml323",4.36834697633778,4.07
"14","cml333",4.52697113582214,4.07
"15","cml38",4.42028416313577,3.39
"16","cml69",4.48726682469321,4.64
"17","cml91",4.56753005359873,4.97
"18","cmv3",3.88407526975416,3.36
"19","de811",4.267568268844,5.1
"20","e2558w",4.69452726520481,4.29
"21","f6",4.34639609574955,4.53
"22","h95",3.99542907055691,3.38
"23","hi27",4.5061838833,4.1
"24","hy",4.78482971516763,4.42
"25","i29",3.88931786215586,2.37
"26","ia2132",4.27640910041922,4.42
"27","ki21",4.34021464411306,4.02
"28","ky228",4.42188855267556,4.15
"29","mo17",4.45222103952471,5
"30","mo44",4.18939237273792,4.58
"31","mo46",4.43734374033372,4.9
"32","mo47",4.33129301021556,4.21
"33","nc230",4.59070322241387,4.38
"34","nc236",4.41060479824619,3.87
"35","nc290a",4.28139978191821,4.59
"36","nc298",4.78119717455162,4.33
"37","nc300",5.12574869290648,6.08
"38","nc302",4.50323893262679,5.78
"39","nc306",4.38218000043676,5.13
"40","nc314",4.04153921641018,4.15
"41","nc318",4.65767532964154,4.16
"42","nc336",4.71317953792686,4.43
"43","nc350",4.55761903394423,3.74
"44","nc352",4.70442649104714,4.15
"45","nc366",4.59597973043208,5.99
"46","oh40b",4.65947805094341,5.85
"47","oh603",4.59456587980626,4.44
"48","p39",4.03223027774643,3.2
"49","pa875",4.3540097016302,4.01
"50","tzi16",4.38613694211215,4.25
"51","tzi9",4.49339488909389,4.65
"52","u267y",4.53690046531414,4.78
"53","va102",4.25200541850283,4.07
"54","vaw6",4.48678589116294,3.89
"55","w22rrstd",4.06447544406705,3.65
