"","taxa","s1","weight20kernels_BLUP.Hung_2012_1"
"1","a6",4.5155529611796,4.36
"2","a619",4.58120782834798,4.7
"3","a635",4.58875506671782,4.22
"4","a654",4.11415045234345,4.63
"5","b109",4.44080934311099,4.81
"6","b46",4.28068156220691,4.49
"7","ci31a",4.95127547935708,4.5
"8","ci64",5.09996785112742,4.58
"9","ci7",4.39700951959959,3.92
"10","ci90c",4.19251151316363,3.26
"11","cm37",3.5575931007852,3.44
"12","cml14",4.50773005815671,4.71
"13","cml154q",4.48287115784553,4.52
"14","cml220",4.49701976724112,5.32
"15","cml247",4.44269193765707,3.98
"16","cml261",4.63108454651594,5.15
"17","cml323",4.3703107189685,4.07
"18","cml328",4.4497172786613,3.43
"19","cml332",4.21581689414813,5.03
"20","cml45",4.56178443677806,4.59
"21","cml92",4.40159275136331,5.52
"22","de3",4.94423769010156,5.61
"23","gt112",4.41999407645906,4.63
"24","h49",4.07756926327934,4.64
"25","i137tn",4.51797691367642,5.6
"26","i205",4.77329254179955,4.51
"27","il14h",4.0401534218164,4.51
"28","ki2021",4.53186275281609,3.94
"29","ki21",4.46614014181958,4.02
"30","ki44",4.51020189221929,4.11
"31","ky21",4.42804846060571,4.96
"32","mo24w",4.52422697321002,4.06
"33","mp339",4.45185405093689,4.47
"34","ms153",4.32229400654867,5.45
"35","n192",4.12143817840875,3.89
"36","n28ht",4.46769159192055,4.14
"37","n7a",4.73072188188809,4.28
"38","nc222",4.50781833074006,5.05
"39","nc262",4.45377823190961,4.04
"40","nc264",4.36397817985609,5.15
"41","nc306",4.40337761576947,5.13
"42","nc324",4.2713955157479,3.68
"43","nc328",4.18706316819009,4.22
"44","nc33",4.32844182941994,4.61
"45","nc366",4.62818073374595,5.99
"46","oh43",4.55634365391019,3.84
"47","pa880",4.47810369089078,4.31
"48","pa91",5.10201397192459,5.04
"49","r109b",4.464511175346,5.92
"50","sg1533",2.77641416270912,3.46
"51","tzi18",4.43869990301796,4.44
"52","tzi8",4.40216723900223,3.92
"53","va22",4.85882378265916,4.31
"54","va26",4.56861766757401,4.81
"55","w22",3.8751253029895,3.86
